{
"type": "FeatureCollection",
"name": "2 mars 2020 16:23:47",
"crs": { "type": "name", "properties": { "name": "urn:ogc:def:crs:OGC:1.3:CRS84" } },
"features": [
{ "type": "Feature", "properties": { "Name": "2 mars 2020 16:23:47", "description": "", "begin": "2020\/03\/02 15:23:47.661+00", "end": "2020\/03\/02 16:55:37.915+00" }, "geometry": { "type": "MultiLineString", "coordinates": [ [ [ 3.835923, 43.616049 ], [ 3.835969, 43.61615 ], [ 3.836048, 43.616224 ], [ 3.836117, 43.616305 ], [ 3.836126, 43.6164 ], [ 3.836181, 43.616485 ], [ 3.836218, 43.616574 ], [ 3.836292, 43.616649 ], [ 3.836275, 43.616558 ], [ 3.836293, 43.616461 ], [ 3.836168, 43.616454 ], [ 3.836101, 43.61655 ], [ 3.836171, 43.616665 ], [ 3.836266, 43.616732 ], [ 3.836429, 43.616778 ], [ 3.836595, 43.616843 ], [ 3.836723, 43.616916 ], [ 3.836863, 43.616973 ], [ 3.836972, 43.617037 ], [ 3.837079, 43.61709 ], [ 3.837066, 43.616961 ], [ 3.837076, 43.61687 ], [ 3.837229, 43.616829 ], [ 3.837134, 43.616903 ], [ 3.837177, 43.61701 ], [ 3.837264, 43.617102 ], [ 3.837413, 43.617154 ], [ 3.837546, 43.61721 ], [ 3.837596, 43.617294 ], [ 3.837583, 43.61739 ], [ 3.837514, 43.617477 ], [ 3.837561, 43.617596 ], [ 3.837542, 43.61769 ], [ 3.837561, 43.617398 ], [ 3.837615, 43.617303 ], [ 3.83751, 43.617368 ], [ 3.837635, 43.617344 ], [ 3.837777, 43.617387 ], [ 3.837923, 43.617414 ], [ 3.838047, 43.617437 ], [ 3.838173, 43.617453 ], [ 3.8383, 43.617478 ], [ 3.838426, 43.61748 ], [ 3.838565, 43.617511 ], [ 3.838693, 43.617541 ], [ 3.838808, 43.617575 ], [ 3.838911, 43.617666 ], [ 3.839035, 43.617723 ], [ 3.839163, 43.617801 ], [ 3.839187, 43.617893 ], [ 3.839027, 43.617891 ], [ 3.838898, 43.617837 ], [ 3.838788, 43.617934 ], [ 3.838803, 43.618049 ], [ 3.83887, 43.617944 ], [ 3.838857, 43.617827 ], [ 3.838746, 43.61777 ], [ 3.838612, 43.617715 ], [ 3.838464, 43.617673 ], [ 3.838327, 43.617626 ], [ 3.838187, 43.617645 ], [ 3.838134, 43.61773 ], [ 3.838046, 43.61781 ], [ 3.837968, 43.617909 ], [ 3.83787, 43.617975 ], [ 3.837928, 43.61807 ], [ 3.838083, 43.618087 ], [ 3.838196, 43.618046 ], [ 3.838272, 43.617974 ], [ 3.8384, 43.618006 ], [ 3.838317, 43.618079 ], [ 3.83827, 43.61799 ], [ 3.838362, 43.617899 ], [ 3.838286, 43.617986 ], [ 3.838358, 43.617891 ], [ 3.838513, 43.617982 ], [ 3.838618, 43.618038 ], [ 3.838675, 43.618124 ], [ 3.838803, 43.618108 ], [ 3.838715, 43.618033 ], [ 3.83859, 43.618065 ], [ 3.838454, 43.618084 ], [ 3.838335, 43.618118 ], [ 3.838207, 43.618115 ], [ 3.83806, 43.618186 ], [ 3.837962, 43.618297 ], [ 3.837945, 43.618386 ], [ 3.838016, 43.618482 ], [ 3.838144, 43.618545 ], [ 3.8382, 43.618641 ], [ 3.83832, 43.618616 ], [ 3.838437, 43.618576 ], [ 3.838331, 43.618628 ], [ 3.838477, 43.618602 ], [ 3.838349, 43.618566 ], [ 3.838248, 43.618498 ], [ 3.838254, 43.618589 ], [ 3.838246, 43.618704 ], [ 3.838321, 43.618785 ], [ 3.838246, 43.618859 ], [ 3.838185, 43.618939 ], [ 3.838125, 43.619026 ], [ 3.838226, 43.618942 ], [ 3.838209, 43.61885 ], [ 3.838221, 43.618752 ], [ 3.838338, 43.618717 ], [ 3.838386, 43.618628 ], [ 3.838286, 43.618562 ], [ 3.838265, 43.618658 ], [ 3.838288, 43.61875 ], [ 3.838119, 43.618612 ], [ 3.838, 43.61852 ], [ 3.837914, 43.618614 ], [ 3.837829, 43.618709 ], [ 3.837738, 43.618782 ], [ 3.837637, 43.618863 ], [ 3.837752, 43.61873 ], [ 3.837835, 43.618623 ], [ 3.837928, 43.618532 ], [ 3.837998, 43.618444 ], [ 3.837909, 43.618361 ], [ 3.83777, 43.618468 ], [ 3.837694, 43.618543 ], [ 3.837608, 43.618612 ], [ 3.837503, 43.618729 ], [ 3.837446, 43.618828 ], [ 3.837359, 43.61894 ], [ 3.837279, 43.619023 ], [ 3.837164, 43.619093 ], [ 3.837026, 43.619106 ], [ 3.83707, 43.619192 ], [ 3.837014, 43.619299 ], [ 3.837072, 43.619389 ], [ 3.83708, 43.619481 ], [ 3.837164, 43.61955 ], [ 3.837082, 43.619475 ], [ 3.836992, 43.619408 ], [ 3.836942, 43.619319 ], [ 3.836902, 43.619225 ], [ 3.837043, 43.619221 ], [ 3.836936, 43.619274 ], [ 3.837032, 43.61934 ], [ 3.837158, 43.619382 ], [ 3.837284, 43.619398 ], [ 3.837375, 43.619464 ], [ 3.837399, 43.619558 ], [ 3.837302, 43.619479 ], [ 3.837201, 43.619415 ], [ 3.837152, 43.61933 ], [ 3.837028, 43.619321 ], [ 3.837011, 43.619413 ], [ 3.836913, 43.618002 ], [ 3.836869, 43.618092 ], [ 3.836837, 43.618183 ], [ 3.836837, 43.618283 ], [ 3.836814, 43.618413 ], [ 3.836772, 43.618517 ], [ 3.836796, 43.61838 ], [ 3.836931, 43.61835 ], [ 3.836519, 43.618116 ], [ 3.836636, 43.618184 ], [ 3.836701, 43.618262 ], [ 3.83668, 43.618359 ], [ 3.836689, 43.618492 ], [ 3.836548, 43.618502 ], [ 3.836408, 43.618484 ], [ 3.837237, 43.617858 ], [ 3.837255, 43.61776 ], [ 3.837362, 43.617713 ], [ 3.837503, 43.617598 ], [ 3.837618, 43.61751 ], [ 3.837688, 43.617407 ], [ 3.837578, 43.617349 ], [ 3.837456, 43.617378 ], [ 3.837379, 43.617463 ], [ 3.837263, 43.617569 ], [ 3.837153, 43.617711 ], [ 3.837072, 43.617783 ], [ 3.83696, 43.617871 ], [ 3.836825, 43.61786 ], [ 3.836675, 43.617886 ], [ 3.836586, 43.617966 ], [ 3.836508, 43.618049 ], [ 3.836413, 43.618175 ], [ 3.836333, 43.61828 ], [ 3.83627, 43.61836 ], [ 3.836183, 43.618463 ], [ 3.836169, 43.618562 ], [ 3.836217, 43.618648 ], [ 3.836137, 43.618543 ], [ 3.836186, 43.618457 ], [ 3.836286, 43.618378 ], [ 3.836394, 43.618292 ], [ 3.836451, 43.618192 ], [ 3.8364, 43.61811 ], [ 3.836313, 43.618178 ], [ 3.836354, 43.618084 ], [ 3.836283, 43.618008 ], [ 3.836147, 43.618018 ], [ 3.836021, 43.617988 ], [ 3.835923, 43.617914 ], [ 3.835841, 43.617843 ], [ 3.835968, 43.617843 ], [ 3.836073, 43.61791 ], [ 3.836157, 43.617985 ], [ 3.836271, 43.618042 ], [ 3.836329, 43.618128 ], [ 3.836186, 43.618162 ], [ 3.836055, 43.618131 ], [ 3.835932, 43.618071 ], [ 3.835787, 43.618056 ], [ 3.835663, 43.617998 ], [ 3.836106, 43.618087 ], [ 3.836239, 43.618108 ], [ 3.836256, 43.618203 ], [ 3.836382, 43.618162 ], [ 3.83654, 43.618088 ], [ 3.836624, 43.61801 ], [ 3.836689, 43.61791 ], [ 3.836533, 43.617828 ], [ 3.836375, 43.617738 ], [ 3.836217, 43.61766 ], [ 3.83611, 43.617591 ], [ 3.835949, 43.617507 ], [ 3.835818, 43.617449 ], [ 3.835696, 43.617503 ], [ 3.8356, 43.617563 ], [ 3.835882, 43.617711 ], [ 3.835929, 43.617617 ], [ 3.835836, 43.61755 ], [ 3.835772, 43.617472 ], [ 3.835683, 43.617367 ], [ 3.835561, 43.617296 ], [ 3.835436, 43.617268 ], [ 3.835356, 43.617343 ], [ 3.835272, 43.617449 ], [ 3.835156, 43.617558 ], [ 3.83506, 43.617645 ], [ 3.835, 43.617725 ], [ 3.834878, 43.617769 ], [ 3.834762, 43.617831 ], [ 3.834566, 43.617893 ], [ 3.834443, 43.617941 ], [ 3.834422, 43.618061 ], [ 3.834557, 43.618149 ], [ 3.834718, 43.618253 ], [ 3.834804, 43.618318 ], [ 3.834899, 43.618377 ], [ 3.834991, 43.61844 ], [ 3.835084, 43.618505 ], [ 3.83517, 43.618578 ], [ 3.835258, 43.618646 ], [ 3.83534, 43.618718 ], [ 3.83548, 43.618792 ], [ 3.835627, 43.618773 ], [ 3.835758, 43.618684 ], [ 3.835836, 43.618589 ], [ 3.835859, 43.618481 ], [ 3.83581, 43.618345 ], [ 3.83567, 43.618259 ], [ 3.835526, 43.618153 ], [ 3.835361, 43.618048 ], [ 3.835253, 43.617974 ], [ 3.835409, 43.618058 ], [ 3.835512, 43.618135 ], [ 3.835567, 43.618225 ], [ 3.835535, 43.618314 ], [ 3.835435, 43.618368 ], [ 3.83535, 43.618298 ], [ 3.835498, 43.618315 ], [ 3.835541, 43.618401 ], [ 3.835623, 43.61848 ], [ 3.835609, 43.618571 ], [ 3.835492, 43.618621 ], [ 3.835607, 43.618658 ], [ 3.83574, 43.618685 ], [ 3.835489, 43.6188 ], [ 3.835658, 43.618714 ], [ 3.835658, 43.618612 ], [ 3.8356, 43.618518 ], [ 3.83553, 43.618441 ], [ 3.835464, 43.618353 ], [ 3.835577, 43.618296 ], [ 3.835725, 43.61831 ], [ 3.83581, 43.618409 ], [ 3.835846, 43.618527 ], [ 3.835886, 43.618633 ], [ 3.835968, 43.618708 ], [ 3.835963, 43.6188 ], [ 3.835973, 43.6187 ], [ 3.835871, 43.618646 ], [ 3.835728, 43.618718 ], [ 3.835619, 43.618793 ], [ 3.835534, 43.618871 ], [ 3.835417, 43.618938 ], [ 3.83533, 43.619027 ], [ 3.835253, 43.6191 ], [ 3.835173, 43.619189 ], [ 3.835058, 43.619284 ], [ 3.834955, 43.619354 ], [ 3.834853, 43.619437 ], [ 3.834768, 43.619507 ], [ 3.834604, 43.619621 ], [ 3.834442, 43.61966 ], [ 3.834384, 43.619762 ], [ 3.83428, 43.619849 ], [ 3.834183, 43.619915 ], [ 3.834021, 43.620017 ], [ 3.833933, 43.620103 ], [ 3.833847, 43.620168 ], [ 3.833753, 43.620247 ], [ 3.833647, 43.620329 ], [ 3.833538, 43.620413 ], [ 3.833411, 43.620437 ], [ 3.833422, 43.620345 ], [ 3.833519, 43.620268 ] ] ] } }
]
}
