{
"type": "FeatureCollection",
"name": "24 févr 2020 12:16:36",
"crs": { "type": "name", "properties": { "name": "urn:ogc:def:crs:OGC:1.3:CRS84" } },
"features": [
{ "type": "Feature", "properties": { "Name": "OOOOOOQOsOOSsOO", "description": "oO", "timestamp": "2020\/02\/24 14:31:57+00", "begin": null, "end": null }, "geometry": { "type": "Point", "coordinates": [ 3.820315, 43.640838 ] } },
{ "type": "Feature", "properties": { "Name": "24 févr 2020 12:16:36", "description": "", "timestamp": null, "begin": "2020\/02\/24 11:16:36.525+00", "end": "2020\/02\/24 15:13:36.435+00" }, "geometry": { "type": "MultiLineString", "coordinates": [ [ [ 3.818028, 43.641375 ], [ 3.818, 43.641248 ], [ 3.817983, 43.641142 ], [ 3.818002, 43.641038 ], [ 3.818033, 43.640944 ], [ 3.818078, 43.640839 ], [ 3.818128, 43.640727 ], [ 3.818205, 43.640615 ], [ 3.818223, 43.640513 ], [ 3.8182, 43.640409 ], [ 3.818122, 43.640304 ], [ 3.818002, 43.640225 ], [ 3.817815, 43.640241 ], [ 3.817642, 43.640229 ], [ 3.817442, 43.64023 ], [ 3.817233, 43.640237 ], [ 3.817032, 43.640264 ], [ 3.816848, 43.640304 ], [ 3.816651, 43.640379 ], [ 3.81649, 43.640474 ], [ 3.816374, 43.640569 ], [ 3.816295, 43.640656 ], [ 3.816249, 43.640745 ], [ 3.816156, 43.640854 ], [ 3.816076, 43.640927 ], [ 3.815964, 43.640985 ], [ 3.815963, 43.641091 ], [ 3.81598, 43.641188 ], [ 3.815995, 43.64131 ], [ 3.816057, 43.641223 ], [ 3.816016, 43.641105 ], [ 3.815969, 43.64101 ], [ 3.815971, 43.640891 ], [ 3.816044, 43.640799 ], [ 3.816139, 43.640699 ], [ 3.816239, 43.640601 ], [ 3.816319, 43.640507 ], [ 3.816428, 43.640422 ], [ 3.816549, 43.640333 ], [ 3.816709, 43.640257 ], [ 3.816891, 43.640211 ], [ 3.817095, 43.640189 ], [ 3.817294, 43.640185 ], [ 3.817482, 43.640188 ], [ 3.817662, 43.640186 ], [ 3.817835, 43.640164 ], [ 3.817976, 43.640116 ], [ 3.818106, 43.640052 ], [ 3.818212, 43.63999 ], [ 3.818314, 43.639899 ], [ 3.818414, 43.639778 ], [ 3.818476, 43.639649 ], [ 3.818477, 43.639499 ], [ 3.818436, 43.639327 ], [ 3.818402, 43.639236 ], [ 3.818359, 43.639148 ], [ 3.818313, 43.639058 ], [ 3.818208, 43.638906 ], [ 3.818109, 43.638747 ], [ 3.818033, 43.638579 ], [ 3.817933, 43.638429 ], [ 3.817853, 43.638279 ], [ 3.817795, 43.638192 ], [ 3.817728, 43.638111 ], [ 3.817626, 43.637984 ], [ 3.817502, 43.637825 ], [ 3.817435, 43.637743 ], [ 3.817329, 43.637586 ], [ 3.81723, 43.637431 ], [ 3.817187, 43.637346 ], [ 3.817112, 43.637174 ], [ 3.817079, 43.637087 ], [ 3.817059, 43.636995 ], [ 3.817023, 43.636827 ], [ 3.817015, 43.636649 ], [ 3.817003, 43.636472 ], [ 3.81699, 43.636305 ], [ 3.816979, 43.636139 ], [ 3.81695, 43.635988 ], [ 3.81687, 43.635838 ], [ 3.816751, 43.635719 ], [ 3.816584, 43.635635 ], [ 3.81644, 43.635519 ], [ 3.816324, 43.635374 ], [ 3.81625, 43.635216 ], [ 3.816235, 43.635127 ], [ 3.816239, 43.635036 ], [ 3.81625, 43.634946 ], [ 3.816314, 43.634784 ], [ 3.816428, 43.634628 ], [ 3.816589, 43.6345 ], [ 3.81675, 43.634406 ], [ 3.81688, 43.634368 ], [ 3.816961, 43.634285 ], [ 3.816908, 43.634181 ], [ 3.816812, 43.634094 ], [ 3.816776, 43.634005 ], [ 3.816762, 43.633914 ], [ 3.816764, 43.633824 ], [ 3.816806, 43.633722 ], [ 3.816858, 43.633632 ], [ 3.817033, 43.63362 ], [ 3.817131, 43.633729 ], [ 3.817209, 43.633805 ], [ 3.817283, 43.63389 ], [ 3.817414, 43.633986 ], [ 3.817519, 43.634057 ], [ 3.817655, 43.634034 ], [ 3.817797, 43.634063 ], [ 3.817932, 43.634052 ], [ 3.818016, 43.63398 ], [ 3.817943, 43.633892 ], [ 3.817881, 43.633809 ], [ 3.817798, 43.633736 ], [ 3.81777, 43.633647 ], [ 3.817829, 43.63356 ], [ 3.817968, 43.63353 ], [ 3.818123, 43.633528 ], [ 3.818014, 43.633585 ], [ 3.817887, 43.633587 ], [ 3.817792, 43.633679 ], [ 3.817909, 43.633764 ], [ 3.817999, 43.633848 ], [ 3.818101, 43.63395 ], [ 3.818071, 43.634048 ], [ 3.817949, 43.634078 ], [ 3.817797, 43.634083 ], [ 3.81764, 43.634093 ], [ 3.817477, 43.634061 ], [ 3.817363, 43.633979 ], [ 3.817259, 43.633865 ], [ 3.817118, 43.633753 ], [ 3.816968, 43.633678 ], [ 3.816846, 43.633714 ], [ 3.816809, 43.633839 ], [ 3.816814, 43.633941 ], [ 3.816837, 43.634033 ], [ 3.816914, 43.634108 ], [ 3.817026, 43.634179 ], [ 3.817137, 43.63427 ], [ 3.817289, 43.63431 ], [ 3.817455, 43.634325 ], [ 3.817538, 43.634254 ], [ 3.817706, 43.634252 ], [ 3.817857, 43.634247 ], [ 3.81801, 43.634231 ], [ 3.818176, 43.634218 ], [ 3.818322, 43.63422 ], [ 3.818452, 43.634204 ], [ 3.818574, 43.634127 ], [ 3.818543, 43.634029 ], [ 3.818434, 43.633951 ], [ 3.818316, 43.63387 ], [ 3.818229, 43.633797 ], [ 3.81816, 43.63371 ], [ 3.818153, 43.633604 ], [ 3.818188, 43.633503 ], [ 3.81809, 43.633429 ], [ 3.817924, 43.633433 ], [ 3.817767, 43.633425 ], [ 3.817628, 43.633429 ], [ 3.817413, 43.633447 ], [ 3.817293, 43.633413 ], [ 3.817174, 43.633367 ], [ 3.817327, 43.63335 ], [ 3.817436, 43.63341 ], [ 3.817567, 43.633427 ], [ 3.817658, 43.63336 ], [ 3.81762, 43.63327 ], [ 3.81763, 43.633175 ], [ 3.81769, 43.633257 ], [ 3.817737, 43.633163 ], [ 3.81776, 43.633073 ], [ 3.817665, 43.633132 ], [ 3.817626, 43.633221 ], [ 3.817676, 43.633122 ], [ 3.817696, 43.633017 ], [ 3.817703, 43.632762 ], [ 3.817725, 43.633002 ], [ 3.817671, 43.633084 ], [ 3.817799, 43.633073 ], [ 3.817881, 43.632998 ], [ 3.817962, 43.632929 ], [ 3.818056, 43.6325 ], [ 3.818149, 43.632585 ], [ 3.818178, 43.632701 ], [ 3.818256, 43.632628 ], [ 3.818189, 43.632716 ], [ 3.81813, 43.632803 ], [ 3.818086, 43.632899 ], [ 3.817979, 43.632829 ], [ 3.817871, 43.632891 ], [ 3.81775, 43.632913 ], [ 3.817684, 43.632783 ], [ 3.817669, 43.633111 ], [ 3.817539, 43.633132 ], [ 3.817652, 43.633173 ], [ 3.81754, 43.633224 ], [ 3.817376, 43.633041 ], [ 3.817531, 43.633205 ], [ 3.817406, 43.633224 ], [ 3.817558, 43.633293 ], [ 3.817682, 43.633323 ], [ 3.817807, 43.633323 ], [ 3.817942, 43.63329 ], [ 3.818412, 43.633101 ], [ 3.818468, 43.632994 ], [ 3.818508, 43.632882 ], [ 3.818639, 43.632834 ], [ 3.818551, 43.632769 ], [ 3.818653, 43.632844 ], [ 3.819049, 43.632615 ], [ 3.819093, 43.632528 ], [ 3.819046, 43.632168 ], [ 3.819043, 43.632072 ], [ 3.818915, 43.632081 ], [ 3.81905, 43.63209 ], [ 3.819105, 43.632007 ], [ 3.819129, 43.632293 ], [ 3.819125, 43.632441 ], [ 3.819167, 43.632551 ], [ 3.819308, 43.632571 ], [ 3.819711, 43.632591 ], [ 3.819832, 43.632571 ], [ 3.819823, 43.632454 ], [ 3.819839, 43.632318 ], [ 3.819842, 43.632214 ], [ 3.81976, 43.632102 ], [ 3.819746, 43.632009 ], [ 3.819788, 43.632117 ], [ 3.81977, 43.632248 ], [ 3.819794, 43.632396 ], [ 3.819874, 43.632482 ], [ 3.819972, 43.632565 ], [ 3.820115, 43.632533 ], [ 3.820272, 43.632522 ], [ 3.820502, 43.632544 ], [ 3.820644, 43.63256 ], [ 3.820784, 43.632541 ], [ 3.820938, 43.632513 ], [ 3.821176, 43.632517 ], [ 3.821385, 43.632505 ], [ 3.821573, 43.632558 ], [ 3.821765, 43.632534 ], [ 3.821885, 43.632502 ], [ 3.822021, 43.632501 ], [ 3.82188, 43.632533 ], [ 3.821712, 43.632564 ], [ 3.821572, 43.632591 ], [ 3.821549, 43.632679 ], [ 3.821434, 43.632644 ], [ 3.821254, 43.632607 ], [ 3.821101, 43.632643 ], [ 3.820967, 43.632649 ], [ 3.820823, 43.632656 ], [ 3.820671, 43.632658 ], [ 3.82051, 43.632663 ], [ 3.820354, 43.632673 ], [ 3.820214, 43.632671 ], [ 3.820085, 43.632649 ], [ 3.819943, 43.63268 ], [ 3.819924, 43.632792 ], [ 3.819927, 43.632899 ], [ 3.81994, 43.633007 ], [ 3.819957, 43.633127 ], [ 3.81998, 43.633253 ], [ 3.819982, 43.633369 ], [ 3.819988, 43.633489 ], [ 3.819995, 43.633599 ], [ 3.820016, 43.633721 ], [ 3.820011, 43.633816 ], [ 3.820015, 43.633926 ], [ 3.820016, 43.634049 ], [ 3.81989, 43.634087 ], [ 3.819733, 43.634082 ], [ 3.819608, 43.634076 ], [ 3.819467, 43.634074 ], [ 3.819343, 43.634065 ], [ 3.81916, 43.634008 ], [ 3.818999, 43.634035 ], [ 3.819156, 43.634035 ], [ 3.819294, 43.634025 ], [ 3.819424, 43.634023 ], [ 3.819558, 43.634028 ], [ 3.819711, 43.634031 ], [ 3.819838, 43.634038 ], [ 3.819946, 43.633975 ], [ 3.819934, 43.633852 ], [ 3.81992, 43.633705 ], [ 3.819885, 43.63351 ], [ 3.819878, 43.633368 ], [ 3.819864, 43.633212 ], [ 3.819847, 43.633063 ], [ 3.819838, 43.632929 ], [ 3.819826, 43.632794 ], [ 3.819821, 43.63269 ], [ 3.819765, 43.6326 ], [ 3.819588, 43.632602 ], [ 3.819427, 43.632619 ], [ 3.819244, 43.632625 ], [ 3.819086, 43.632646 ], [ 3.81893, 43.632695 ], [ 3.818807, 43.632786 ], [ 3.818673, 43.632885 ], [ 3.818539, 43.632986 ], [ 3.818415, 43.633077 ], [ 3.818448, 43.633183 ], [ 3.8185, 43.633284 ], [ 3.818437, 43.633203 ], [ 3.818282, 43.633213 ], [ 3.818199, 43.633314 ], [ 3.818175, 43.633411 ], [ 3.818178, 43.633525 ], [ 3.818199, 43.633646 ], [ 3.818283, 43.633739 ], [ 3.818361, 43.633824 ], [ 3.818444, 43.6339 ], [ 3.818543, 43.633978 ], [ 3.818628, 43.634059 ], [ 3.818732, 43.634149 ], [ 3.818768, 43.63425 ], [ 3.818953, 43.634273 ], [ 3.819085, 43.634264 ], [ 3.819214, 43.634264 ], [ 3.819347, 43.634264 ], [ 3.81949, 43.63427 ], [ 3.819633, 43.634277 ], [ 3.819764, 43.634283 ], [ 3.819907, 43.634286 ], [ 3.820048, 43.634285 ], [ 3.82019, 43.634288 ], [ 3.820337, 43.634298 ], [ 3.820493, 43.634325 ], [ 3.820695, 43.634334 ], [ 3.820895, 43.634337 ], [ 3.821114, 43.634345 ], [ 3.821334, 43.634344 ], [ 3.821556, 43.63435 ], [ 3.82177, 43.634361 ], [ 3.82195, 43.634371 ], [ 3.821873, 43.63445 ], [ 3.821763, 43.634402 ], [ 3.821653, 43.634448 ], [ 3.821597, 43.63436 ], [ 3.821477, 43.634401 ], [ 3.821345, 43.634397 ], [ 3.82124, 43.634346 ], [ 3.821096, 43.634352 ], [ 3.820965, 43.634357 ], [ 3.82084, 43.634354 ], [ 3.820712, 43.634349 ], [ 3.820559, 43.634318 ], [ 3.820404, 43.634356 ], [ 3.820378, 43.634488 ], [ 3.820476, 43.634575 ], [ 3.82056, 43.634647 ], [ 3.820658, 43.634709 ], [ 3.820777, 43.63477 ], [ 3.820876, 43.634826 ], [ 3.820968, 43.634893 ], [ 3.821039, 43.634971 ], [ 3.821163, 43.635037 ], [ 3.82127, 43.635088 ], [ 3.821397, 43.635127 ], [ 3.821535, 43.635136 ], [ 3.821663, 43.635175 ], [ 3.821797, 43.635257 ], [ 3.82188, 43.635328 ], [ 3.821915, 43.635491 ], [ 3.821928, 43.63561 ], [ 3.821957, 43.635711 ], [ 3.821925, 43.635813 ], [ 3.821904, 43.635906 ], [ 3.82189, 43.636 ], [ 3.82195, 43.636092 ], [ 3.821869, 43.636162 ], [ 3.821926, 43.636242 ], [ 3.821922, 43.636349 ], [ 3.821875, 43.636442 ], [ 3.821895, 43.636544 ], [ 3.821895, 43.636647 ], [ 3.821887, 43.636738 ], [ 3.821947, 43.636817 ], [ 3.822082, 43.636823 ], [ 3.821963, 43.636858 ], [ 3.821856, 43.636918 ], [ 3.821863, 43.637011 ], [ 3.821961, 43.637071 ], [ 3.821811, 43.637056 ], [ 3.821667, 43.637052 ], [ 3.821495, 43.637044 ], [ 3.821355, 43.637039 ], [ 3.821497, 43.637041 ], [ 3.821611, 43.636978 ], [ 3.821529, 43.636868 ], [ 3.821385, 43.636809 ], [ 3.821293, 43.636743 ], [ 3.821169, 43.636653 ], [ 3.821069, 43.636574 ], [ 3.820921, 43.636503 ], [ 3.820944, 43.636413 ], [ 3.821066, 43.636437 ], [ 3.821164, 43.636522 ], [ 3.821274, 43.636581 ], [ 3.821367, 43.636658 ], [ 3.82147, 43.636712 ], [ 3.821574, 43.63677 ], [ 3.821706, 43.636812 ], [ 3.821817, 43.636727 ], [ 3.821797, 43.636608 ], [ 3.821849, 43.63647 ], [ 3.821823, 43.636378 ], [ 3.821804, 43.636286 ], [ 3.821802, 43.63619 ], [ 3.821845, 43.636079 ], [ 3.821857, 43.635984 ], [ 3.821819, 43.635893 ], [ 3.821848, 43.635795 ], [ 3.821832, 43.6357 ], [ 3.82181, 43.635598 ], [ 3.82172, 43.63549 ], [ 3.821616, 43.635428 ], [ 3.821571, 43.635331 ], [ 3.821459, 43.635287 ], [ 3.821335, 43.635255 ], [ 3.821253, 43.635173 ], [ 3.821148, 43.635122 ], [ 3.821047, 43.635039 ], [ 3.820976, 43.634955 ], [ 3.82086, 43.634903 ], [ 3.820787, 43.63483 ], [ 3.820665, 43.634784 ], [ 3.820557, 43.634699 ], [ 3.820462, 43.634632 ], [ 3.820367, 43.634557 ], [ 3.820266, 43.634474 ], [ 3.820169, 43.634413 ], [ 3.820057, 43.63435 ], [ 3.819925, 43.634314 ], [ 3.819782, 43.63432 ], [ 3.819652, 43.634329 ], [ 3.8195, 43.634314 ], [ 3.819348, 43.634306 ], [ 3.819212, 43.634321 ], [ 3.819159, 43.634429 ], [ 3.819099, 43.634518 ], [ 3.81898, 43.634565 ], [ 3.818853, 43.634566 ], [ 3.818726, 43.63457 ], [ 3.818584, 43.634572 ], [ 3.818731, 43.634537 ], [ 3.818887, 43.634543 ], [ 3.819021, 43.634548 ], [ 3.819139, 43.634508 ], [ 3.819201, 43.634399 ], [ 3.819185, 43.634286 ], [ 3.818983, 43.634278 ], [ 3.81883, 43.634282 ], [ 3.818656, 43.634284 ], [ 3.818487, 43.634286 ], [ 3.818328, 43.634285 ], [ 3.818224, 43.634344 ], [ 3.818083, 43.634343 ], [ 3.817939, 43.634341 ], [ 3.817814, 43.63433 ], [ 3.817664, 43.634338 ], [ 3.81753, 43.634353 ], [ 3.817435, 43.634421 ], [ 3.817424, 43.634523 ], [ 3.817503, 43.634605 ], [ 3.817618, 43.634666 ], [ 3.817739, 43.634688 ], [ 3.817855, 43.634755 ], [ 3.817952, 43.634828 ], [ 3.818063, 43.634882 ], [ 3.818187, 43.63491 ], [ 3.818278, 43.634991 ], [ 3.81837, 43.635053 ], [ 3.818504, 43.635091 ], [ 3.818628, 43.635102 ], [ 3.818773, 43.635099 ], [ 3.818897, 43.635126 ], [ 3.819033, 43.635148 ], [ 3.819164, 43.635189 ], [ 3.819277, 43.635146 ], [ 3.819446, 43.635126 ], [ 3.819592, 43.635141 ], [ 3.819716, 43.635119 ], [ 3.819839, 43.635134 ], [ 3.819968, 43.635136 ], [ 3.820095, 43.63512 ], [ 3.82021, 43.635164 ], [ 3.820322, 43.635251 ], [ 3.820428, 43.635326 ], [ 3.820516, 43.635398 ], [ 3.820612, 43.635473 ], [ 3.820728, 43.63555 ], [ 3.820825, 43.635606 ], [ 3.82088, 43.635692 ], [ 3.820885, 43.635809 ], [ 3.820896, 43.635908 ], [ 3.820877, 43.63601 ], [ 3.820844, 43.636118 ], [ 3.82087, 43.636226 ], [ 3.820837, 43.636325 ], [ 3.820851, 43.636416 ], [ 3.820875, 43.636593 ], [ 3.820872, 43.636686 ], [ 3.820864, 43.636814 ], [ 3.82086, 43.636941 ], [ 3.820861, 43.637065 ], [ 3.820853, 43.637157 ], [ 3.820867, 43.63725 ], [ 3.820889, 43.63735 ], [ 3.820745, 43.637334 ], [ 3.820766, 43.637215 ], [ 3.820753, 43.637119 ], [ 3.820667, 43.637037 ], [ 3.820537, 43.636989 ], [ 3.820433, 43.636922 ], [ 3.820321, 43.636844 ], [ 3.820264, 43.636762 ], [ 3.82016, 43.636699 ], [ 3.820051, 43.636608 ], [ 3.819938, 43.636538 ], [ 3.819811, 43.636455 ], [ 3.819702, 43.636412 ], [ 3.819617, 43.636306 ], [ 3.819515, 43.636239 ], [ 3.819388, 43.636163 ], [ 3.819268, 43.636096 ], [ 3.819137, 43.636058 ], [ 3.818988, 43.636051 ], [ 3.818837, 43.636051 ], [ 3.818702, 43.636069 ], [ 3.818562, 43.636095 ], [ 3.818415, 43.636058 ], [ 3.818531, 43.635996 ], [ 3.818659, 43.635986 ], [ 3.818781, 43.636004 ], [ 3.818935, 43.635999 ], [ 3.819077, 43.635997 ], [ 3.819199, 43.636047 ], [ 3.81933, 43.636066 ], [ 3.819429, 43.636126 ], [ 3.819525, 43.636185 ], [ 3.819614, 43.636276 ], [ 3.819706, 43.636358 ], [ 3.819833, 43.636391 ], [ 3.819928, 43.636481 ], [ 3.820068, 43.636454 ], [ 3.820081, 43.636332 ], [ 3.820072, 43.636204 ], [ 3.820051, 43.636088 ], [ 3.819953, 43.636032 ], [ 3.819898, 43.635936 ], [ 3.819768, 43.635924 ], [ 3.81968, 43.635846 ], [ 3.819737, 43.635763 ], [ 3.819861, 43.635805 ], [ 3.819956, 43.635871 ], [ 3.820062, 43.635935 ], [ 3.820111, 43.636023 ], [ 3.82017, 43.636105 ], [ 3.820118, 43.636208 ], [ 3.82017, 43.636291 ], [ 3.82016, 43.636401 ], [ 3.820166, 43.636501 ], [ 3.820183, 43.636603 ], [ 3.820263, 43.636701 ], [ 3.820369, 43.636772 ], [ 3.820469, 43.63683 ], [ 3.820576, 43.636888 ], [ 3.820708, 43.636856 ], [ 3.820758, 43.636761 ], [ 3.820736, 43.636664 ], [ 3.820756, 43.636572 ], [ 3.820755, 43.636479 ], [ 3.820782, 43.636377 ], [ 3.820773, 43.636277 ], [ 3.820792, 43.636185 ], [ 3.820779, 43.636095 ], [ 3.820761, 43.635986 ], [ 3.820737, 43.635888 ], [ 3.820663, 43.635797 ], [ 3.820556, 43.635704 ], [ 3.820477, 43.63563 ], [ 3.820379, 43.635553 ], [ 3.820284, 43.635487 ], [ 3.820158, 43.635441 ], [ 3.820065, 43.635371 ], [ 3.819958, 43.635305 ], [ 3.819828, 43.635227 ], [ 3.819702, 43.635209 ], [ 3.81955, 43.635212 ], [ 3.819429, 43.635182 ], [ 3.819256, 43.635175 ], [ 3.819132, 43.635179 ], [ 3.818997, 43.635189 ], [ 3.818823, 43.635178 ], [ 3.81865, 43.635148 ], [ 3.818491, 43.635116 ], [ 3.818343, 43.635063 ], [ 3.81822, 43.635014 ], [ 3.818085, 43.634966 ], [ 3.818011, 43.634888 ], [ 3.817744, 43.634761 ], [ 3.817624, 43.634714 ], [ 3.817481, 43.634634 ], [ 3.817357, 43.634561 ], [ 3.817263, 43.634496 ], [ 3.817159, 43.63444 ], [ 3.817015, 43.634444 ], [ 3.816877, 43.634467 ], [ 3.81672, 43.634522 ], [ 3.816585, 43.634603 ], [ 3.816567, 43.6347 ], [ 3.816478, 43.634791 ], [ 3.816403, 43.63488 ], [ 3.816349, 43.634985 ], [ 3.81637, 43.635105 ], [ 3.816401, 43.635241 ], [ 3.81642, 43.635338 ], [ 3.816567, 43.635401 ], [ 3.816709, 43.635337 ], [ 3.816793, 43.635261 ], [ 3.816884, 43.635198 ], [ 3.816765, 43.635248 ], [ 3.816881, 43.635208 ], [ 3.817005, 43.635181 ], [ 3.81714, 43.635191 ], [ 3.81726, 43.635214 ], [ 3.817416, 43.635264 ], [ 3.817541, 43.635296 ], [ 3.817703, 43.635421 ], [ 3.817616, 43.635494 ], [ 3.81748, 43.635513 ], [ 3.817374, 43.635443 ], [ 3.817314, 43.635334 ], [ 3.817185, 43.635249 ], [ 3.817017, 43.635242 ], [ 3.816896, 43.635289 ], [ 3.816803, 43.635361 ], [ 3.816726, 43.63544 ], [ 3.816686, 43.635529 ], [ 3.816741, 43.635638 ], [ 3.816828, 43.635709 ], [ 3.816893, 43.63579 ], [ 3.816957, 43.635874 ], [ 3.817006, 43.635959 ], [ 3.81707, 43.636048 ], [ 3.817224, 43.636011 ], [ 3.817312, 43.63593 ], [ 3.817419, 43.635883 ], [ 3.81755, 43.635873 ], [ 3.81767, 43.635828 ], [ 3.817795, 43.635832 ], [ 3.817919, 43.635848 ], [ 3.818048, 43.635854 ], [ 3.818167, 43.635904 ], [ 3.81829, 43.63597 ], [ 3.818398, 43.636079 ], [ 3.818497, 43.636143 ], [ 3.81861, 43.63624 ], [ 3.818681, 43.636314 ], [ 3.81877, 43.63638 ], [ 3.81885, 43.636478 ], [ 3.818953, 43.636548 ], [ 3.819024, 43.636639 ], [ 3.819079, 43.636723 ], [ 3.819191, 43.636789 ], [ 3.819292, 43.636866 ], [ 3.819364, 43.636941 ], [ 3.819454, 43.637019 ], [ 3.819544, 43.637088 ], [ 3.819629, 43.637174 ], [ 3.819731, 43.637228 ], [ 3.819848, 43.637273 ], [ 3.819962, 43.637338 ], [ 3.820119, 43.637372 ], [ 3.820253, 43.637399 ], [ 3.820354, 43.637467 ], [ 3.820496, 43.637461 ], [ 3.820657, 43.63746 ], [ 3.820835, 43.637462 ], [ 3.821023, 43.63746 ], [ 3.821178, 43.63745 ], [ 3.821324, 43.637447 ], [ 3.8215, 43.637437 ], [ 3.821684, 43.637427 ], [ 3.821864, 43.637432 ], [ 3.822006, 43.637453 ], [ 3.8221, 43.637526 ], [ 3.822001, 43.637586 ], [ 3.821815, 43.637579 ], [ 3.821675, 43.637563 ], [ 3.821548, 43.637548 ], [ 3.821416, 43.637601 ], [ 3.821413, 43.637713 ], [ 3.821493, 43.637807 ], [ 3.821567, 43.637902 ], [ 3.821667, 43.637969 ], [ 3.821738, 43.638052 ], [ 3.821827, 43.638115 ], [ 3.821836, 43.638221 ], [ 3.821892, 43.638322 ], [ 3.821968, 43.638571 ], [ 3.821938, 43.638704 ], [ 3.821905, 43.638836 ], [ 3.821884, 43.638949 ], [ 3.82188, 43.639042 ], [ 3.821794, 43.639112 ], [ 3.821662, 43.639119 ], [ 3.821536, 43.639047 ], [ 3.82147, 43.638967 ], [ 3.821381, 43.63889 ], [ 3.821329, 43.638805 ], [ 3.821257, 43.638726 ], [ 3.821175, 43.638643 ], [ 3.821145, 43.638549 ], [ 3.821075, 43.63846 ], [ 3.820969, 43.638401 ], [ 3.820897, 43.638305 ], [ 3.820741, 43.638285 ], [ 3.820605, 43.63829 ], [ 3.820475, 43.638283 ], [ 3.820347, 43.638297 ], [ 3.820224, 43.638278 ], [ 3.820101, 43.638288 ], [ 3.819969, 43.6383 ], [ 3.820103, 43.638257 ], [ 3.820219, 43.638211 ], [ 3.820328, 43.638144 ], [ 3.820472, 43.638139 ], [ 3.820606, 43.638144 ], [ 3.820745, 43.638143 ], [ 3.82088, 43.638127 ], [ 3.82092, 43.638214 ], [ 3.820991, 43.638291 ], [ 3.821037, 43.638376 ], [ 3.821107, 43.638454 ], [ 3.821161, 43.63856 ], [ 3.821234, 43.638647 ], [ 3.82134, 43.63873 ], [ 3.821406, 43.638811 ], [ 3.821562, 43.638914 ], [ 3.821688, 43.638912 ], [ 3.821798, 43.63887 ], [ 3.821893, 43.63881 ], [ 3.821896, 43.638718 ], [ 3.821926, 43.638617 ], [ 3.821885, 43.638524 ], [ 3.82188, 43.638417 ], [ 3.821807, 43.638341 ], [ 3.821769, 43.638247 ], [ 3.821707, 43.638163 ], [ 3.821633, 43.638085 ], [ 3.821604, 43.637988 ], [ 3.821497, 43.637915 ], [ 3.821447, 43.637825 ], [ 3.821349, 43.637739 ], [ 3.82126, 43.637644 ], [ 3.82114, 43.637606 ], [ 3.821013, 43.63758 ], [ 3.820873, 43.637587 ], [ 3.820745, 43.637596 ], [ 3.820603, 43.637567 ], [ 3.820452, 43.637574 ], [ 3.820267, 43.637546 ], [ 3.81999, 43.637509 ], [ 3.819846, 43.637453 ], [ 3.819701, 43.637385 ], [ 3.819569, 43.6373 ], [ 3.819441, 43.637213 ], [ 3.819312, 43.637115 ], [ 3.819211, 43.637016 ], [ 3.819114, 43.636939 ], [ 3.818979, 43.636924 ], [ 3.818873, 43.637003 ], [ 3.818854, 43.637121 ], [ 3.818865, 43.637246 ], [ 3.818873, 43.637383 ], [ 3.818869, 43.637512 ], [ 3.818971, 43.637565 ], [ 3.819056, 43.637464 ], [ 3.819032, 43.637376 ] ], [ [ 3.818858, 43.637444 ], [ 3.81897, 43.637508 ], [ 3.818999, 43.637599 ], [ 3.818873, 43.637571 ], [ 3.818852, 43.637662 ], [ 3.818824, 43.637773 ], [ 3.818837, 43.637867 ], [ 3.818849, 43.637973 ], [ 3.818845, 43.638084 ], [ 3.818832, 43.638179 ], [ 3.818891, 43.638267 ], [ 3.819057, 43.638277 ], [ 3.819202, 43.638279 ], [ 3.819362, 43.63828 ], [ 3.819512, 43.638276 ], [ 3.819649, 43.638245 ], [ 3.819787, 43.638242 ], [ 3.819905, 43.63829 ], [ 3.820015, 43.638336 ], [ 3.820055, 43.638426 ], [ 3.820172, 43.638493 ], [ 3.820208, 43.638601 ], [ 3.820297, 43.63867 ], [ 3.820389, 43.638772 ], [ 3.820475, 43.638888 ], [ 3.820572, 43.63898 ], [ 3.820663, 43.639053 ], [ 3.820696, 43.639147 ], [ 3.820796, 43.639224 ], [ 3.820843, 43.639316 ], [ 3.820946, 43.63938 ], [ 3.821069, 43.639449 ], [ 3.821157, 43.639522 ], [ 3.821287, 43.639537 ], [ 3.821405, 43.639566 ], [ 3.821501, 43.639632 ], [ 3.821625, 43.639664 ], [ 3.82167, 43.639758 ], [ 3.821692, 43.639857 ], [ 3.821671, 43.639946 ], [ 3.821681, 43.640038 ], [ 3.821626, 43.640121 ], [ 3.821548, 43.640202 ], [ 3.821462, 43.640268 ], [ 3.821388, 43.640348 ], [ 3.821273, 43.640385 ], [ 3.821199, 43.640463 ], [ 3.821072, 43.640463 ], [ 3.821059, 43.640372 ], [ 3.821146, 43.640439 ], [ 3.821231, 43.640363 ], [ 3.82133, 43.640307 ], [ 3.821342, 43.640212 ], [ 3.821375, 43.64012 ], [ 3.8213, 43.640039 ], [ 3.821375, 43.639948 ], [ 3.82139, 43.639845 ], [ 3.821384, 43.639748 ], [ 3.821282, 43.639681 ], [ 3.821189, 43.639615 ], [ 3.821079, 43.639572 ], [ 3.820959, 43.639533 ], [ 3.821065, 43.639486 ], [ 3.821185, 43.639551 ], [ 3.821457, 43.639694 ], [ 3.821493, 43.639796 ], [ 3.8215, 43.639915 ], [ 3.82149, 43.640039 ], [ 3.821467, 43.640159 ], [ 3.821384, 43.640271 ], [ 3.821263, 43.640365 ], [ 3.821141, 43.640461 ], [ 3.821014, 43.640557 ], [ 3.820893, 43.640663 ], [ 3.820769, 43.640755 ], [ 3.820629, 43.640822 ], [ 3.820497, 43.640866 ], [ 3.820368, 43.640912 ], [ 3.820244, 43.640906 ], [ 3.820332, 43.640834 ], [ 3.820467, 43.640824 ], [ 3.820546, 43.640748 ], [ 3.820674, 43.640731 ], [ 3.820757, 43.640652 ], [ 3.820836, 43.640569 ], [ 3.820918, 43.640496 ], [ 3.821011, 43.640555 ], [ 3.820931, 43.640629 ], [ 3.820824, 43.640685 ], [ 3.820757, 43.640765 ], [ 3.820642, 43.64081 ], [ 3.820518, 43.640846 ], [ 3.820539, 43.640945 ], [ 3.820431, 43.640894 ], [ 3.820292, 43.640911 ], [ 3.820136, 43.640901 ], [ 3.820002, 43.640914 ], [ 3.819961, 43.641014 ], [ 3.819919, 43.641105 ], [ 3.819957, 43.640997 ], [ 3.820016, 43.64109 ], [ 3.82002, 43.641216 ], [ 3.819951, 43.641293 ], [ 3.819815, 43.641333 ], [ 3.819687, 43.64142 ], [ 3.819615, 43.641519 ], [ 3.819432, 43.641525 ], [ 3.819575, 43.641438 ], [ 3.81966, 43.641353 ], [ 3.819681, 43.64124 ], [ 3.819685, 43.641121 ], [ 3.819705, 43.641031 ], [ 3.819843, 43.641036 ], [ 3.819909, 43.64115 ], [ 3.819944, 43.641271 ], [ 3.819882, 43.64136 ], [ 3.819738, 43.64128 ], [ 3.819736, 43.641147 ], [ 3.819745, 43.641049 ], [ 3.819746, 43.640952 ], [ 3.819667, 43.640863 ], [ 3.81976, 43.640792 ], [ 3.819914, 43.640808 ], [ 3.820121, 43.640811 ], [ 3.820311, 43.640808 ], [ 3.820499, 43.640794 ], [ 3.820674, 43.640748 ], [ 3.820834, 43.640662 ], [ 3.82097, 43.640555 ], [ 3.82109, 43.640454 ], [ 3.821231, 43.640366 ], [ 3.821353, 43.640276 ], [ 3.821446, 43.640166 ], [ 3.821466, 43.640038 ], [ 3.821477, 43.639898 ], [ 3.821464, 43.639773 ], [ 3.821372, 43.639674 ], [ 3.82123, 43.639598 ], [ 3.821069, 43.639519 ], [ 3.820904, 43.639429 ], [ 3.820779, 43.639317 ], [ 3.820674, 43.639204 ], [ 3.820578, 43.639119 ], [ 3.820498, 43.639206 ], [ 3.820487, 43.639329 ], [ 3.820485, 43.639428 ], [ 3.820586, 43.639515 ], [ 3.820671, 43.639589 ], [ 3.820688, 43.63969 ], [ 3.820693, 43.639793 ], [ 3.82058, 43.639832 ], [ 3.820456, 43.639754 ], [ 3.820431, 43.639658 ], [ 3.820302, 43.639615 ], [ 3.820126, 43.639643 ], [ 3.819982, 43.639649 ], [ 3.819845, 43.639653 ], [ 3.819674, 43.639644 ], [ 3.819588, 43.639561 ], [ 3.81958, 43.639458 ], [ 3.819528, 43.639354 ], [ 3.819505, 43.639249 ], [ 3.819501, 43.639149 ], [ 3.819502, 43.63904 ], [ 3.819507, 43.638917 ], [ 3.819456, 43.638827 ], [ 3.819308, 43.638833 ], [ 3.81944, 43.638826 ], [ 3.819492, 43.638908 ], [ 3.819486, 43.63903 ], [ 3.81948, 43.639151 ], [ 3.819486, 43.639275 ], [ 3.819518, 43.639378 ], [ 3.819563, 43.639477 ], [ 3.819603, 43.639572 ], [ 3.819752, 43.639619 ] ], [ [ 3.819984, 43.638808 ], [ 3.819888, 43.638646 ], [ 3.819721, 43.638492 ], [ 3.819562, 43.638566 ], [ 3.819431, 43.6386 ], [ 3.819629, 43.638518 ], [ 3.819412, 43.638472 ], [ 3.81926, 43.638515 ], [ 3.819209, 43.638416 ], [ 3.819089, 43.638451 ], [ 3.819474, 43.638428 ], [ 3.819621, 43.638438 ], [ 3.819814, 43.638523 ], [ 3.820066, 43.638727 ], [ 3.820284, 43.639057 ], [ 3.82046, 43.639008 ], [ 3.820419, 43.638888 ], [ 3.819951, 43.638315 ], [ 3.819454, 43.638285 ], [ 3.818987, 43.638285 ], [ 3.818857, 43.638471 ], [ 3.818885, 43.638565 ], [ 3.818922, 43.638675 ], [ 3.819003, 43.638778 ], [ 3.819148, 43.638952 ], [ 3.819378, 43.639287 ], [ 3.819414, 43.639522 ], [ 3.819446, 43.640014 ], [ 3.819442, 43.640471 ], [ 3.819467, 43.640761 ], [ 3.819248, 43.640882 ], [ 3.819301, 43.64132 ], [ 3.819316, 43.641634 ], [ 3.819262, 43.641841 ], [ 3.819012, 43.641822 ], [ 3.818688, 43.641809 ], [ 3.818696, 43.641703 ], [ 3.818933, 43.641725 ], [ 3.819123, 43.641785 ], [ 3.81902, 43.641667 ], [ 3.818892, 43.641656 ], [ 3.818764, 43.641624 ], [ 3.818586, 43.641659 ], [ 3.818813, 43.641622 ], [ 3.81916, 43.641311 ], [ 3.819082, 43.641201 ], [ 3.818919, 43.641182 ], [ 3.818887, 43.641095 ], [ 3.818823, 43.640999 ], [ 3.818735, 43.640905 ], [ 3.818595, 43.640877 ], [ 3.818907, 43.640819 ], [ 3.819384, 43.640706 ], [ 3.81908, 43.640685 ], [ 3.818815, 43.64067 ], [ 3.818688, 43.64065 ], [ 3.818686, 43.640756 ], [ 3.818869, 43.640687 ], [ 3.818959, 43.640618 ], [ 3.819141, 43.640546 ], [ 3.819121, 43.640422 ], [ 3.81902, 43.640516 ], [ 3.81896, 43.640699 ], [ 3.819119, 43.640703 ], [ 3.819338, 43.64055 ], [ 3.819345, 43.640202 ], [ 3.819319, 43.640098 ], [ 3.819186, 43.640118 ], [ 3.819041, 43.640163 ], [ 3.819108, 43.640036 ], [ 3.81925, 43.640049 ], [ 3.819086, 43.64002 ], [ 3.819208, 43.640089 ], [ 3.819092, 43.640044 ], [ 3.819054, 43.639936 ], [ 3.818997, 43.639826 ], [ 3.81888, 43.640032 ], [ 3.818947, 43.639875 ], [ 3.819128, 43.639764 ], [ 3.819222, 43.639922 ], [ 3.819196, 43.639654 ], [ 3.819153, 43.639532 ], [ 3.81913, 43.639639 ], [ 3.819001, 43.639681 ], [ 3.81916, 43.639674 ], [ 3.819078, 43.639585 ], [ 3.819119, 43.639463 ], [ 3.818999, 43.639359 ], [ 3.819271, 43.63946 ], [ 3.81915, 43.639251 ], [ 3.819126, 43.639145 ], [ 3.819063, 43.639477 ], [ 3.819024, 43.639368 ], [ 3.818949, 43.639266 ], [ 3.819068, 43.639319 ], [ 3.818893, 43.639288 ], [ 3.819053, 43.639301 ], [ 3.819009, 43.63941 ], [ 3.81908, 43.639305 ], [ 3.818977, 43.638986 ], [ 3.818818, 43.638893 ], [ 3.818711, 43.638944 ], [ 3.818887, 43.638887 ], [ 3.818889, 43.63878 ], [ 3.818834, 43.638697 ], [ 3.818706, 43.638657 ], [ 3.818568, 43.638615 ], [ 3.818517, 43.638532 ], [ 3.818415, 43.638636 ], [ 3.818561, 43.638609 ], [ 3.818558, 43.6385 ], [ 3.818591, 43.638411 ], [ 3.818683, 43.63835 ], [ 3.818623, 43.638212 ], [ 3.818566, 43.638128 ], [ 3.818472, 43.638201 ], [ 3.818593, 43.638172 ], [ 3.818689, 43.638301 ], [ 3.81867, 43.638411 ], [ 3.818607, 43.638525 ], [ 3.81863, 43.638617 ], [ 3.818786, 43.63853 ], [ 3.818796, 43.638427 ], [ 3.818785, 43.638302 ], [ 3.818782, 43.638211 ], [ 3.818797, 43.638072 ], [ 3.818806, 43.637969 ], [ 3.81878, 43.637872 ], [ 3.818618, 43.637864 ], [ 3.818456, 43.63791 ], [ 3.818546, 43.637842 ], [ 3.818709, 43.63785 ], [ 3.818802, 43.637763 ], [ 3.818776, 43.637653 ], [ 3.818773, 43.637534 ], [ 3.818786, 43.637322 ], [ 3.818768, 43.637223 ], [ 3.818763, 43.63713 ], [ 3.818705, 43.637009 ], [ 3.818527, 43.637051 ], [ 3.818378, 43.637045 ], [ 3.818172, 43.637034 ], [ 3.818038, 43.637064 ], [ 3.817979, 43.637159 ], [ 3.817979, 43.637272 ], [ 3.817977, 43.637364 ], [ 3.818003, 43.637485 ], [ 3.818098, 43.637577 ], [ 3.81812, 43.637694 ], [ 3.818169, 43.637797 ] ] ] } }
]
}
