{
"type": "FeatureCollection",
"name": "24 févr 2020 09:52:56",
"crs": { "type": "name", "properties": { "name": "urn:ogc:def:crs:OGC:1.3:CRS84" } },
"features": [
{ "type": "Feature", "properties": { "Name": "Pour oopoopooooo0p", "description": "Poto pop pop opposition ppp o ", "timestamp": "2020\/02\/24 12:19:24+00", "begin": null, "end": null }, "geometry": { "type": "Point", "coordinates": [ 3.856305, 43.64152 ] } },
{ "type": "Feature", "properties": { "Name": "24 févr 2020 09:52:56", "description": "", "timestamp": null, "begin": "2020\/02\/24 08:52:57.014+00", "end": "2020\/02\/24 15:14:36.151+00" }, "geometry": { "type": "MultiLineString", "coordinates": [ [ [ 3.857928, 43.640958 ], [ 3.8579, 43.640869 ], [ 3.857923, 43.640778 ], [ 3.858115, 43.640818 ], [ 3.858263, 43.640834 ], [ 3.858256, 43.640934 ], [ 3.858349, 43.641029 ], [ 3.858517, 43.641106 ], [ 3.858651, 43.641155 ], [ 3.85882, 43.641203 ], [ 3.858967, 43.641226 ], [ 3.859095, 43.641255 ], [ 3.85924, 43.641296 ], [ 3.859362, 43.641327 ], [ 3.859452, 43.641252 ], [ 3.859501, 43.64116 ], [ 3.859557, 43.641054 ], [ 3.859673, 43.640935 ], [ 3.859774, 43.640851 ], [ 3.859868, 43.640758 ], [ 3.85997, 43.640697 ], [ 3.860076, 43.640604 ], [ 3.86018, 43.640514 ], [ 3.860312, 43.640484 ], [ 3.860434, 43.64054 ], [ 3.86055, 43.640611 ], [ 3.860605, 43.64071 ], [ 3.860575, 43.640822 ], [ 3.86053, 43.640915 ], [ 3.860546, 43.641005 ], [ 3.86056, 43.640859 ], [ 3.860556, 43.640757 ], [ 3.860543, 43.640655 ], [ 3.86043, 43.640709 ], [ 3.860344, 43.64079 ], [ 3.860276, 43.640883 ], [ 3.860215, 43.640981 ], [ 3.86008, 43.641008 ], [ 3.860015, 43.641085 ], [ 3.859987, 43.641173 ], [ 3.859848, 43.641197 ], [ 3.859725, 43.641131 ], [ 3.860049, 43.641104 ], [ 3.860225, 43.641075 ], [ 3.860298, 43.640998 ], [ 3.860216, 43.640928 ], [ 3.860107, 43.640884 ], [ 3.859942, 43.640914 ], [ 3.860081, 43.640925 ], [ 3.860224, 43.640886 ], [ 3.860256, 43.640793 ], [ 3.860398, 43.640782 ], [ 3.860146, 43.640793 ], [ 3.860166, 43.640902 ], [ 3.860265, 43.640845 ], [ 3.860311, 43.640744 ], [ 3.860404, 43.640682 ], [ 3.860517, 43.640637 ], [ 3.860552, 43.640748 ], [ 3.860496, 43.640926 ], [ 3.860509, 43.641048 ], [ 3.860479, 43.641173 ], [ 3.860424, 43.641295 ], [ 3.860384, 43.64139 ], [ 3.860294, 43.641461 ], [ 3.86017, 43.641445 ], [ 3.86004, 43.641451 ], [ 3.859888, 43.641419 ], [ 3.859875, 43.641329 ], [ 3.85988, 43.641422 ], [ 3.859859, 43.641541 ], [ 3.859885, 43.641451 ], [ 3.859669, 43.641402 ], [ 3.859537, 43.641375 ], [ 3.859372, 43.641352 ], [ 3.859239, 43.641315 ], [ 3.859095, 43.641288 ], [ 3.858973, 43.641237 ], [ 3.858862, 43.641174 ], [ 3.85864, 43.641092 ], [ 3.858518, 43.641068 ], [ 3.858375, 43.640987 ], [ 3.85821, 43.640938 ], [ 3.858088, 43.641002 ], [ 3.858146, 43.641096 ], [ 3.858242, 43.641191 ], [ 3.858319, 43.641296 ], [ 3.858415, 43.641396 ], [ 3.858497, 43.641514 ], [ 3.858569, 43.641599 ], [ 3.858693, 43.641666 ], [ 3.858774, 43.641739 ], [ 3.858881, 43.641872 ], [ 3.858985, 43.641933 ], [ 3.859059, 43.64201 ], [ 3.85918, 43.642151 ], [ 3.859307, 43.642293 ], [ 3.859405, 43.642389 ], [ 3.859459, 43.642492 ], [ 3.859527, 43.642585 ], [ 3.859602, 43.642718 ], [ 3.859744, 43.642823 ], [ 3.859871, 43.642963 ], [ 3.859966, 43.643041 ], [ 3.860095, 43.643176 ], [ 3.860205, 43.643298 ], [ 3.860347, 43.6434 ], [ 3.860516, 43.643401 ], [ 3.860572, 43.643517 ], [ 3.860559, 43.643626 ], [ 3.860579, 43.643731 ], [ 3.860639, 43.643854 ], [ 3.860702, 43.643959 ], [ 3.860777, 43.644033 ], [ 3.860852, 43.644118 ], [ 3.86077, 43.644049 ], [ 3.860844, 43.644138 ], [ 3.860941, 43.644229 ], [ 3.861018, 43.644351 ], [ 3.861181, 43.6445 ], [ 3.861265, 43.644576 ], [ 3.861319, 43.644662 ], [ 3.861421, 43.644763 ], [ 3.861606, 43.64486 ], [ 3.861721, 43.644926 ], [ 3.861851, 43.64496 ], [ 3.861872, 43.64486 ], [ 3.861833, 43.644769 ], [ 3.861796, 43.644668 ], [ 3.861701, 43.6446 ], [ 3.861597, 43.644528 ], [ 3.861469, 43.644384 ], [ 3.861385, 43.644295 ], [ 3.861322, 43.644175 ], [ 3.861497, 43.644328 ], [ 3.861602, 43.644441 ], [ 3.861633, 43.644529 ], [ 3.861721, 43.644631 ], [ 3.861793, 43.644732 ], [ 3.861838, 43.644838 ], [ 3.861858, 43.64493 ], [ 3.861994, 43.644965 ], [ 3.862104, 43.644922 ], [ 3.86227, 43.644839 ], [ 3.862372, 43.644784 ], [ 3.862559, 43.644696 ], [ 3.862746, 43.644577 ], [ 3.862837, 43.644514 ], [ 3.863023, 43.644363 ], [ 3.863233, 43.644258 ], [ 3.863402, 43.644197 ], [ 3.863527, 43.644166 ], [ 3.863775, 43.644129 ], [ 3.8639, 43.644122 ], [ 3.86412, 43.644158 ], [ 3.864244, 43.644176 ], [ 3.864372, 43.644187 ], [ 3.864496, 43.644208 ], [ 3.864731, 43.64423 ], [ 3.864971, 43.644238 ], [ 3.865212, 43.644274 ], [ 3.865344, 43.644293 ], [ 3.865571, 43.644291 ], [ 3.865694, 43.644304 ], [ 3.865939, 43.644326 ], [ 3.86607, 43.644341 ], [ 3.866296, 43.644373 ], [ 3.86652, 43.644397 ], [ 3.866647, 43.644419 ], [ 3.866771, 43.644439 ], [ 3.866989, 43.644474 ], [ 3.867113, 43.644493 ], [ 3.86724, 43.644517 ], [ 3.867464, 43.644556 ], [ 3.867703, 43.644584 ], [ 3.867824, 43.644609 ], [ 3.868057, 43.644642 ], [ 3.868207, 43.644669 ], [ 3.868383, 43.644677 ], [ 3.868586, 43.644679 ], [ 3.868872, 43.644705 ], [ 3.869029, 43.644704 ], [ 3.869179, 43.644696 ], [ 3.869332, 43.644658 ], [ 3.869461, 43.644607 ], [ 3.869591, 43.644529 ], [ 3.869759, 43.64445 ], [ 3.869924, 43.64436 ], [ 3.87006, 43.644285 ], [ 3.870182, 43.64422 ], [ 3.870379, 43.644119 ], [ 3.870577, 43.644028 ], [ 3.870684, 43.643974 ], [ 3.870884, 43.643869 ], [ 3.871045, 43.643751 ], [ 3.87119, 43.64361 ], [ 3.8714, 43.643445 ], [ 3.871392, 43.643265 ], [ 3.871355, 43.643151 ], [ 3.871322, 43.64295 ], [ 3.871311, 43.642858 ], [ 3.871308, 43.64268 ], [ 3.871302, 43.642536 ], [ 3.87127, 43.642367 ], [ 3.871288, 43.642183 ], [ 3.871336, 43.642012 ], [ 3.871369, 43.641925 ], [ 3.871421, 43.641838 ], [ 3.871532, 43.641693 ], [ 3.871673, 43.641504 ], [ 3.871751, 43.641383 ], [ 3.871871, 43.641243 ], [ 3.871945, 43.641164 ], [ 3.87202, 43.641087 ], [ 3.872092, 43.640975 ], [ 3.872111, 43.640855 ], [ 3.872178, 43.64076 ], [ 3.872271, 43.640659 ], [ 3.872384, 43.640542 ], [ 3.872506, 43.640397 ], [ 3.872618, 43.640322 ], [ 3.872726, 43.640278 ], [ 3.872862, 43.640166 ], [ 3.872935, 43.640092 ], [ 3.873016, 43.639996 ], [ 3.873087, 43.639891 ], [ 3.873186, 43.639789 ], [ 3.873289, 43.639701 ], [ 3.873379, 43.639572 ], [ 3.873389, 43.639439 ], [ 3.873415, 43.639339 ], [ 3.873382, 43.639248 ], [ 3.873273, 43.639167 ], [ 3.873117, 43.639089 ], [ 3.872952, 43.639029 ], [ 3.872804, 43.638969 ], [ 3.872529, 43.638897 ], [ 3.872372, 43.638856 ], [ 3.872223, 43.638822 ], [ 3.872083, 43.638804 ], [ 3.871965, 43.638761 ], [ 3.871829, 43.638719 ], [ 3.871669, 43.63868 ], [ 3.87155, 43.638643 ], [ 3.871438, 43.638599 ], [ 3.871259, 43.638581 ], [ 3.871125, 43.638532 ], [ 3.870949, 43.638498 ], [ 3.870753, 43.638438 ], [ 3.870572, 43.638388 ], [ 3.870447, 43.638359 ], [ 3.870297, 43.638321 ], [ 3.870214, 43.638252 ], [ 3.870042, 43.63825 ], [ 3.869868, 43.6382 ], [ 3.869734, 43.63814 ], [ 3.869613, 43.638104 ], [ 3.869643, 43.638202 ], [ 3.869752, 43.638293 ], [ 3.869845, 43.638376 ], [ 3.869969, 43.638351 ], [ 3.870085, 43.638294 ], [ 3.869907, 43.638389 ], [ 3.869991, 43.638492 ], [ 3.870114, 43.638587 ], [ 3.870103, 43.638679 ], [ 3.870029, 43.638837 ], [ 3.869908, 43.638892 ], [ 3.8699, 43.639045 ], [ 3.869842, 43.638963 ], [ 3.86981, 43.638871 ], [ 3.869899, 43.638941 ], [ 3.869955, 43.638812 ], [ 3.870003, 43.63872 ], [ 3.870078, 43.638641 ], [ 3.869985, 43.638567 ], [ 3.869928, 43.638449 ], [ 3.869865, 43.638349 ], [ 3.869793, 43.638243 ], [ 3.869653, 43.638277 ], [ 3.86949, 43.638338 ], [ 3.869359, 43.638361 ], [ 3.86934, 43.63827 ], [ 3.869259, 43.638173 ], [ 3.869659, 43.638513 ], [ 3.869676, 43.638608 ], [ 3.8696, 43.638507 ], [ 3.869575, 43.63841 ], [ 3.869292, 43.638374 ], [ 3.869376, 43.638298 ], [ 3.869515, 43.638286 ], [ 3.869652, 43.63829 ], [ 3.869803, 43.638321 ], [ 3.869829, 43.638417 ], [ 3.869865, 43.638529 ], [ 3.869942, 43.63863 ], [ 3.870004, 43.638714 ], [ 3.870127, 43.638727 ], [ 3.869997, 43.638832 ], [ 3.869974, 43.638991 ], [ 3.869938, 43.639087 ], [ 3.869815, 43.639134 ], [ 3.869882, 43.639229 ], [ 3.869799, 43.639139 ], [ 3.869762, 43.639003 ], [ 3.86975, 43.638911 ], [ 3.869772, 43.638793 ], [ 3.869947, 43.638747 ], [ 3.870098, 43.638717 ], [ 3.869984, 43.638511 ], [ 3.869938, 43.638404 ], [ 3.86986, 43.638311 ], [ 3.86974, 43.638241 ], [ 3.869651, 43.638178 ], [ 3.869639, 43.638085 ], [ 3.869504, 43.638051 ], [ 3.869374, 43.638161 ], [ 3.869271, 43.638239 ], [ 3.869139, 43.638284 ], [ 3.869004, 43.638442 ], [ 3.868914, 43.638515 ], [ 3.86878, 43.638545 ], [ 3.868658, 43.638562 ], [ 3.868598, 43.63865 ], [ 3.86858, 43.638741 ], [ 3.868625, 43.638834 ], [ 3.868754, 43.638816 ], [ 3.868896, 43.638812 ], [ 3.869032, 43.638832 ], [ 3.869148, 43.638891 ], [ 3.869178, 43.63898 ], [ 3.869078, 43.638919 ], [ 3.86906, 43.63901 ], [ 3.86894, 43.639057 ], [ 3.868955, 43.638961 ], [ 3.868987, 43.63887 ], [ 3.869121, 43.638879 ], [ 3.869269, 43.638806 ], [ 3.868979, 43.638784 ], [ 3.868837, 43.638819 ], [ 3.868711, 43.638852 ], [ 3.868598, 43.638812 ], [ 3.868556, 43.638714 ], [ 3.868631, 43.638641 ], [ 3.868523, 43.638577 ], [ 3.868448, 43.638483 ], [ 3.868394, 43.638386 ], [ 3.868355, 43.638486 ], [ 3.86837, 43.638384 ], [ 3.868263, 43.638307 ], [ 3.868123, 43.638269 ], [ 3.867988, 43.638275 ], [ 3.867887, 43.638203 ], [ 3.867628, 43.637973 ], [ 3.867766, 43.637995 ], [ 3.867854, 43.63789 ], [ 3.867942, 43.63782 ], [ 3.868027, 43.637629 ], [ 3.868025, 43.63776 ], [ 3.868049, 43.637665 ], [ 3.86803, 43.637575 ], [ 3.867906, 43.637541 ], [ 3.868042, 43.637504 ], [ 3.86812, 43.637433 ], [ 3.868219, 43.637358 ], [ 3.868192, 43.637245 ], [ 3.868085, 43.637338 ], [ 3.868015, 43.637432 ], [ 3.868048, 43.63752 ], [ 3.868035, 43.637613 ], [ 3.868001, 43.637709 ], [ 3.867946, 43.637794 ], [ 3.867913, 43.637894 ], [ 3.867981, 43.637812 ], [ 3.868075, 43.637742 ], [ 3.868163, 43.637678 ], [ 3.868289, 43.637656 ], [ 3.868433, 43.637652 ], [ 3.868151, 43.637743 ], [ 3.868021, 43.637704 ], [ 3.867945, 43.637777 ], [ 3.867875, 43.637853 ], [ 3.867979, 43.637655 ], [ 3.868056, 43.637545 ], [ 3.86814, 43.637466 ], [ 3.868271, 43.637468 ], [ 3.868419, 43.637487 ], [ 3.868539, 43.637461 ], [ 3.868556, 43.637371 ], [ 3.868563, 43.637598 ], [ 3.868372, 43.637494 ], [ 3.868511, 43.637602 ], [ 3.868636, 43.637631 ], [ 3.868694, 43.637546 ], [ 3.868561, 43.637573 ], [ 3.868703, 43.637587 ], [ 3.868828, 43.63758 ], [ 3.8687, 43.637597 ], [ 3.868574, 43.637589 ], [ 3.868694, 43.637672 ], [ 3.868748, 43.637791 ], [ 3.868841, 43.637858 ], [ 3.86897, 43.637881 ], [ 3.86879, 43.637898 ], [ 3.868769, 43.637806 ], [ 3.86888, 43.637853 ], [ 3.868929, 43.637942 ], [ 3.868938, 43.638032 ], [ 3.869029, 43.638122 ], [ 3.869051, 43.638214 ], [ 3.868947, 43.637992 ], [ 3.868877, 43.6379 ], [ 3.868874, 43.637805 ], [ 3.868871, 43.637909 ], [ 3.868909, 43.638006 ], [ 3.86902, 43.638066 ], [ 3.868808, 43.637915 ], [ 3.868804, 43.638007 ], [ 3.868918, 43.638047 ], [ 3.868915, 43.63795 ], [ 3.86896, 43.638069 ], [ 3.869015, 43.638162 ], [ 3.869118, 43.638214 ], [ 3.869075, 43.638346 ], [ 3.869006, 43.638426 ], [ 3.868886, 43.638511 ], [ 3.868767, 43.638559 ], [ 3.868676, 43.638624 ], [ 3.868557, 43.638599 ], [ 3.868435, 43.638434 ], [ 3.868329, 43.638367 ], [ 3.868213, 43.638309 ], [ 3.868299, 43.638382 ], [ 3.868433, 43.638397 ], [ 3.868561, 43.638392 ], [ 3.868625, 43.638584 ], [ 3.8685, 43.638546 ], [ 3.868452, 43.63845 ], [ 3.868378, 43.638373 ], [ 3.868472, 43.638306 ], [ 3.8684, 43.638402 ], [ 3.86839, 43.638503 ], [ 3.868444, 43.63862 ], [ 3.868511, 43.638701 ], [ 3.868582, 43.638357 ], [ 3.868469, 43.6384 ], [ 3.868345, 43.638377 ], [ 3.868215, 43.638351 ], [ 3.868425, 43.638471 ], [ 3.868479, 43.638574 ], [ 3.868592, 43.638629 ], [ 3.868806, 43.638582 ], [ 3.868963, 43.638488 ], [ 3.869104, 43.638445 ], [ 3.869165, 43.638346 ], [ 3.86923, 43.638248 ], [ 3.869327, 43.638098 ], [ 3.869395, 43.63796 ], [ 3.869321, 43.63785 ], [ 3.869254, 43.637663 ], [ 3.869154, 43.637505 ], [ 3.869059, 43.63738 ], [ 3.869025, 43.637277 ], [ 3.868915, 43.637215 ], [ 3.868882, 43.637309 ], [ 3.868771, 43.637357 ], [ 3.868745, 43.637268 ], [ 3.868824, 43.637048 ], [ 3.868757, 43.637142 ], [ 3.8688, 43.637233 ], [ 3.868871, 43.637151 ], [ 3.868832, 43.637059 ], [ 3.868724, 43.636995 ], [ 3.868725, 43.636886 ], [ 3.868642, 43.636808 ], [ 3.868674, 43.63671 ], [ 3.868574, 43.636622 ], [ 3.868439, 43.636629 ], [ 3.868303, 43.636624 ], [ 3.868189, 43.636527 ], [ 3.868063, 43.636493 ], [ 3.867909, 43.636446 ], [ 3.867839, 43.636523 ], [ 3.867848, 43.636629 ], [ 3.867791, 43.636718 ], [ 3.867883, 43.636797 ], [ 3.867998, 43.636838 ], [ 3.867954, 43.636923 ], [ 3.868238, 43.637052 ], [ 3.867976, 43.636868 ], [ 3.86795, 43.636777 ], [ 3.867814, 43.636789 ], [ 3.867721, 43.636866 ], [ 3.867693, 43.636963 ], [ 3.867791, 43.637027 ], [ 3.867756, 43.637117 ], [ 3.867742, 43.637214 ], [ 3.867704, 43.637325 ], [ 3.867648, 43.637499 ], [ 3.867593, 43.63762 ], [ 3.867539, 43.63771 ], [ 3.867601, 43.637631 ], [ 3.867725, 43.637619 ], [ 3.867633, 43.637551 ], [ 3.867624, 43.63745 ], [ 3.867678, 43.63736 ], [ 3.867722, 43.637258 ], [ 3.867745, 43.637159 ], [ 3.86766, 43.637091 ], [ 3.867654, 43.636947 ], [ 3.867721, 43.636868 ], [ 3.867812, 43.636762 ], [ 3.867843, 43.636647 ], [ 3.867819, 43.636553 ], [ 3.867802, 43.636456 ], [ 3.867784, 43.636366 ], [ 3.867716, 43.636287 ], [ 3.867747, 43.6364 ], [ 3.867835, 43.636467 ], [ 3.868062, 43.636536 ], [ 3.868227, 43.636567 ], [ 3.868366, 43.636588 ], [ 3.868521, 43.636613 ], [ 3.868663, 43.636603 ], [ 3.868672, 43.636511 ], [ 3.868668, 43.636417 ], [ 3.868641, 43.636327 ], [ 3.868595, 43.636241 ], [ 3.868549, 43.636156 ], [ 3.868423, 43.636138 ], [ 3.868309, 43.636183 ], [ 3.868242, 43.63626 ], [ 3.86837, 43.636248 ], [ 3.868496, 43.636256 ], [ 3.868508, 43.636136 ], [ 3.868474, 43.636041 ], [ 3.868447, 43.635937 ], [ 3.868348, 43.635854 ], [ 3.868199, 43.635862 ], [ 3.868111, 43.635989 ], [ 3.868048, 43.63609 ], [ 3.867963, 43.636172 ], [ 3.867907, 43.636265 ], [ 3.867823, 43.636361 ], [ 3.867682, 43.63646 ], [ 3.867572, 43.636613 ], [ 3.867437, 43.636764 ], [ 3.867366, 43.636841 ], [ 3.8673, 43.636921 ], [ 3.867168, 43.637065 ], [ 3.867055, 43.637184 ], [ 3.867005, 43.637281 ], [ 3.867103, 43.637221 ], [ 3.867183, 43.637074 ], [ 3.867324, 43.637033 ], [ 3.867377, 43.637145 ], [ 3.867403, 43.637262 ], [ 3.867425, 43.63715 ], [ 3.867393, 43.637042 ], [ 3.867298, 43.636975 ], [ 3.867193, 43.637132 ], [ 3.867114, 43.637245 ], [ 3.867004, 43.637297 ], [ 3.86688, 43.637296 ], [ 3.866775, 43.637349 ], [ 3.866678, 43.637446 ], [ 3.866592, 43.637516 ], [ 3.866476, 43.637614 ], [ 3.86639, 43.637711 ], [ 3.866291, 43.637825 ], [ 3.866185, 43.637921 ], [ 3.866072, 43.638042 ], [ 3.866027, 43.638147 ], [ 3.866007, 43.638241 ], [ 3.865885, 43.638305 ], [ 3.865753, 43.638369 ], [ 3.865683, 43.638465 ], [ 3.865583, 43.638611 ], [ 3.865709, 43.638657 ], [ 3.865807, 43.63873 ], [ 3.865954, 43.638789 ], [ 3.866111, 43.63889 ], [ 3.866325, 43.638995 ], [ 3.866514, 43.639056 ], [ 3.866641, 43.639114 ], [ 3.866661, 43.639212 ], [ 3.866564, 43.639103 ], [ 3.866317, 43.639003 ], [ 3.866161, 43.638946 ], [ 3.866047, 43.63889 ], [ 3.865934, 43.638833 ], [ 3.865845, 43.638769 ], [ 3.865743, 43.638704 ], [ 3.865612, 43.638696 ], [ 3.865404, 43.638778 ], [ 3.865248, 43.638973 ], [ 3.86515, 43.639107 ], [ 3.865039, 43.639227 ], [ 3.864948, 43.639331 ], [ 3.865097, 43.63936 ], [ 3.864962, 43.639357 ], [ 3.864836, 43.639452 ], [ 3.864723, 43.639574 ], [ 3.864599, 43.639709 ], [ 3.864459, 43.639813 ], [ 3.864396, 43.63989 ], [ 3.864273, 43.640024 ], [ 3.864145, 43.640172 ], [ 3.864018, 43.64031 ], [ 3.863935, 43.640444 ], [ 3.863841, 43.640566 ], [ 3.863836, 43.640687 ], [ 3.863938, 43.640806 ], [ 3.864047, 43.640897 ], [ 3.864157, 43.640994 ], [ 3.864258, 43.641076 ], [ 3.864335, 43.641147 ], [ 3.864466, 43.641208 ], [ 3.864586, 43.64124 ], [ 3.864423, 43.64128 ], [ 3.864288, 43.641301 ], [ 3.864309, 43.641212 ], [ 3.864143, 43.641072 ], [ 3.864016, 43.640975 ], [ 3.863897, 43.640888 ], [ 3.863788, 43.640843 ], [ 3.863648, 43.640919 ], [ 3.863565, 43.641021 ], [ 3.863445, 43.641063 ], [ 3.863489, 43.64116 ], [ 3.863587, 43.641242 ], [ 3.863678, 43.64133 ], [ 3.863735, 43.641442 ], [ 3.863831, 43.641555 ], [ 3.863933, 43.641679 ], [ 3.864027, 43.64179 ], [ 3.864088, 43.641874 ], [ 3.864235, 43.641922 ], [ 3.864377, 43.64191 ], [ 3.864578, 43.641916 ], [ 3.864728, 43.641914 ], [ 3.864892, 43.641924 ], [ 3.865013, 43.641945 ], [ 3.865209, 43.641942 ], [ 3.865272, 43.642025 ], [ 3.865248, 43.642151 ], [ 3.865275, 43.642299 ], [ 3.865309, 43.642426 ], [ 3.865333, 43.642554 ], [ 3.865322, 43.642671 ], [ 3.865319, 43.642799 ], [ 3.865399, 43.642892 ], [ 3.865451, 43.642997 ], [ 3.86552, 43.643113 ], [ 3.865641, 43.643139 ], [ 3.865599, 43.643262 ], [ 3.865582, 43.643367 ], [ 3.865582, 43.64348 ], [ 3.865572, 43.643364 ], [ 3.865586, 43.64326 ], [ 3.865585, 43.643159 ], [ 3.865519, 43.64308 ], [ 3.865433, 43.642955 ], [ 3.865429, 43.642827 ], [ 3.865362, 43.642669 ], [ 3.865363, 43.642557 ], [ 3.865329, 43.642437 ], [ 3.865266, 43.642343 ], [ 3.865169, 43.642286 ], [ 3.865267, 43.642209 ], [ 3.865256, 43.642081 ], [ 3.86508, 43.641993 ], [ 3.864832, 43.641973 ], [ 3.864661, 43.641949 ], [ 3.864502, 43.641942 ], [ 3.864327, 43.641941 ], [ 3.864217, 43.641987 ], [ 3.864256, 43.642086 ], [ 3.864313, 43.642205 ], [ 3.864386, 43.642298 ], [ 3.864458, 43.642393 ], [ 3.864361, 43.642305 ], [ 3.864286, 43.642208 ], [ 3.864225, 43.642124 ], [ 3.864173, 43.64203 ], [ 3.864046, 43.64198 ], [ 3.863954, 43.642056 ], [ 3.863865, 43.641989 ], [ 3.863757, 43.641941 ], [ 3.86395, 43.64198 ], [ 3.864005, 43.641849 ], [ 3.863926, 43.641735 ], [ 3.863799, 43.641609 ], [ 3.863649, 43.641416 ], [ 3.863531, 43.641361 ], [ 3.863443, 43.641282 ], [ 3.863357, 43.641354 ], [ 3.863267, 43.641488 ], [ 3.863211, 43.641595 ], [ 3.863138, 43.641702 ], [ 3.863092, 43.641801 ], [ 3.863053, 43.641895 ], [ 3.862979, 43.641977 ], [ 3.863005, 43.642091 ], [ 3.863047, 43.642189 ], [ 3.863142, 43.642294 ], [ 3.863261, 43.642349 ], [ 3.86325, 43.642454 ], [ 3.863185, 43.642532 ], [ 3.863054, 43.642571 ], [ 3.862929, 43.642621 ], [ 3.863018, 43.642542 ], [ 3.863141, 43.642529 ], [ 3.863224, 43.642427 ], [ 3.863196, 43.642337 ], [ 3.863105, 43.642275 ], [ 3.863003, 43.642181 ], [ 3.862966, 43.642059 ], [ 3.862956, 43.641957 ], [ 3.863015, 43.641844 ], [ 3.863055, 43.641757 ], [ 3.863089, 43.641668 ], [ 3.863181, 43.641524 ], [ 3.863225, 43.641415 ], [ 3.863316, 43.641299 ], [ 3.863247, 43.641213 ], [ 3.863119, 43.64122 ], [ 3.862901, 43.641249 ], [ 3.86268, 43.641282 ], [ 3.862556, 43.641304 ], [ 3.862332, 43.641382 ], [ 3.862223, 43.64143 ], [ 3.862099, 43.641473 ], [ 3.861928, 43.641635 ], [ 3.861822, 43.6418 ], [ 3.861715, 43.641962 ], [ 3.861622, 43.642089 ], [ 3.861586, 43.642192 ], [ 3.861525, 43.642293 ], [ 3.86147, 43.642377 ], [ 3.861421, 43.642466 ], [ 3.861327, 43.642594 ], [ 3.861289, 43.642691 ], [ 3.861197, 43.642775 ], [ 3.861149, 43.64286 ], [ 3.861081, 43.64294 ], [ 3.861133, 43.643029 ], [ 3.860996, 43.643001 ], [ 3.860895, 43.6431 ], [ 3.86083, 43.643241 ], [ 3.860728, 43.6433 ], [ 3.860781, 43.643209 ], [ 3.860878, 43.643089 ], [ 3.860962, 43.642934 ], [ 3.86106, 43.642796 ], [ 3.861171, 43.642644 ], [ 3.861287, 43.642501 ], [ 3.861374, 43.642344 ], [ 3.861471, 43.642171 ], [ 3.861576, 43.642034 ], [ 3.861689, 43.641897 ], [ 3.861859, 43.641674 ], [ 3.861973, 43.641538 ], [ 3.861983, 43.641442 ], [ 3.861832, 43.641414 ], [ 3.861775, 43.641498 ], [ 3.861748, 43.641618 ], [ 3.861692, 43.6417 ], [ 3.861614, 43.641802 ], [ 3.861507, 43.641887 ], [ 3.861524, 43.641748 ], [ 3.861637, 43.641697 ], [ 3.861674, 43.641585 ], [ 3.861758, 43.641507 ], [ 3.861781, 43.641418 ], [ 3.86165, 43.641348 ], [ 3.861524, 43.641324 ], [ 3.861395, 43.641304 ], [ 3.861291, 43.641371 ], [ 3.861347, 43.641283 ], [ 3.861548, 43.641298 ], [ 3.861694, 43.641351 ], [ 3.86181, 43.641384 ], [ 3.861762, 43.641296 ], [ 3.861634, 43.641263 ], [ 3.861535, 43.641199 ], [ 3.861498, 43.641113 ], [ 3.861353, 43.641103 ], [ 3.861606, 43.641329 ], [ 3.861451, 43.6412 ], [ 3.86158, 43.641174 ], [ 3.861415, 43.641045 ], [ 3.861391, 43.641142 ], [ 3.861477, 43.641213 ], [ 3.861606, 43.64124 ], [ 3.861717, 43.64129 ], [ 3.861846, 43.641235 ], [ 3.861926, 43.641162 ], [ 3.861931, 43.641063 ], [ 3.861884, 43.640976 ], [ 3.86176, 43.640919 ], [ 3.861908, 43.640988 ], [ 3.861957, 43.641082 ], [ 3.861896, 43.641167 ], [ 3.861926, 43.641277 ], [ 3.862092, 43.641382 ], [ 3.862258, 43.641393 ], [ 3.862563, 43.641335 ], [ 3.862789, 43.641294 ], [ 3.862919, 43.641286 ], [ 3.863059, 43.641229 ], [ 3.863196, 43.641215 ], [ 3.863262, 43.641139 ], [ 3.863373, 43.64107 ], [ 3.863506, 43.640969 ], [ 3.863581, 43.640889 ], [ 3.86366, 43.640743 ], [ 3.863755, 43.640638 ], [ 3.863819, 43.640555 ], [ 3.863824, 43.640464 ], [ 3.863912, 43.640395 ], [ 3.863889, 43.640489 ], [ 3.863783, 43.640437 ], [ 3.863874, 43.640371 ], [ 3.863761, 43.640464 ], [ 3.863639, 43.640498 ], [ 3.863523, 43.640535 ], [ 3.863425, 43.640451 ], [ 3.863394, 43.640355 ], [ 3.863391, 43.640249 ], [ 3.863523, 43.640325 ], [ 3.863608, 43.64041 ], [ 3.863674, 43.640492 ], [ 3.863371, 43.640452 ], [ 3.863275, 43.640389 ], [ 3.863408, 43.640346 ], [ 3.863537, 43.640351 ], [ 3.863635, 43.640418 ], [ 3.863697, 43.6405 ], [ 3.863628, 43.640583 ], [ 3.8635, 43.640528 ], [ 3.863415, 43.640457 ], [ 3.863513, 43.640515 ], [ 3.863537, 43.640609 ], [ 3.86329, 43.64045 ], [ 3.86317, 43.640416 ], [ 3.863273, 43.640365 ], [ 3.863397, 43.640351 ], [ 3.863503, 43.640276 ], [ 3.863549, 43.64019 ], [ 3.863474, 43.640264 ], [ 3.863601, 43.640246 ], [ 3.863719, 43.640302 ], [ 3.863778, 43.640395 ], [ 3.863666, 43.640339 ], [ 3.863538, 43.640321 ], [ 3.863419, 43.640367 ], [ 3.863067, 43.640361 ], [ 3.862912, 43.640358 ], [ 3.862778, 43.640356 ], [ 3.862618, 43.640337 ], [ 3.862495, 43.640352 ], [ 3.862434, 43.640447 ], [ 3.862519, 43.640516 ], [ 3.862625, 43.640568 ], [ 3.862753, 43.640575 ], [ 3.862668, 43.640502 ] ], [ [ 3.862799, 43.640529 ], [ 3.862985, 43.640542 ], [ 3.863111, 43.640549 ], [ 3.863242, 43.640542 ], [ 3.863282, 43.640441 ], [ 3.863196, 43.640508 ], [ 3.863088, 43.640576 ], [ 3.862929, 43.640566 ], [ 3.862736, 43.640534 ], [ 3.862597, 43.640516 ], [ 3.862465, 43.640494 ], [ 3.862391, 43.640413 ], [ 3.862427, 43.640325 ], [ 3.862579, 43.640279 ], [ 3.862717, 43.640305 ], [ 3.862867, 43.640296 ], [ 3.863253, 43.640236 ], [ 3.863434, 43.64023 ], [ 3.863581, 43.640272 ], [ 3.863744, 43.640323 ], [ 3.863883, 43.640351 ], [ 3.864006, 43.64031 ], [ 3.864065, 43.640217 ], [ 3.86416, 43.640067 ], [ 3.864233, 43.639981 ], [ 3.864314, 43.639909 ], [ 3.864176, 43.639859 ], [ 3.864066, 43.639799 ], [ 3.863932, 43.639729 ], [ 3.863806, 43.639662 ], [ 3.863633, 43.639662 ], [ 3.864102, 43.639809 ], [ 3.863977, 43.639839 ], [ 3.86385, 43.639784 ], [ 3.863956, 43.639844 ], [ 3.864171, 43.639764 ], [ 3.864212, 43.639851 ], [ 3.864389, 43.639789 ], [ 3.864487, 43.639706 ], [ 3.864381, 43.639651 ], [ 3.864289, 43.639581 ], [ 3.864189, 43.639517 ], [ 3.86406, 43.639466 ], [ 3.864148, 43.639547 ], [ 3.864216, 43.639637 ], [ 3.864281, 43.639714 ], [ 3.864416, 43.63974 ], [ 3.864547, 43.639669 ], [ 3.864635, 43.639566 ], [ 3.864697, 43.639478 ], [ 3.864758, 43.639398 ], [ 3.864879, 43.63932 ], [ 3.86497, 43.639229 ], [ 3.865069, 43.639131 ], [ 3.865144, 43.639017 ], [ 3.865237, 43.638923 ], [ 3.865347, 43.638811 ], [ 3.86543, 43.638725 ], [ 3.865391, 43.638627 ], [ 3.865296, 43.638568 ], [ 3.865388, 43.63849 ], [ 3.865547, 43.638481 ], [ 3.865715, 43.63838 ], [ 3.865799, 43.638263 ], [ 3.865915, 43.638123 ], [ 3.866041, 43.637973 ], [ 3.866156, 43.637859 ], [ 3.866279, 43.637744 ], [ 3.866376, 43.637643 ], [ 3.86649, 43.637546 ], [ 3.866585, 43.637475 ], [ 3.866664, 43.637371 ], [ 3.866726, 43.637289 ], [ 3.866564, 43.637186 ], [ 3.866407, 43.637113 ], [ 3.866281, 43.637057 ], [ 3.866153, 43.63698 ], [ 3.86603, 43.636925 ], [ 3.865939, 43.636862 ], [ 3.86581, 43.63685 ], [ 3.865711, 43.636795 ], [ 3.86558, 43.636706 ], [ 3.865541, 43.636584 ], [ 3.865678, 43.636516 ], [ 3.865919, 43.636673 ], [ 3.866042, 43.636749 ], [ 3.866189, 43.636841 ], [ 3.866258, 43.636924 ], [ 3.866237, 43.637034 ], [ 3.866329, 43.637109 ], [ 3.866462, 43.637177 ], [ 3.866567, 43.637234 ], [ 3.866685, 43.637274 ], [ 3.866795, 43.637227 ], [ 3.86672, 43.637133 ], [ 3.866613, 43.637083 ], [ 3.86649, 43.637045 ], [ 3.866378, 43.636975 ], [ 3.866472, 43.636883 ], [ 3.866492, 43.636794 ], [ 3.866507, 43.636686 ], [ 3.866541, 43.636587 ], [ 3.866488, 43.636687 ], [ 3.866448, 43.636468 ], [ 3.866738, 43.636049 ], [ 3.866442, 43.636203 ], [ 3.866401, 43.636307 ], [ 3.866358, 43.636393 ], [ 3.866645, 43.636391 ], [ 3.866784, 43.636416 ], [ 3.867246, 43.636352 ], [ 3.867238, 43.636448 ], [ 3.86707, 43.636425 ], [ 3.867314, 43.636406 ], [ 3.867416, 43.636467 ], [ 3.8674, 43.636357 ], [ 3.867433, 43.636246 ], [ 3.867344, 43.636323 ], [ 3.867284, 43.636406 ], [ 3.867347, 43.636484 ], [ 3.867463, 43.636449 ], [ 3.867402, 43.636536 ], [ 3.86726, 43.636535 ], [ 3.867117, 43.636542 ], [ 3.866983, 43.636512 ], [ 3.867099, 43.63655 ], [ 3.867322, 43.636492 ], [ 3.867372, 43.636402 ], [ 3.867467, 43.636462 ], [ 3.867396, 43.636377 ], [ 3.867361, 43.63629 ], [ 3.867417, 43.636377 ], [ 3.867295, 43.636409 ], [ 3.867181, 43.636448 ], [ 3.867137, 43.636532 ], [ 3.867078, 43.636619 ], [ 3.866979, 43.636772 ], [ 3.866901, 43.636859 ], [ 3.866731, 43.636926 ], [ 3.866611, 43.636978 ], [ 3.866494, 43.636921 ], [ 3.866441, 43.63703 ], [ 3.866544, 43.6371 ], [ 3.86664, 43.637173 ], [ 3.866772, 43.637196 ], [ 3.866863, 43.637118 ], [ 3.866932, 43.637032 ], [ 3.866999, 43.636954 ], [ 3.867105, 43.636858 ], [ 3.867193, 43.636724 ], [ 3.86732, 43.636606 ], [ 3.867442, 43.636494 ], [ 3.867498, 43.636399 ], [ 3.867582, 43.636321 ], [ 3.867688, 43.636204 ], [ 3.867756, 43.636126 ], [ 3.867837, 43.636046 ], [ 3.867699, 43.636032 ], [ 3.867581, 43.636081 ], [ 3.867455, 43.636075 ], [ 3.867384, 43.636 ], [ 3.867534, 43.636009 ], [ 3.867663, 43.635993 ], [ 3.867799, 43.635971 ], [ 3.867923, 43.635937 ], [ 3.868025, 43.635878 ], [ 3.868026, 43.635784 ], [ 3.868083, 43.635653 ], [ 3.868145, 43.635549 ], [ 3.868183, 43.635441 ], [ 3.868198, 43.635325 ], [ 3.868185, 43.635233 ], [ 3.868205, 43.635127 ], [ 3.868142, 43.635025 ], [ 3.868106, 43.634932 ], [ 3.867993, 43.634871 ], [ 3.867847, 43.634841 ], [ 3.867694, 43.634842 ], [ 3.867517, 43.634812 ], [ 3.867391, 43.634822 ], [ 3.86741, 43.634685 ], [ 3.867357, 43.634821 ], [ 3.867228, 43.634806 ], [ 3.867229, 43.634912 ], [ 3.867332, 43.634969 ], [ 3.867211, 43.634897 ], [ 3.867156, 43.634808 ], [ 3.867037, 43.634844 ], [ 3.866906, 43.634849 ], [ 3.86681, 43.634981 ], [ 3.866782, 43.635072 ], [ 3.866775, 43.635251 ], [ 3.866729, 43.635354 ], [ 3.866679, 43.635444 ], [ 3.866619, 43.635554 ], [ 3.86654, 43.635677 ], [ 3.866465, 43.635756 ], [ 3.866423, 43.63586 ], [ 3.866274, 43.635879 ], [ 3.866149, 43.635954 ], [ 3.866393, 43.635878 ], [ 3.866351, 43.635786 ], [ 3.86636, 43.635674 ], [ 3.866317, 43.635761 ], [ 3.866241, 43.635849 ], [ 3.866269, 43.635939 ], [ 3.866384, 43.635875 ], [ 3.866502, 43.635738 ], [ 3.866603, 43.635622 ], [ 3.866683, 43.635524 ], [ 3.866608, 43.635445 ], [ 3.866409, 43.635385 ], [ 3.866244, 43.63535 ], [ 3.866081, 43.635303 ], [ 3.86622, 43.635292 ], [ 3.866345, 43.635339 ], [ 3.866436, 43.635419 ], [ 3.866568, 43.635433 ], [ 3.866735, 43.635265 ], [ 3.866776, 43.635157 ], [ 3.866774, 43.635041 ], [ 3.866751, 43.634947 ], [ 3.866697, 43.634856 ], [ 3.866604, 43.634755 ], [ 3.86644, 43.634736 ], [ 3.866284, 43.634712 ], [ 3.866143, 43.634669 ], [ 3.865961, 43.634635 ], [ 3.865812, 43.634601 ], [ 3.865701, 43.634673 ], [ 3.86539, 43.634651 ], [ 3.865259, 43.634618 ], [ 3.865112, 43.634612 ], [ 3.864946, 43.634591 ], [ 3.864832, 43.63455 ], [ 3.864845, 43.634445 ], [ 3.864843, 43.634332 ], [ 3.86465, 43.634267 ], [ 3.864524, 43.634213 ], [ 3.864367, 43.634188 ], [ 3.864182, 43.634132 ], [ 3.863972, 43.634077 ], [ 3.863834, 43.634033 ], [ 3.863722, 43.634081 ], [ 3.863679, 43.634225 ], [ 3.863788, 43.63418 ], [ 3.863821, 43.634088 ], [ 3.863656, 43.63409 ], [ 3.863468, 43.634124 ], [ 3.863225, 43.63423 ], [ 3.863087, 43.634309 ], [ 3.862987, 43.634377 ], [ 3.862903, 43.634443 ], [ 3.862814, 43.634524 ], [ 3.862699, 43.634602 ], [ 3.862554, 43.634728 ], [ 3.862459, 43.634809 ], [ 3.862372, 43.63488 ], [ 3.862287, 43.634969 ], [ 3.862227, 43.63505 ], [ 3.862101, 43.6351 ], [ 3.861978, 43.635256 ], [ 3.86186, 43.635382 ], [ 3.861813, 43.635476 ], [ 3.861752, 43.635593 ], [ 3.861668, 43.635663 ], [ 3.86174, 43.635749 ], [ 3.861914, 43.635846 ], [ 3.86207, 43.635911 ], [ 3.862119, 43.635997 ], [ 3.862125, 43.636126 ], [ 3.862119, 43.636242 ], [ 3.862147, 43.636367 ], [ 3.862183, 43.636461 ], [ 3.862155, 43.636552 ], [ 3.862073, 43.636467 ], [ 3.862148, 43.636391 ], [ 3.862015, 43.636418 ], [ 3.862321, 43.6362 ], [ 3.862345, 43.636312 ], [ 3.862245, 43.636387 ], [ 3.862125, 43.636443 ], [ 3.862131, 43.636341 ], [ 3.862082, 43.636253 ], [ 3.8621, 43.636134 ], [ 3.862131, 43.636014 ], [ 3.86211, 43.635874 ], [ 3.861989, 43.63584 ], [ 3.861856, 43.635793 ], [ 3.861726, 43.635787 ], [ 3.861602, 43.635794 ], [ 3.861628, 43.635884 ], [ 3.861646, 43.635986 ], [ 3.861623, 43.636086 ], [ 3.861655, 43.636227 ], [ 3.861762, 43.636318 ], [ 3.861886, 43.636409 ], [ 3.862007, 43.636457 ], [ 3.861877, 43.63635 ], [ 3.861776, 43.636259 ], [ 3.861642, 43.636221 ], [ 3.86157, 43.636087 ], [ 3.861562, 43.635961 ], [ 3.861551, 43.635871 ], [ 3.861437, 43.635949 ], [ 3.861347, 43.636089 ], [ 3.861263, 43.636196 ], [ 3.86121, 43.636293 ], [ 3.861174, 43.63638 ], [ 3.861071, 43.636447 ], [ 3.860992, 43.636544 ], [ 3.860888, 43.636621 ], [ 3.860791, 43.636719 ], [ 3.860673, 43.636811 ], [ 3.860565, 43.636876 ], [ 3.860412, 43.636952 ], [ 3.860293, 43.637019 ], [ 3.860172, 43.637088 ], [ 3.860194, 43.637232 ], [ 3.860249, 43.637337 ], [ 3.860291, 43.637432 ], [ 3.860369, 43.637522 ], [ 3.860275, 43.637459 ], [ 3.860219, 43.637363 ], [ 3.86017, 43.63724 ], [ 3.860057, 43.637188 ], [ 3.859931, 43.63729 ], [ 3.859834, 43.637407 ], [ 3.859748, 43.637554 ], [ 3.859707, 43.637648 ], [ 3.859668, 43.637782 ], [ 3.859626, 43.637873 ], [ 3.859617, 43.637971 ], [ 3.859621, 43.638069 ], [ 3.859621, 43.638184 ], [ 3.85963, 43.638278 ], [ 3.859777, 43.638245 ], [ 3.859935, 43.638245 ], [ 3.860074, 43.638239 ], [ 3.860226, 43.6382 ], [ 3.860351, 43.638208 ], [ 3.860489, 43.638178 ], [ 3.860525, 43.638084 ], [ 3.860498, 43.637954 ], [ 3.860458, 43.63784 ], [ 3.86046, 43.637742 ], [ 3.860432, 43.637645 ], [ 3.860441, 43.637821 ], [ 3.860454, 43.637912 ], [ 3.860499, 43.637998 ], [ 3.860576, 43.637891 ], [ 3.860716, 43.637851 ], [ 3.860684, 43.637755 ], [ 3.860728, 43.637843 ], [ 3.860782, 43.637927 ], [ 3.860668, 43.637871 ], [ 3.860611, 43.637775 ], [ 3.860704, 43.637712 ], [ 3.860714, 43.637811 ], [ 3.860519, 43.637836 ], [ 3.860444, 43.637946 ], [ 3.860451, 43.638065 ], [ 3.860578, 43.638042 ], [ 3.860609, 43.638135 ], [ 3.860496, 43.638185 ], [ 3.860511, 43.638295 ], [ 3.860442, 43.63839 ], [ 3.860434, 43.638491 ], [ 3.860487, 43.638574 ], [ 3.860529, 43.638467 ], [ 3.860528, 43.638565 ], [ 3.86056, 43.638665 ], [ 3.860646, 43.638768 ], [ 3.860739, 43.638856 ], [ 3.860848, 43.638899 ], [ 3.860883, 43.638991 ], [ 3.861033, 43.639043 ], [ 3.861169, 43.639139 ], [ 3.861302, 43.639174 ], [ 3.861425, 43.639223 ], [ 3.861544, 43.639254 ], [ 3.861545, 43.639348 ], [ 3.861709, 43.639376 ], [ 3.861849, 43.639375 ], [ 3.861717, 43.639343 ], [ 3.8616, 43.639298 ], [ 3.861414, 43.639235 ], [ 3.861267, 43.639167 ], [ 3.861115, 43.639076 ], [ 3.860923, 43.638989 ], [ 3.860732, 43.638874 ], [ 3.860611, 43.638811 ], [ 3.86049, 43.638685 ], [ 3.860474, 43.638555 ], [ 3.860446, 43.638426 ], [ 3.860438, 43.638329 ], [ 3.860352, 43.638255 ], [ 3.860216, 43.638243 ], [ 3.860074, 43.638243 ], [ 3.859937, 43.638263 ], [ 3.859804, 43.638245 ], [ 3.859665, 43.638226 ], [ 3.859531, 43.638242 ], [ 3.859511, 43.638354 ], [ 3.859499, 43.638446 ], [ 3.85949, 43.638563 ], [ 3.859569, 43.638644 ], [ 3.859713, 43.638672 ], [ 3.85984, 43.638682 ], [ 3.859914, 43.638608 ], [ 3.859691, 43.63863 ], [ 3.859501, 43.638624 ], [ 3.859424, 43.638699 ], [ 3.859434, 43.638824 ], [ 3.859547, 43.63889 ], [ 3.859663, 43.638966 ], [ 3.85974, 43.63904 ], [ 3.859815, 43.63914 ], [ 3.859891, 43.639227 ], [ 3.859983, 43.639308 ], [ 3.860074, 43.639375 ], [ 3.860209, 43.639411 ], [ 3.860322, 43.639476 ], [ 3.860404, 43.639543 ], [ 3.860531, 43.639593 ], [ 3.860682, 43.639657 ], [ 3.860887, 43.639723 ], [ 3.861022, 43.639807 ], [ 3.861197, 43.639856 ], [ 3.861368, 43.639887 ], [ 3.861251, 43.639837 ], [ 3.861133, 43.639785 ], [ 3.860978, 43.639742 ], [ 3.86075, 43.639671 ], [ 3.860547, 43.639579 ], [ 3.860335, 43.639513 ], [ 3.860212, 43.639473 ], [ 3.860011, 43.639378 ], [ 3.859898, 43.639248 ], [ 3.859843, 43.639165 ], [ 3.859794, 43.63908 ], [ 3.859721, 43.639001 ], [ 3.859588, 43.638924 ], [ 3.859428, 43.638878 ], [ 3.859303, 43.638934 ], [ 3.859232, 43.639059 ], [ 3.85925, 43.639163 ], [ 3.859203, 43.639281 ], [ 3.859169, 43.6394 ], [ 3.859108, 43.639501 ], [ 3.859039, 43.639609 ], [ 3.858941, 43.639709 ], [ 3.858851, 43.639834 ], [ 3.858786, 43.639933 ], [ 3.858655, 43.64002 ], [ 3.858579, 43.640097 ], [ 3.858499, 43.640167 ], [ 3.858367, 43.640177 ], [ 3.858222, 43.640256 ], [ 3.858089, 43.640351 ], [ 3.857953, 43.64046 ], [ 3.857803, 43.640548 ], [ 3.857702, 43.640614 ], [ 3.857537, 43.640723 ], [ 3.857436, 43.6408 ], [ 3.857274, 43.640848 ], [ 3.857122, 43.640905 ], [ 3.85697, 43.640984 ], [ 3.856829, 43.641083 ], [ 3.856578, 43.641222 ], [ 3.856475, 43.641319 ], [ 3.856411, 43.641409 ], [ 3.856345, 43.641493 ], [ 3.856283, 43.641595 ], [ 3.856221, 43.64169 ], [ 3.856212, 43.641791 ], [ 3.856153, 43.641872 ], [ 3.856032, 43.641922 ], [ 3.855957, 43.642014 ], [ 3.85587, 43.642141 ], [ 3.855804, 43.642252 ], [ 3.855705, 43.642341 ], [ 3.855595, 43.642424 ], [ 3.85549, 43.642484 ], [ 3.855361, 43.642532 ], [ 3.855224, 43.64256 ], [ 3.855079, 43.642598 ], [ 3.854919, 43.642646 ], [ 3.854792, 43.64267 ], [ 3.854655, 43.642685 ], [ 3.854542, 43.642726 ], [ 3.85442, 43.642775 ], [ 3.854254, 43.642769 ], [ 3.854131, 43.642723 ], [ 3.854011, 43.642754 ], [ 3.854056, 43.64267 ], [ 3.854144, 43.642606 ], [ 3.854146, 43.642698 ] ], [ [ 3.854183, 43.642792 ], [ 3.854215, 43.642903 ], [ 3.854136, 43.642993 ], [ 3.854259, 43.642963 ], [ 3.854398, 43.642899 ], [ 3.854576, 43.642806 ], [ 3.854761, 43.642736 ], [ 3.854976, 43.642669 ], [ 3.855202, 43.642586 ], [ 3.855373, 43.642532 ], [ 3.855508, 43.642469 ], [ 3.855646, 43.64235 ], [ 3.855788, 43.642172 ], [ 3.855922, 43.641976 ], [ 3.855963, 43.641882 ], [ 3.856077, 43.64173 ], [ 3.856192, 43.641584 ], [ 3.856278, 43.641477 ], [ 3.856379, 43.641368 ], [ 3.856506, 43.641255 ], [ 3.856656, 43.641131 ], [ 3.856836, 43.641029 ], [ 3.856994, 43.640941 ], [ 3.857127, 43.640877 ], [ 3.857256, 43.64082 ], [ 3.857417, 43.640744 ], [ 3.857586, 43.640683 ], [ 3.857752, 43.640537 ], [ 3.857843, 43.640471 ], [ 3.857954, 43.64041 ], [ 3.858053, 43.640345 ], [ 3.858253, 43.640233 ], [ 3.858344, 43.640168 ], [ 3.858509, 43.640052 ], [ 3.858643, 43.639914 ], [ 3.858714, 43.63983 ], [ 3.858771, 43.639741 ], [ 3.858879, 43.639595 ], [ 3.858984, 43.639432 ], [ 3.859021, 43.63934 ], [ 3.859104, 43.639165 ], [ 3.859142, 43.639073 ], [ 3.859178, 43.638986 ], [ 3.859242, 43.638821 ], [ 3.859314, 43.638643 ], [ 3.859408, 43.638387 ], [ 3.859435, 43.638216 ], [ 3.859479, 43.638046 ], [ 3.859511, 43.637879 ], [ 3.859515, 43.637788 ], [ 3.859575, 43.637644 ], [ 3.859661, 43.63751 ], [ 3.859772, 43.63738 ], [ 3.859816, 43.637287 ], [ 3.85987, 43.637186 ], [ 3.859991, 43.637108 ], [ 3.860108, 43.637059 ], [ 3.860246, 43.636987 ], [ 3.860339, 43.63691 ], [ 3.860431, 43.636813 ], [ 3.860571, 43.636747 ], [ 3.86068, 43.636688 ], [ 3.860624, 43.636572 ], [ 3.86069, 43.63649 ], [ 3.860788, 43.636404 ], [ 3.860593, 43.636229 ], [ 3.860471, 43.636254 ], [ 3.860758, 43.636628 ], [ 3.860717, 43.636722 ], [ 3.860797, 43.636636 ], [ 3.860752, 43.636551 ], [ 3.860879, 43.63654 ], [ 3.860964, 43.636455 ], [ 3.861039, 43.636362 ], [ 3.861111, 43.636288 ], [ 3.861191, 43.636183 ], [ 3.861209, 43.636094 ], [ 3.861243, 43.635998 ], [ 3.861365, 43.636028 ], [ 3.861456, 43.635923 ], [ 3.861511, 43.635794 ], [ 3.861527, 43.635687 ], [ 3.861598, 43.635585 ], [ 3.861645, 43.635499 ], [ 3.861721, 43.635421 ], [ 3.861831, 43.635312 ], [ 3.861865, 43.6352 ], [ 3.861928, 43.635119 ], [ 3.862022, 43.635028 ], [ 3.862135, 43.634944 ], [ 3.862216, 43.634854 ], [ 3.862312, 43.634786 ], [ 3.862437, 43.634699 ], [ 3.862641, 43.634598 ], [ 3.862794, 43.634478 ], [ 3.862937, 43.634359 ], [ 3.863047, 43.634268 ], [ 3.863157, 43.634176 ], [ 3.863304, 43.634085 ], [ 3.86346, 43.634 ], [ 3.863598, 43.633949 ], [ 3.863753, 43.633963 ], [ 3.86393, 43.633972 ], [ 3.864143, 43.634021 ], [ 3.86436, 43.634072 ], [ 3.864663, 43.634144 ], [ 3.864789, 43.634177 ], [ 3.864967, 43.634203 ], [ 3.865127, 43.634255 ], [ 3.865304, 43.634319 ], [ 3.865456, 43.634384 ], [ 3.86556, 43.634433 ], [ 3.865611, 43.634344 ], [ 3.86572, 43.6344 ], [ 3.865891, 43.634433 ], [ 3.866083, 43.634495 ], [ 3.866205, 43.634517 ], [ 3.866368, 43.634568 ], [ 3.866537, 43.634609 ], [ 3.866683, 43.634638 ], [ 3.86682, 43.634664 ], [ 3.866997, 43.634698 ], [ 3.867154, 43.634754 ], [ 3.867357, 43.634745 ], [ 3.86756, 43.634716 ], [ 3.867744, 43.634716 ], [ 3.867913, 43.634692 ], [ 3.868008, 43.634626 ], [ 3.868045, 43.634538 ], [ 3.868072, 43.634441 ], [ 3.868041, 43.634333 ], [ 3.868005, 43.634241 ], [ 3.867968, 43.63414 ], [ 3.867949, 43.63402 ], [ 3.867945, 43.633872 ], [ 3.86792, 43.63375 ], [ 3.8679, 43.63361 ], [ 3.867884, 43.633464 ], [ 3.867906, 43.63336 ], [ 3.867917, 43.633237 ], [ 3.867942, 43.633145 ], [ 3.867957, 43.633026 ], [ 3.867981, 43.632919 ], [ 3.868012, 43.632825 ], [ 3.868061, 43.632735 ], [ 3.868115, 43.632629 ], [ 3.868193, 43.632474 ], [ 3.86824, 43.632375 ], [ 3.868274, 43.632272 ], [ 3.868374, 43.632094 ], [ 3.868492, 43.63195 ], [ 3.86855, 43.631863 ], [ 3.868607, 43.631782 ], [ 3.868737, 43.631638 ], [ 3.868842, 43.63149 ], [ 3.868887, 43.631396 ], [ 3.868995, 43.631249 ], [ 3.869115, 43.63111 ], [ 3.869245, 43.630952 ], [ 3.869395, 43.630798 ], [ 3.869455, 43.630718 ], [ 3.869512, 43.63063 ], [ 3.869563, 43.63054 ], [ 3.869614, 43.630455 ], [ 3.869668, 43.630366 ], [ 3.869733, 43.630235 ], [ 3.869824, 43.630055 ], [ 3.86986, 43.629961 ], [ 3.869883, 43.62984 ], [ 3.869914, 43.629751 ], [ 3.869939, 43.629615 ], [ 3.869926, 43.629462 ], [ 3.869858, 43.629341 ], [ 3.869848, 43.629234 ], [ 3.869801, 43.629131 ], [ 3.869729, 43.629055 ], [ 3.869691, 43.628962 ], [ 3.869582, 43.628847 ], [ 3.869519, 43.628757 ], [ 3.869416, 43.628664 ], [ 3.869356, 43.628582 ], [ 3.869184, 43.628533 ], [ 3.869353, 43.628561 ], [ 3.869398, 43.628645 ], [ 3.869497, 43.628714 ], [ 3.86942, 43.628626 ], [ 3.869305, 43.628584 ], [ 3.869302, 43.628676 ], [ 3.869423, 43.62863 ], [ 3.86946, 43.628538 ], [ 3.869002, 43.628737 ], [ 3.869124, 43.628678 ], [ 3.869239, 43.6286 ], [ 3.869377, 43.628633 ], [ 3.869457, 43.628564 ], [ 3.869394, 43.628447 ], [ 3.869331, 43.628369 ], [ 3.869281, 43.628267 ], [ 3.869234, 43.628181 ], [ 3.869272, 43.628087 ], [ 3.869325, 43.627992 ], [ 3.869314, 43.627895 ], [ 3.869277, 43.627798 ], [ 3.869336, 43.627691 ], [ 3.869354, 43.6276 ], [ 3.869355, 43.627498 ], [ 3.869334, 43.627403 ], [ 3.869176, 43.627446 ], [ 3.869094, 43.627521 ], [ 3.869009, 43.627598 ], [ 3.869085, 43.627476 ], [ 3.869211, 43.627347 ], [ 3.869284, 43.627235 ], [ 3.869195, 43.627168 ], [ 3.869157, 43.627082 ], [ 3.869053, 43.627023 ], [ 3.868902, 43.626991 ], [ 3.868775, 43.627031 ], [ 3.868714, 43.627129 ], [ 3.868748, 43.627225 ], [ 3.868687, 43.627306 ], [ 3.868579, 43.627355 ], [ 3.868549, 43.627266 ], [ 3.868564, 43.62736 ], [ 3.868466, 43.627433 ], [ 3.868342, 43.627421 ], [ 3.868304, 43.627252 ], [ 3.868367, 43.627171 ], [ 3.868473, 43.627066 ], [ 3.868614, 43.6271 ], [ 3.868743, 43.627092 ], [ 3.868891, 43.627085 ], [ 3.869016, 43.627097 ], [ 3.869156, 43.627107 ], [ 3.869271, 43.627173 ], [ 3.869204, 43.627324 ], [ 3.869097, 43.627448 ], [ 3.868985, 43.627565 ], [ 3.868876, 43.627679 ], [ 3.868786, 43.627799 ], [ 3.86869, 43.627865 ], [ 3.868789, 43.627976 ], [ 3.868673, 43.627938 ], [ 3.868589, 43.627853 ], [ 3.868469, 43.627785 ], [ 3.86857, 43.627838 ], [ 3.86846, 43.627915 ], [ 3.868382, 43.628042 ], [ 3.868349, 43.628132 ], [ 3.868374, 43.628229 ], [ 3.868465, 43.628335 ], [ 3.868557, 43.628402 ], [ 3.868674, 43.628451 ], [ 3.868659, 43.628355 ], [ 3.868797, 43.628437 ], [ 3.868878, 43.628519 ], [ 3.868947, 43.628594 ], [ 3.869047, 43.628663 ], [ 3.869144, 43.62873 ], [ 3.869264, 43.628776 ], [ 3.869363, 43.628839 ], [ 3.869464, 43.62893 ], [ 3.869469, 43.629021 ], [ 3.869598, 43.629069 ], [ 3.869695, 43.62913 ], [ 3.869807, 43.629186 ], [ 3.869655, 43.629198 ], [ 3.869562, 43.629266 ], [ 3.869452, 43.629341 ], [ 3.869307, 43.629402 ], [ 3.869191, 43.629459 ], [ 3.869061, 43.62951 ], [ 3.86893, 43.629548 ], [ 3.86906, 43.629511 ], [ 3.869178, 43.629469 ], [ 3.869304, 43.629415 ], [ 3.869436, 43.629362 ], [ 3.869524, 43.629296 ], [ 3.869613, 43.629229 ], [ 3.869504, 43.629121 ], [ 3.869387, 43.629032 ], [ 3.869257, 43.629048 ], [ 3.869216, 43.629137 ], [ 3.869183, 43.629036 ], [ 3.869181, 43.628944 ], [ 3.869075, 43.628885 ], [ 3.869094, 43.628789 ], [ 3.868975, 43.628646 ], [ 3.868791, 43.628559 ], [ 3.868642, 43.628461 ], [ 3.86851, 43.628363 ], [ 3.868366, 43.628356 ], [ 3.868261, 43.628428 ], [ 3.868188, 43.628557 ], [ 3.86811, 43.628677 ], [ 3.868036, 43.628763 ], [ 3.867993, 43.62887 ], [ 3.86793, 43.628971 ], [ 3.867874, 43.629061 ], [ 3.867784, 43.629138 ], [ 3.867669, 43.629198 ], [ 3.867604, 43.629285 ], [ 3.867495, 43.629401 ], [ 3.867438, 43.629489 ], [ 3.867441, 43.629596 ], [ 3.867419, 43.629689 ], [ 3.867377, 43.629783 ], [ 3.867305, 43.62986 ], [ 3.867179, 43.629922 ], [ 3.867055, 43.630058 ], [ 3.866912, 43.630174 ], [ 3.866637, 43.630353 ], [ 3.866489, 43.630441 ], [ 3.866385, 43.630515 ], [ 3.86649, 43.630427 ], [ 3.866659, 43.630351 ], [ 3.866832, 43.630241 ], [ 3.866918, 43.630175 ], [ 3.867032, 43.630033 ], [ 3.867101, 43.629895 ], [ 3.867141, 43.629781 ], [ 3.867157, 43.629678 ], [ 3.867258, 43.629556 ], [ 3.867375, 43.629444 ], [ 3.867481, 43.62929 ], [ 3.86756, 43.629212 ], [ 3.867678, 43.629086 ], [ 3.86774, 43.628982 ], [ 3.867801, 43.628865 ], [ 3.867873, 43.628761 ], [ 3.867936, 43.628676 ], [ 3.868001, 43.628594 ], [ 3.868077, 43.62851 ], [ 3.868142, 43.628433 ], [ 3.868228, 43.628357 ], [ 3.86832, 43.628252 ], [ 3.868365, 43.628144 ], [ 3.86846, 43.628039 ], [ 3.868574, 43.627924 ], [ 3.8687, 43.627779 ], [ 3.868838, 43.627634 ], [ 3.868952, 43.627501 ], [ 3.869072, 43.627398 ], [ 3.86917, 43.627287 ], [ 3.869271, 43.627194 ], [ 3.869374, 43.627129 ], [ 3.869506, 43.627083 ], [ 3.869641, 43.627058 ], [ 3.869682, 43.627147 ], [ 3.869643, 43.627245 ], [ 3.869575, 43.627329 ], [ 3.869547, 43.627424 ], [ 3.869531, 43.627517 ], [ 3.869716, 43.627621 ], [ 3.869835, 43.62771 ], [ 3.869951, 43.627664 ], [ 3.870015, 43.627566 ], [ 3.870083, 43.627465 ], [ 3.87018, 43.627335 ], [ 3.87031, 43.627281 ], [ 3.87046, 43.62726 ], [ 3.870595, 43.627353 ], [ 3.870815, 43.627483 ], [ 3.871084, 43.627595 ], [ 3.871185, 43.627647 ], [ 3.871328, 43.627713 ], [ 3.871494, 43.627637 ], [ 3.871669, 43.62748 ], [ 3.871779, 43.627401 ], [ 3.871863, 43.627313 ], [ 3.872029, 43.627305 ], [ 3.872171, 43.627324 ], [ 3.872297, 43.627399 ], [ 3.872438, 43.627406 ], [ 3.872561, 43.627392 ], [ 3.872691, 43.627457 ], [ 3.87275, 43.627561 ], [ 3.872814, 43.627725 ], [ 3.87289, 43.627882 ], [ 3.872922, 43.62797 ], [ 3.872971, 43.628054 ], [ 3.872969, 43.628167 ], [ 3.872906, 43.62829 ], [ 3.872775, 43.628356 ], [ 3.87261, 43.628405 ], [ 3.872494, 43.628361 ], [ 3.872393, 43.628302 ], [ 3.872213, 43.628251 ], [ 3.871995, 43.628236 ], [ 3.871773, 43.628237 ], [ 3.871558, 43.628242 ], [ 3.871429, 43.628246 ], [ 3.871534, 43.628299 ], [ 3.871667, 43.628303 ], [ 3.871545, 43.628258 ], [ 3.871419, 43.628252 ], [ 3.871546, 43.628264 ], [ 3.871711, 43.628178 ], [ 3.87184, 43.628133 ], [ 3.871957, 43.6282 ], [ 3.872085, 43.628195 ], [ 3.871999, 43.628269 ], [ 3.872054, 43.628174 ], [ 3.872214, 43.628146 ], [ 3.872354, 43.62816 ], [ 3.872448, 43.628248 ], [ 3.872547, 43.628334 ], [ 3.872671, 43.628328 ], [ 3.872815, 43.628311 ], [ 3.872955, 43.628249 ], [ 3.872922, 43.628142 ], [ 3.872798, 43.62812 ], [ 3.872712, 43.628049 ], [ 3.87273, 43.628139 ], [ 3.872764, 43.628048 ], [ 3.872652, 43.627963 ], [ 3.872642, 43.62787 ], [ 3.872659, 43.627768 ], [ 3.872717, 43.627851 ], [ 3.872787, 43.627699 ], [ 3.87276, 43.627611 ], [ 3.872702, 43.627521 ], [ 3.872578, 43.62747 ], [ 3.87237, 43.627438 ], [ 3.872232, 43.627415 ], [ 3.87208, 43.627422 ], [ 3.872007, 43.627509 ], [ 3.871908, 43.627593 ], [ 3.871783, 43.62759 ], [ 3.871614, 43.627601 ], [ 3.871452, 43.627665 ], [ 3.871326, 43.6277 ], [ 3.871182, 43.627681 ], [ 3.871078, 43.627617 ], [ 3.871151, 43.6277 ], [ 3.871048, 43.627478 ], [ 3.871156, 43.627562 ], [ 3.871094, 43.627649 ], [ 3.870973, 43.627587 ], [ 3.870827, 43.627523 ], [ 3.87095, 43.627536 ], [ 3.870829, 43.627509 ], [ 3.870746, 43.627439 ], [ 3.870607, 43.627409 ], [ 3.870547, 43.627508 ], [ 3.870584, 43.627619 ], [ 3.870588, 43.627388 ], [ 3.870307, 43.627448 ], [ 3.870373, 43.627302 ], [ 3.870511, 43.627298 ], [ 3.870366, 43.627287 ], [ 3.870203, 43.627306 ], [ 3.870098, 43.627392 ], [ 3.87004, 43.627485 ], [ 3.87011, 43.62741 ], [ 3.870069, 43.62751 ], [ 3.869979, 43.62758 ], [ 3.869931, 43.627665 ], [ 3.870061, 43.62775 ], [ 3.870221, 43.627826 ], [ 3.870317, 43.627921 ], [ 3.870419, 43.627973 ], [ 3.870568, 43.627933 ], [ 3.870704, 43.627937 ], [ 3.870756, 43.628025 ], [ 3.870883, 43.628049 ], [ 3.870923, 43.628139 ], [ 3.871053, 43.628196 ], [ 3.871222, 43.628242 ], [ 3.871417, 43.628314 ], [ 3.871582, 43.628389 ], [ 3.871696, 43.62846 ], [ 3.871798, 43.628532 ], [ 3.871914, 43.628569 ], [ 3.872084, 43.628653 ], [ 3.872135, 43.628735 ], [ 3.871995, 43.628734 ], [ 3.872078, 43.628656 ], [ 3.872306, 43.628589 ], [ 3.872431, 43.628567 ], [ 3.87257, 43.628511 ], [ 3.872689, 43.628476 ], [ 3.872533, 43.628517 ], [ 3.872379, 43.628563 ], [ 3.872245, 43.628602 ], [ 3.872376, 43.628614 ], [ 3.872281, 43.628543 ], [ 3.872259, 43.628451 ], [ 3.872362, 43.628401 ], [ 3.872221, 43.628457 ], [ 3.87214, 43.628557 ], [ 3.872246, 43.62861 ], [ 3.872094, 43.628428 ], [ 3.872087, 43.628528 ], [ 3.87199, 43.628586 ], [ 3.871903, 43.628656 ], [ 3.872011, 43.628715 ], [ 3.872133, 43.628768 ], [ 3.872243, 43.628829 ], [ 3.872363, 43.628909 ], [ 3.87249, 43.628956 ], [ 3.872416, 43.629043 ], [ 3.872302, 43.629006 ], [ 3.87222, 43.628934 ], [ 3.872197, 43.628841 ], [ 3.872099, 43.628768 ], [ 3.871974, 43.628669 ], [ 3.871845, 43.628618 ], [ 3.871707, 43.628591 ], [ 3.871588, 43.628564 ], [ 3.871474, 43.628521 ], [ 3.87138, 43.628451 ], [ 3.871276, 43.628402 ], [ 3.871317, 43.62829 ], [ 3.871173, 43.628293 ], [ 3.871009, 43.628224 ], [ 3.870838, 43.628183 ], [ 3.870704, 43.628134 ], [ 3.870623, 43.628066 ], [ 3.870467, 43.627999 ], [ 3.870388, 43.627907 ], [ 3.870208, 43.627865 ], [ 3.870065, 43.627799 ], [ 3.869943, 43.62775 ], [ 3.869838, 43.627832 ], [ 3.869719, 43.627893 ], [ 3.869598, 43.627844 ], [ 3.869779, 43.627869 ], [ 3.869913, 43.627781 ], [ 3.869768, 43.627653 ], [ 3.869651, 43.627617 ], [ 3.869555, 43.627681 ], [ 3.869503, 43.62759 ], [ 3.869403, 43.627677 ], [ 3.869372, 43.627777 ], [ 3.869379, 43.627867 ], [ 3.869396, 43.627972 ], [ 3.869391, 43.628066 ], [ 3.869454, 43.628176 ], [ 3.869507, 43.628284 ], [ 3.86956, 43.62839 ], [ 3.869608, 43.628539 ], [ 3.869645, 43.628627 ], [ 3.869684, 43.628713 ], [ 3.869761, 43.628786 ], [ 3.869856, 43.628728 ], [ 3.869948, 43.628658 ], [ 3.870047, 43.62859 ], [ 3.870012, 43.628683 ], [ 3.869916, 43.62876 ], [ 3.86978, 43.628799 ], [ 3.869722, 43.628881 ], [ 3.86982, 43.628936 ], [ 3.869991, 43.628894 ], [ 3.870101, 43.628846 ], [ 3.870298, 43.628787 ], [ 3.870514, 43.628728 ], [ 3.870633, 43.628698 ], [ 3.870693, 43.628821 ], [ 3.870743, 43.628904 ], [ 3.870812, 43.629004 ], [ 3.870884, 43.629104 ], [ 3.870724, 43.629127 ], [ 3.870598, 43.629087 ], [ 3.870517, 43.628989 ], [ 3.870312, 43.629032 ], [ 3.870183, 43.629007 ], [ 3.870093, 43.628924 ], [ 3.869992, 43.628983 ], [ 3.870116, 43.629008 ], [ 3.870212, 43.629066 ], [ 3.87033, 43.629002 ], [ 3.870435, 43.628954 ], [ 3.870391, 43.629042 ], [ 3.870251, 43.629033 ], [ 3.870122, 43.629056 ], [ 3.870053, 43.62897 ], [ 3.869953, 43.628898 ], [ 3.869893, 43.628989 ], [ 3.869939, 43.629091 ], [ 3.869935, 43.629185 ], [ 3.869978, 43.62927 ], [ 3.870031, 43.62938 ], [ 3.870075, 43.629466 ], [ 3.870195, 43.629522 ], [ 3.870329, 43.629484 ], [ 3.870461, 43.629493 ], [ 3.870524, 43.629609 ], [ 3.870588, 43.6297 ], [ 3.870449, 43.629725 ], [ 3.870361, 43.629789 ], [ 3.870203, 43.629905 ], [ 3.870095, 43.62995 ], [ 3.870066, 43.630048 ], [ 3.86999, 43.630162 ], [ 3.869856, 43.63031 ], [ 3.869709, 43.630431 ], [ 3.869566, 43.630568 ], [ 3.8695, 43.630649 ], [ 3.869374, 43.630797 ], [ 3.869247, 43.630931 ], [ 3.869124, 43.631075 ], [ 3.86902, 43.631221 ], [ 3.868926, 43.631342 ], [ 3.86883, 43.631453 ], [ 3.868763, 43.631564 ], [ 3.868814, 43.631663 ], [ 3.868725, 43.631836 ], [ 3.868645, 43.631939 ], [ 3.868558, 43.632016 ], [ 3.868504, 43.632106 ], [ 3.868406, 43.632186 ], [ 3.868341, 43.632309 ], [ 3.868261, 43.632469 ], [ 3.868183, 43.63263 ], [ 3.868125, 43.632795 ], [ 3.868085, 43.632966 ], [ 3.868045, 43.633139 ], [ 3.868037, 43.633307 ], [ 3.868046, 43.633462 ], [ 3.868055, 43.633605 ], [ 3.86808, 43.633766 ], [ 3.868096, 43.633887 ], [ 3.868123, 43.63398 ], [ 3.868185, 43.634057 ], [ 3.868242, 43.634215 ], [ 3.868259, 43.634341 ], [ 3.868272, 43.634455 ], [ 3.868239, 43.634575 ], [ 3.868229, 43.634679 ], [ 3.868235, 43.634779 ], [ 3.86831, 43.634867 ], [ 3.868395, 43.634935 ], [ 3.868436, 43.635038 ], [ 3.868497, 43.635131 ], [ 3.868585, 43.635196 ], [ 3.868547, 43.635283 ], [ 3.868575, 43.635392 ], [ 3.868639, 43.635473 ], [ 3.868771, 43.635495 ], [ 3.868917, 43.635448 ], [ 3.869028, 43.635385 ], [ 3.869255, 43.635318 ], [ 3.869379, 43.635308 ], [ 3.869374, 43.635415 ], [ 3.86951, 43.635431 ], [ 3.869614, 43.635368 ], [ 3.869711, 43.635312 ], [ 3.869837, 43.635297 ], [ 3.869941, 43.635244 ], [ 3.870025, 43.635137 ], [ 3.870088, 43.635056 ], [ 3.869931, 43.635196 ], [ 3.869907, 43.635321 ], [ 3.870055, 43.635344 ], [ 3.870174, 43.635295 ], [ 3.870332, 43.635207 ], [ 3.870422, 43.635141 ], [ 3.870547, 43.635117 ], [ 3.870655, 43.635069 ], [ 3.870789, 43.635097 ], [ 3.870924, 43.635104 ], [ 3.87105, 43.635106 ], [ 3.871253, 43.635113 ], [ 3.871382, 43.635064 ], [ 3.87156, 43.635081 ], [ 3.871693, 43.635079 ], [ 3.871627, 43.635161 ], [ 3.871738, 43.635104 ], [ 3.871866, 43.635081 ], [ 3.872027, 43.63508 ], [ 3.87225, 43.635068 ], [ 3.872422, 43.635031 ], [ 3.87261, 43.63498 ], [ 3.872741, 43.63492 ], [ 3.872822, 43.634845 ], [ 3.872705, 43.634791 ], [ 3.872837, 43.634816 ], [ 3.872961, 43.634796 ], [ 3.873008, 43.634699 ], [ 3.872947, 43.634618 ], [ 3.873063, 43.634657 ], [ 3.872947, 43.634623 ], [ 3.873073, 43.634606 ], [ 3.872864, 43.634504 ], [ 3.87293, 43.634586 ], [ 3.872959, 43.634692 ], [ 3.87309, 43.634676 ], [ 3.873205, 43.634636 ], [ 3.873159, 43.634735 ], [ 3.873059, 43.634815 ], [ 3.872971, 43.634906 ], [ 3.872924, 43.634992 ], [ 3.872789, 43.635056 ], [ 3.872669, 43.635026 ], [ 3.872716, 43.634943 ], [ 3.872652, 43.635052 ], [ 3.872563, 43.635129 ], [ 3.872395, 43.635162 ], [ 3.87227, 43.635219 ], [ 3.872127, 43.635211 ], [ 3.871899, 43.635192 ], [ 3.871726, 43.635203 ], [ 3.871585, 43.635199 ], [ 3.871413, 43.635172 ], [ 3.871257, 43.635186 ], [ 3.871136, 43.635272 ] ] ] } }
]
}
