{
"type": "FeatureCollection",
"name": "28 févr 2020 14:34:14",
"crs": { "type": "name", "properties": { "name": "urn:ogc:def:crs:OGC:1.3:CRS84" } },
"features": [
{ "type": "Feature", "properties": { "Name": "28 févr 2020 14:34:14", "description": "", "begin": "2020\/02\/28 13:34:14.940+00", "end": "2020\/02\/28 15:40:26.147+00" }, "geometry": { "type": "MultiLineString", "coordinates": [ [ [ 3.906458, 43.606269 ], [ 3.906645, 43.60619 ], [ 3.906726, 43.606121 ], [ 3.906912, 43.606212 ], [ 3.906853, 43.606112 ], [ 3.906936, 43.606038 ], [ 3.906928, 43.605947 ], [ 3.906926, 43.605854 ], [ 3.906919, 43.605763 ], [ 3.906907, 43.605664 ], [ 3.906845, 43.605573 ], [ 3.906844, 43.605474 ], [ 3.906836, 43.605373 ], [ 3.906832, 43.605279 ], [ 3.906908, 43.605207 ], [ 3.907007, 43.605276 ], [ 3.907041, 43.605365 ], [ 3.907168, 43.605376 ], [ 3.907298, 43.605362 ], [ 3.907413, 43.605316 ], [ 3.907528, 43.605274 ], [ 3.90765, 43.605238 ], [ 3.907749, 43.605294 ], [ 3.907826, 43.605376 ], [ 3.908251, 43.605295 ], [ 3.908077, 43.605364 ], [ 3.907925, 43.605425 ], [ 3.908058, 43.605383 ], [ 3.908185, 43.605396 ], [ 3.908374, 43.605334 ], [ 3.908618, 43.605569 ], [ 3.908506, 43.60553 ], [ 3.908395, 43.605474 ], [ 3.908329, 43.605635 ], [ 3.908429, 43.605778 ], [ 3.908477, 43.605863 ], [ 3.908386, 43.605934 ], [ 3.908307, 43.605863 ], [ 3.908184, 43.60584 ], [ 3.908056, 43.605837 ], [ 3.907986, 43.605752 ], [ 3.90796, 43.605658 ], [ 3.907929, 43.605537 ], [ 3.907811, 43.605508 ], [ 3.907724, 43.605399 ], [ 3.907662, 43.605318 ], [ 3.907528, 43.605347 ], [ 3.907401, 43.605335 ], [ 3.90728, 43.605354 ], [ 3.90715, 43.605351 ], [ 3.907025, 43.605348 ], [ 3.906995, 43.605437 ], [ 3.907017, 43.60553 ], [ 3.907027, 43.605634 ], [ 3.907037, 43.60573 ], [ 3.907028, 43.605832 ], [ 3.907027, 43.605925 ], [ 3.907023, 43.606024 ], [ 3.907078, 43.606105 ], [ 3.907057, 43.606014 ], [ 3.907021, 43.60592 ], [ 3.907008, 43.605829 ], [ 3.906997, 43.605724 ], [ 3.907014, 43.605621 ], [ 3.906985, 43.605523 ], [ 3.902765, 43.605418 ], [ 3.902985, 43.605439 ], [ 3.903146, 43.605386 ], [ 3.903167, 43.605528 ], [ 3.903268, 43.605603 ], [ 3.903398, 43.605641 ], [ 3.903492, 43.605703 ], [ 3.903591, 43.605768 ], [ 3.903705, 43.60581 ], [ 3.903835, 43.605845 ], [ 3.903959, 43.605877 ], [ 3.904057, 43.605941 ], [ 3.904142, 43.606016 ], [ 3.904232, 43.606081 ], [ 3.904322, 43.606152 ], [ 3.904378, 43.60624 ], [ 3.904453, 43.606327 ], [ 3.904534, 43.606406 ], [ 3.904631, 43.60647 ], [ 3.904695, 43.606549 ], [ 3.904802, 43.606621 ], [ 3.904679, 43.60665 ], [ 3.904552, 43.606649 ], [ 3.904426, 43.60664 ], [ 3.904288, 43.606639 ], [ 3.904158, 43.606618 ], [ 3.904039, 43.606589 ], [ 3.903913, 43.606549 ], [ 3.903789, 43.606534 ], [ 3.903651, 43.606538 ], [ 3.903529, 43.606496 ], [ 3.903406, 43.606487 ], [ 3.903512, 43.606535 ], [ 3.903041, 43.607002 ], [ 3.902901, 43.607064 ], [ 3.902743, 43.607141 ], [ 3.902706, 43.607232 ], [ 3.902626, 43.60731 ], [ 3.902613, 43.607402 ], [ 3.902731, 43.60744 ], [ 3.902818, 43.60751 ], [ 3.902923, 43.60756 ], [ 3.903043, 43.607535 ], [ 3.903158, 43.607458 ], [ 3.903287, 43.607435 ], [ 3.903344, 43.607349 ], [ 3.90391, 43.607515 ], [ 3.904082, 43.607461 ], [ 3.904158, 43.607304 ], [ 3.904261, 43.607252 ], [ 3.904201, 43.607349 ], [ 3.904108, 43.60742 ], [ 3.904011, 43.607479 ], [ 3.903902, 43.607532 ], [ 3.903882, 43.607629 ], [ 3.903851, 43.607737 ], [ 3.903977, 43.607749 ], [ 3.90384, 43.607658 ], [ 3.903925, 43.607529 ], [ 3.904017, 43.607435 ], [ 3.904085, 43.607353 ], [ 3.904183, 43.60729 ], [ 3.904279, 43.607226 ], [ 3.904409, 43.60721 ], [ 3.904537, 43.607187 ], [ 3.904655, 43.60715 ], [ 3.904791, 43.607183 ], [ 3.904909, 43.607236 ], [ 3.905025, 43.607304 ], [ 3.905145, 43.607334 ], [ 3.905262, 43.607376 ], [ 3.905374, 43.60742 ], [ 3.905507, 43.607453 ], [ 3.905627, 43.607425 ], [ 3.905745, 43.607381 ], [ 3.905875, 43.607376 ], [ 3.906004, 43.607374 ], [ 3.906129, 43.607364 ], [ 3.906262, 43.607345 ], [ 3.906336, 43.607418 ], [ 3.906227, 43.60748 ], [ 3.906134, 43.60755 ], [ 3.906159, 43.60746 ], [ 3.906261, 43.607403 ], [ 3.906374, 43.607356 ], [ 3.906452, 43.607282 ], [ 3.906548, 43.607344 ], [ 3.906673, 43.607324 ], [ 3.906798, 43.60731 ], [ 3.906797, 43.607217 ], [ 3.906791, 43.60712 ], [ 3.906801, 43.607014 ], [ 3.906831, 43.606924 ], [ 3.906835, 43.606826 ], [ 3.906844, 43.606729 ], [ 3.906831, 43.606635 ], [ 3.906784, 43.606549 ], [ 3.906777, 43.606459 ], [ 3.906786, 43.606363 ], [ 3.90681, 43.606272 ], [ 3.906823, 43.60618 ], [ 3.906867, 43.606095 ], [ 3.90657, 43.60883 ], [ 3.906514, 43.609076 ], [ 3.906479, 43.609163 ], [ 3.906367, 43.609217 ], [ 3.906343, 43.609306 ] ], [ [ 3.899169, 43.601231 ], [ 3.899122, 43.601144 ], [ 3.899129, 43.601051 ], [ 3.899137, 43.601146 ], [ 3.89906, 43.601285 ], [ 3.899025, 43.601373 ] ] ] } }
]
}
