{
"type": "FeatureCollection",
"name": "9_mars_2020_09_26_22_point",
"crs": { "type": "name", "properties": { "name": "urn:ogc:def:crs:OGC:1.3:CRS84" } },
"features": [
{ "type": "Feature", "properties": { "Name": "Emplacement actuel", "description": "Vitesse: 0 km\/h\nDirection: 0°\nAltitude: 71 m", "timestamp": "2020\/03\/09 08:30:10", "begin": null, "end": null, "altitudeMode": null, "tessellate": -1, "extrude": 0, "visibility": -1, "drawOrder": null, "icon": null }, "geometry": { "type": "Point", "coordinates": [ -0.614274, 44.848817 ] } },
{ "type": "Feature", "properties": { "Name": "Emplacement actuel", "description": "Vitesse: 0 km\/h\nDirection: 0°\nAltitude: 58 m", "timestamp": "2020\/03\/09 08:35:21", "begin": null, "end": null, "altitudeMode": null, "tessellate": -1, "extrude": 0, "visibility": -1, "drawOrder": null, "icon": null }, "geometry": { "type": "Point", "coordinates": [ -0.614293, 44.849255 ] } },
{ "type": "Feature", "properties": { "Name": "Emplacement actuel", "description": "Vitesse: 1,8 km\/h\nDirection: 181°\nAltitude: 50 m", "timestamp": "2020\/03\/09 09:14:45", "begin": null, "end": null, "altitudeMode": null, "tessellate": -1, "extrude": 0, "visibility": -1, "drawOrder": null, "icon": null }, "geometry": { "type": "Point", "coordinates": [ -0.618768, 44.847207 ] } },
{ "type": "Feature", "properties": { "Name": "Emplacement actuel", "description": "Vitesse: 0 km\/h\nDirection: 0°\nAltitude: 41 m", "timestamp": "2020\/03\/09 09:19:03", "begin": null, "end": null, "altitudeMode": null, "tessellate": -1, "extrude": 0, "visibility": -1, "drawOrder": null, "icon": null }, "geometry": { "type": "Point", "coordinates": [ -0.617205, 44.848428 ] } },
{ "type": "Feature", "properties": { "Name": "Emplacement actuel", "description": "Vitesse: 0 km\/h\nDirection: 0°\nAltitude: 62 m", "timestamp": "2020\/03\/09 10:40:32", "begin": null, "end": null, "altitudeMode": null, "tessellate": -1, "extrude": 0, "visibility": -1, "drawOrder": null, "icon": null }, "geometry": { "type": "Point", "coordinates": [ -0.62099, 44.849936 ] } },
{ "type": "Feature", "properties": { "Name": "Emplacement actuel", "description": "Vitesse: 0,79 km\/h\nDirection: 124°\nAltitude: 14 m", "timestamp": "2020\/03\/09 13:09:13", "begin": null, "end": null, "altitudeMode": null, "tessellate": -1, "extrude": 0, "visibility": -1, "drawOrder": null, "icon": null }, "geometry": { "type": "Point", "coordinates": [ -0.62335, 44.847469 ] } },
{ "type": "Feature", "properties": { "Name": "Emplacement actuel", "description": "Vitesse: 2,56 km\/h\nDirection: 31°\nAltitude: 80 m", "timestamp": "2020\/03\/09 13:25:56", "begin": null, "end": null, "altitudeMode": null, "tessellate": -1, "extrude": 0, "visibility": -1, "drawOrder": null, "icon": null }, "geometry": { "type": "Point", "coordinates": [ -0.622799, 44.844416 ] } },
{ "type": "Feature", "properties": { "Name": "Emplacement actuel", "description": "Vitesse: 3,85 km\/h\nDirection: 18°\nAltitude: 58 m", "timestamp": "2020\/03\/09 14:26:24", "begin": null, "end": null, "altitudeMode": null, "tessellate": -1, "extrude": 0, "visibility": -1, "drawOrder": null, "icon": null }, "geometry": { "type": "Point", "coordinates": [ -0.62606, 44.8474 ] } },
{ "type": "Feature", "properties": { "Name": "Emplacement actuel", "description": "Vitesse: 1,22 km\/h\nDirection: 352°\nAltitude: 60 m", "timestamp": "2020\/03\/09 14:27:56", "begin": null, "end": null, "altitudeMode": null, "tessellate": -1, "extrude": 0, "visibility": -1, "drawOrder": null, "icon": null }, "geometry": { "type": "Point", "coordinates": [ -0.62528, 44.847921 ] } },
{ "type": "Feature", "properties": { "Name": "Emplacement actuel", "description": "Vitesse: 0 km\/h\nDirection: 0°\nAltitude: 57 m", "timestamp": "2020\/03\/09 15:10:16", "begin": null, "end": null, "altitudeMode": null, "tessellate": -1, "extrude": 0, "visibility": -1, "drawOrder": null, "icon": null }, "geometry": { "type": "Point", "coordinates": [ -0.622889, 44.852344 ] } }
]
}
