{
"type": "FeatureCollection",
"name": "28 févr 2020 14:33:40",
"crs": { "type": "name", "properties": { "name": "urn:ogc:def:crs:OGC:1.3:CRS84" } },
"features": [
{ "type": "Feature", "properties": { "Name": "28 févr 2020 14:33:40", "description": "", "begin": "2020\/02\/28 13:33:40.830+00", "end": "2020\/02\/28 15:41:16.025+00" }, "geometry": { "type": "MultiLineString", "coordinates": [ [ [ 3.907176, 43.605926 ], [ 3.907036, 43.606124 ], [ 3.907198, 43.606186 ], [ 3.907059, 43.606066 ], [ 3.906742, 43.60608 ], [ 3.906832, 43.606011 ], [ 3.906836, 43.605909 ], [ 3.906849, 43.605813 ], [ 3.906887, 43.605716 ], [ 3.906898, 43.605626 ], [ 3.906949, 43.605531 ], [ 3.907011, 43.605437 ], [ 3.907076, 43.605519 ], [ 3.907083, 43.60562 ], [ 3.907119, 43.605709 ], [ 3.907086, 43.605613 ], [ 3.907052, 43.605511 ], [ 3.907121, 43.60542 ], [ 3.907231, 43.605366 ], [ 3.907352, 43.605335 ], [ 3.907486, 43.605321 ], [ 3.907618, 43.605319 ], [ 3.907754, 43.605321 ], [ 3.907881, 43.605311 ], [ 3.907999, 43.605275 ], [ 3.908125, 43.605234 ], [ 3.908258, 43.605212 ], [ 3.908396, 43.605195 ], [ 3.90853, 43.6052 ], [ 3.908656, 43.605242 ], [ 3.908782, 43.605257 ], [ 3.908915, 43.605244 ], [ 3.908882, 43.605335 ], [ 3.908853, 43.605426 ], [ 3.908775, 43.605505 ], [ 3.908986, 43.605685 ], [ 3.909016, 43.605499 ], [ 3.908567, 43.606037 ], [ 3.90874, 43.6058 ], [ 3.908752, 43.605695 ], [ 3.908761, 43.605567 ], [ 3.908636, 43.605599 ], [ 3.908604, 43.605497 ], [ 3.908705, 43.605413 ], [ 3.908828, 43.605442 ], [ 3.9089, 43.605522 ], [ 3.908879, 43.605625 ], [ 3.908856, 43.605719 ], [ 3.908956, 43.605662 ], [ 3.908961, 43.605558 ], [ 3.908959, 43.605463 ], [ 3.908862, 43.605396 ], [ 3.908782, 43.605325 ], [ 3.908675, 43.605267 ], [ 3.908567, 43.605217 ], [ 3.908433, 43.605225 ], [ 3.908304, 43.605258 ], [ 3.908178, 43.605267 ], [ 3.908058, 43.605241 ], [ 3.90792, 43.605226 ], [ 3.907793, 43.605232 ], [ 3.907669, 43.605272 ], [ 3.907553, 43.605306 ], [ 3.907421, 43.605317 ], [ 3.907295, 43.605348 ], [ 3.907174, 43.60537 ], [ 3.907074, 43.605429 ], [ 3.907061, 43.60552 ], [ 3.907028, 43.605611 ], [ 3.907017, 43.605702 ], [ 3.907038, 43.605806 ], [ 3.907028, 43.605907 ], [ 3.907055, 43.606001 ], [ 3.906991, 43.605923 ], [ 3.906985, 43.605831 ], [ 3.906975, 43.60574 ], [ 3.90696, 43.60564 ], [ 3.906942, 43.605539 ], [ 3.906936, 43.605442 ], [ 3.906911, 43.605351 ], [ 3.906891, 43.605256 ], [ 3.906779, 43.605207 ], [ 3.906646, 43.605218 ], [ 3.906516, 43.605228 ], [ 3.906409, 43.605289 ], [ 3.906276, 43.605298 ], [ 3.906138, 43.605316 ], [ 3.906015, 43.605285 ], [ 3.905892, 43.605275 ], [ 3.905753, 43.6053 ], [ 3.905614, 43.605315 ], [ 3.905485, 43.605306 ], [ 3.905357, 43.60531 ], [ 3.905221, 43.605319 ], [ 3.905084, 43.605324 ], [ 3.904939, 43.60533 ], [ 3.904826, 43.605376 ], [ 3.904709, 43.605408 ], [ 3.90459, 43.60537 ], [ 3.904475, 43.605331 ], [ 3.904504, 43.605235 ], [ 3.904423, 43.605151 ], [ 3.904438, 43.605043 ], [ 3.904388, 43.604955 ], [ 3.904386, 43.604863 ], [ 3.904361, 43.604773 ], [ 3.904272, 43.604696 ], [ 3.904363, 43.604629 ], [ 3.904375, 43.604537 ], [ 3.904366, 43.604437 ], [ 3.904344, 43.604347 ], [ 3.904354, 43.604251 ], [ 3.90432, 43.604339 ], [ 3.904351, 43.604449 ], [ 3.904357, 43.604543 ], [ 3.904361, 43.604641 ], [ 3.904373, 43.604737 ], [ 3.904372, 43.604828 ], [ 3.9044, 43.604924 ], [ 3.904469, 43.605043 ], [ 3.90449, 43.605148 ], [ 3.90448, 43.60524 ], [ 3.904447, 43.60533 ], [ 3.904344, 43.605384 ], [ 3.904225, 43.605411 ], [ 3.904081, 43.605409 ], [ 3.903962, 43.605381 ], [ 3.903821, 43.605392 ], [ 3.90369, 43.605399 ], [ 3.903561, 43.605393 ], [ 3.903433, 43.605382 ], [ 3.903298, 43.605419 ], [ 3.90316, 43.605412 ], [ 3.90306, 43.605356 ], [ 3.903078, 43.605259 ], [ 3.90307, 43.60516 ], [ 3.903135, 43.60508 ], [ 3.903099, 43.604991 ], [ 3.903138, 43.6049 ], [ 3.90321, 43.604811 ], [ 3.903094, 43.604764 ], [ 3.902975, 43.604725 ], [ 3.902872, 43.604669 ], [ 3.902992, 43.604694 ], [ 3.903134, 43.604695 ], [ 3.903262, 43.604664 ], [ 3.903373, 43.604602 ], [ 3.903458, 43.604536 ], [ 3.903546, 43.604464 ], [ 3.903632, 43.604391 ], [ 3.903719, 43.604317 ], [ 3.903839, 43.604271 ], [ 3.903972, 43.604232 ], [ 3.904099, 43.604204 ], [ 3.90422, 43.604155 ], [ 3.904334, 43.604093 ], [ 3.904453, 43.604036 ], [ 3.904563, 43.603976 ], [ 3.904661, 43.603903 ], [ 3.904736, 43.603823 ], [ 3.904791, 43.603742 ], [ 3.904747, 43.603649 ], [ 3.90475, 43.603556 ], [ 3.904741, 43.603463 ], [ 3.904734, 43.603559 ], [ 3.904745, 43.603654 ], [ 3.904672, 43.603731 ], [ 3.904584, 43.603803 ], [ 3.904524, 43.603893 ], [ 3.90445, 43.603967 ], [ 3.904354, 43.604037 ], [ 3.90425, 43.604099 ], [ 3.904137, 43.604152 ], [ 3.904009, 43.604186 ], [ 3.903885, 43.604219 ], [ 3.903775, 43.60428 ], [ 3.903673, 43.604342 ], [ 3.903587, 43.604408 ], [ 3.903494, 43.604469 ], [ 3.903398, 43.604547 ], [ 3.903338, 43.604631 ], [ 3.903255, 43.604709 ], [ 3.903182, 43.604798 ], [ 3.903121, 43.604883 ], [ 3.903061, 43.604964 ], [ 3.903028, 43.605062 ], [ 3.903008, 43.605161 ], [ 3.902974, 43.605254 ], [ 3.90301, 43.605347 ], [ 3.903037, 43.605435 ], [ 3.903152, 43.605468 ], [ 3.903215, 43.605546 ], [ 3.90331, 43.60561 ], [ 3.903421, 43.605665 ], [ 3.903545, 43.605733 ], [ 3.903627, 43.605805 ], [ 3.903749, 43.605842 ], [ 3.903866, 43.605891 ], [ 3.903951, 43.605959 ], [ 3.904053, 43.606021 ], [ 3.904169, 43.606111 ], [ 3.90426, 43.606173 ], [ 3.904361, 43.606243 ], [ 3.904416, 43.606326 ], [ 3.904513, 43.606388 ], [ 3.904588, 43.606482 ], [ 3.904642, 43.606565 ], [ 3.90473, 43.60664 ], [ 3.904719, 43.60673 ], [ 3.904605, 43.606675 ], [ 3.904477, 43.606644 ], [ 3.904343, 43.606661 ], [ 3.904191, 43.606655 ], [ 3.904059, 43.606633 ], [ 3.903937, 43.60661 ], [ 3.903808, 43.606584 ], [ 3.903685, 43.606572 ], [ 3.903549, 43.606555 ] ], [ [ 3.905227, 43.607634 ], [ 3.906472, 43.607415 ], [ 3.906598, 43.607401 ], [ 3.906717, 43.607371 ], [ 3.906815, 43.607307 ], [ 3.906832, 43.607212 ], [ 3.906843, 43.607114 ], [ 3.906851, 43.607009 ], [ 3.906847, 43.606913 ], [ 3.90685, 43.606822 ], [ 3.906843, 43.606729 ], [ 3.906822, 43.60664 ], [ 3.906802, 43.60655 ], [ 3.906799, 43.606447 ], [ 3.906809, 43.606345 ], [ 3.906828, 43.606252 ], [ 3.906934, 43.606403 ], [ 3.906955, 43.606494 ], [ 3.906969, 43.606743 ], [ 3.906936, 43.606946 ], [ 3.906927, 43.607072 ], [ 3.906902, 43.60729 ], [ 3.90688, 43.607422 ], [ 3.906857, 43.607538 ], [ 3.906833, 43.607655 ], [ 3.906818, 43.607749 ], [ 3.906787, 43.607861 ], [ 3.906763, 43.607952 ], [ 3.906736, 43.60805 ], [ 3.906678, 43.608129 ], [ 3.906632, 43.608237 ], [ 3.9066, 43.60833 ], [ 3.90664, 43.608425 ], [ 3.906759, 43.608506 ], [ 3.906894, 43.608586 ], [ 3.907047, 43.608686 ], [ 3.907206, 43.608789 ], [ 3.907336, 43.608864 ], [ 3.907453, 43.608917 ], [ 3.90742, 43.609008 ], [ 3.907341, 43.609084 ], [ 3.907253, 43.609157 ], [ 3.907122, 43.609159 ], [ 3.907017, 43.609089 ], [ 3.906878, 43.609034 ] ], [ [ 3.899065, 43.601171 ] ] ] } }
]
}
