{
"type": "FeatureCollection",
"name": "29 févr 2020 13:19:06",
"crs": { "type": "name", "properties": { "name": "urn:ogc:def:crs:OGC:1.3:CRS84" } },
"features": [
{ "type": "Feature", "properties": { "Name": "29 févr 2020 13:19:06", "description": "", "begin": "2020\/02\/29 12:19:06.124+00", "end": "2020\/02\/29 16:50:27.183+00" }, "geometry": { "type": "MultiLineString", "coordinates": [ [ [ 3.898783, 43.603622 ], [ 3.898636, 43.603576 ], [ 3.899285, 43.603328 ], [ 3.89921, 43.603246 ], [ 3.89913, 43.603175 ], [ 3.899009, 43.603136 ], [ 3.898898, 43.603087 ], [ 3.898823, 43.603007 ], [ 3.898816, 43.602915 ], [ 3.898872, 43.602833 ], [ 3.898992, 43.602782 ], [ 3.899204, 43.602651 ], [ 3.89924, 43.602552 ], [ 3.899226, 43.602457 ], [ 3.899131, 43.602393 ], [ 3.899008, 43.60243 ], [ 3.89891, 43.602488 ], [ 3.898871, 43.602402 ], [ 3.898854, 43.602306 ], [ 3.898858, 43.602206 ], [ 3.898933, 43.602126 ] ], [ [ 3.898973, 43.602031 ], [ 3.898964, 43.601925 ], [ 3.898909, 43.601837 ], [ 3.89882, 43.601766 ], [ 3.898816, 43.601654 ], [ 3.898841, 43.601561 ], [ 3.898865, 43.601465 ], [ 3.898917, 43.601369 ], [ 3.899003, 43.601278 ], [ 3.899123, 43.601307 ], [ 3.899254, 43.601349 ], [ 3.899381, 43.601381 ], [ 3.899511, 43.601409 ], [ 3.899634, 43.601392 ], [ 3.899722, 43.601468 ], [ 3.899835, 43.601516 ], [ 3.899927, 43.60158 ], [ 3.90005, 43.601656 ], [ 3.900114, 43.601738 ], [ 3.900156, 43.601825 ], [ 3.900296, 43.601796 ], [ 3.90042, 43.601756 ], [ 3.900569, 43.601695 ], [ 3.900691, 43.601665 ], [ 3.90079, 43.601573 ], [ 3.900685, 43.601627 ], [ 3.900785, 43.601568 ], [ 3.900903, 43.601528 ], [ 3.901017, 43.601489 ], [ 3.901175, 43.601495 ], [ 3.901402, 43.601568 ], [ 3.901462, 43.601663 ], [ 3.901508, 43.601756 ], [ 3.901567, 43.601851 ], [ 3.901663, 43.601972 ], [ 3.901703, 43.602082 ], [ 3.901786, 43.602193 ], [ 3.901976, 43.602276 ], [ 3.902221, 43.602316 ], [ 3.902355, 43.602339 ], [ 3.902503, 43.602366 ], [ 3.902651, 43.602398 ], [ 3.902811, 43.602432 ], [ 3.90298, 43.602467 ], [ 3.903154, 43.602502 ], [ 3.90332, 43.602539 ], [ 3.903483, 43.602576 ], [ 3.903642, 43.602606 ], [ 3.903795, 43.602636 ], [ 3.903942, 43.602665 ], [ 3.904096, 43.602692 ], [ 3.904235, 43.602719 ], [ 3.904451, 43.60276 ], [ 3.904575, 43.602784 ], [ 3.904699, 43.602806 ], [ 3.904821, 43.602827 ], [ 3.904946, 43.602858 ], [ 3.905077, 43.602886 ], [ 3.905213, 43.602911 ], [ 3.905347, 43.60294 ], [ 3.905484, 43.602966 ], [ 3.905625, 43.602999 ], [ 3.905769, 43.603034 ], [ 3.905901, 43.60307 ], [ 3.906036, 43.603108 ], [ 3.906171, 43.603148 ], [ 3.906306, 43.603186 ], [ 3.906439, 43.603214 ], [ 3.90657, 43.603236 ], [ 3.906696, 43.603247 ], [ 3.906926, 43.603278 ], [ 3.907112, 43.603335 ], [ 3.907255, 43.603343 ], [ 3.907468, 43.60338 ], [ 3.907554, 43.603447 ], [ 3.907545, 43.603565 ], [ 3.907444, 43.603663 ], [ 3.907261, 43.603719 ], [ 3.907108, 43.603722 ], [ 3.906996, 43.603768 ], [ 3.90695, 43.603862 ], [ 3.90696, 43.603979 ], [ 3.906974, 43.604108 ], [ 3.906978, 43.604236 ], [ 3.906976, 43.60435 ], [ 3.90697, 43.604474 ], [ 3.90697, 43.604568 ], [ 3.906966, 43.604667 ], [ 3.906969, 43.604776 ], [ 3.906987, 43.604881 ], [ 3.907103, 43.604917 ], [ 3.907197, 43.604833 ], [ 3.907308, 43.60476 ], [ 3.90739, 43.604688 ], [ 3.907489, 43.604608 ], [ 3.907572, 43.604515 ], [ 3.907663, 43.604425 ], [ 3.907758, 43.604336 ], [ 3.907882, 43.604266 ], [ 3.907987, 43.604196 ], [ 3.908112, 43.604126 ], [ 3.908245, 43.604029 ], [ 3.908376, 43.603987 ], [ 3.908524, 43.603957 ], [ 3.908657, 43.603972 ], [ 3.908812, 43.603982 ], [ 3.908974, 43.603983 ], [ 3.90912, 43.603981 ], [ 3.909256, 43.603978 ], [ 3.90938, 43.603986 ], [ 3.9095, 43.604018 ], [ 3.909588, 43.604083 ], [ 3.909699, 43.604154 ], [ 3.909779, 43.604224 ], [ 3.909901, 43.604313 ], [ 3.909998, 43.60439 ], [ 3.910101, 43.60448 ], [ 3.910211, 43.604573 ], [ 3.910284, 43.604648 ], [ 3.910329, 43.604732 ], [ 3.910428, 43.604903 ], [ 3.910504, 43.605001 ], [ 3.910492, 43.604882 ], [ 3.910293, 43.604807 ], [ 3.910156, 43.604836 ], [ 3.909873, 43.604948 ], [ 3.909593, 43.604859 ], [ 3.909768, 43.604881 ], [ 3.909978, 43.604993 ], [ 3.909749, 43.604742 ], [ 3.910022, 43.604926 ], [ 3.909963, 43.604841 ], [ 3.910077, 43.604885 ], [ 3.909985, 43.604956 ], [ 3.909991, 43.604806 ], [ 3.909864, 43.604829 ], [ 3.909984, 43.604866 ], [ 3.910105, 43.604802 ], [ 3.910244, 43.60479 ], [ 3.910369, 43.60479 ], [ 3.910344, 43.604699 ], [ 3.910275, 43.604622 ], [ 3.910172, 43.604555 ], [ 3.910029, 43.604457 ], [ 3.909919, 43.604394 ], [ 3.909841, 43.604316 ], [ 3.90975, 43.604225 ], [ 3.90965, 43.604134 ], [ 3.909552, 43.60405 ], [ 3.909663, 43.603972 ], [ 3.909834, 43.603957 ], [ 3.909962, 43.603942 ], [ 3.910127, 43.603923 ], [ 3.910296, 43.603909 ], [ 3.91042, 43.603905 ], [ 3.910549, 43.603912 ], [ 3.910681, 43.603905 ], [ 3.910839, 43.60389 ], [ 3.911013, 43.603892 ], [ 3.911175, 43.6039 ], [ 3.911337, 43.603909 ], [ 3.911468, 43.603909 ], [ 3.9116, 43.603902 ], [ 3.911672, 43.603807 ], [ 3.911655, 43.603713 ], [ 3.911533, 43.603685 ], [ 3.91137, 43.603653 ], [ 3.911155, 43.603617 ], [ 3.910903, 43.603579 ], [ 3.910774, 43.603559 ], [ 3.910642, 43.603534 ], [ 3.91051, 43.603511 ], [ 3.91038, 43.603488 ], [ 3.91025, 43.603469 ], [ 3.910112, 43.603451 ], [ 3.909959, 43.603434 ], [ 3.90981, 43.603417 ], [ 3.909664, 43.603404 ], [ 3.909515, 43.603399 ], [ 3.909376, 43.603396 ], [ 3.90923, 43.603398 ], [ 3.909075, 43.603399 ], [ 3.908918, 43.603399 ], [ 3.908753, 43.603401 ], [ 3.908592, 43.603404 ], [ 3.908438, 43.603412 ], [ 3.90829, 43.60342 ], [ 3.908129, 43.603441 ], [ 3.907972, 43.603459 ], [ 3.907829, 43.603476 ], [ 3.907705, 43.603491 ], [ 3.907495, 43.603583 ], [ 3.907292, 43.603632 ], [ 3.90707, 43.603619 ], [ 3.906845, 43.603609 ], [ 3.906629, 43.603585 ], [ 3.906431, 43.603497 ], [ 3.906218, 43.603411 ], [ 3.905978, 43.603353 ], [ 3.905845, 43.60332 ], [ 3.905704, 43.603283 ], [ 3.905565, 43.603242 ], [ 3.905438, 43.603205 ], [ 3.905304, 43.603169 ], [ 3.905175, 43.603136 ], [ 3.905045, 43.603102 ], [ 3.90482, 43.603043 ], [ 3.904632, 43.602983 ], [ 3.904465, 43.602931 ], [ 3.904301, 43.602881 ], [ 3.904134, 43.602827 ], [ 3.903888, 43.602771 ], [ 3.903769, 43.602736 ], [ 3.903629, 43.602702 ], [ 3.90349, 43.602669 ], [ 3.903339, 43.602635 ], [ 3.903208, 43.602604 ], [ 3.90308, 43.602578 ], [ 3.902955, 43.602552 ], [ 3.902731, 43.602503 ], [ 3.902516, 43.602468 ], [ 3.902309, 43.602423 ], [ 3.90211, 43.602377 ], [ 3.90192, 43.602342 ], [ 3.901761, 43.602313 ], [ 3.901673, 43.602239 ], [ 3.901553, 43.602185 ], [ 3.90141, 43.602178 ], [ 3.90124, 43.602229 ], [ 3.901041, 43.602287 ], [ 3.900833, 43.602339 ], [ 3.900649, 43.602325 ], [ 3.900543, 43.602242 ], [ 3.900436, 43.602133 ], [ 3.900344, 43.601975 ], [ 3.900232, 43.601877 ], [ 3.900108, 43.601825 ], [ 3.899954, 43.601806 ], [ 3.899771, 43.601764 ], [ 3.899594, 43.601713 ], [ 3.899458, 43.601668 ], [ 3.899306, 43.601616 ], [ 3.899132, 43.601569 ], [ 3.898996, 43.601527 ], [ 3.898841, 43.601471 ], [ 3.898662, 43.601401 ], [ 3.898475, 43.601326 ], [ 3.898284, 43.601256 ], [ 3.898104, 43.601191 ], [ 3.897971, 43.601141 ], [ 3.897823, 43.601116 ], [ 3.897682, 43.601061 ], [ 3.897593, 43.600985 ], [ 3.897501, 43.600874 ], [ 3.897377, 43.600782 ], [ 3.897228, 43.600703 ], [ 3.897088, 43.600625 ], [ 3.896968, 43.600553 ], [ 3.896832, 43.600483 ], [ 3.896695, 43.600411 ], [ 3.896573, 43.600341 ], [ 3.896466, 43.600286 ], [ 3.896332, 43.600219 ], [ 3.896215, 43.600149 ], [ 3.896067, 43.600057 ], [ 3.895923, 43.599969 ], [ 3.895767, 43.599895 ], [ 3.895589, 43.599853 ], [ 3.895429, 43.59984 ], [ 3.895306, 43.599866 ], [ 3.895186, 43.599915 ], [ 3.895048, 43.599984 ], [ 3.894888, 43.6001 ], [ 3.894754, 43.600196 ], [ 3.894665, 43.600258 ], [ 3.894552, 43.600213 ], [ 3.894493, 43.600121 ], [ 3.894418, 43.600018 ], [ 3.894341, 43.599894 ], [ 3.894288, 43.599798 ], [ 3.894226, 43.599689 ], [ 3.894153, 43.599594 ], [ 3.894081, 43.599505 ], [ 3.893967, 43.599364 ], [ 3.893908, 43.599284 ], [ 3.893847, 43.599201 ], [ 3.893743, 43.599055 ], [ 3.893683, 43.598963 ], [ 3.893622, 43.598866 ], [ 3.893565, 43.598761 ], [ 3.893512, 43.598661 ], [ 3.893462, 43.598563 ], [ 3.89341, 43.598464 ], [ 3.893357, 43.598364 ], [ 3.893302, 43.598271 ], [ 3.893246, 43.598181 ], [ 3.89319, 43.598091 ], [ 3.893136, 43.598005 ], [ 3.893058, 43.597868 ], [ 3.893003, 43.597786 ], [ 3.892917, 43.597664 ], [ 3.892866, 43.597572 ], [ 3.892791, 43.597473 ], [ 3.892638, 43.59748 ], [ 3.892497, 43.597524 ], [ 3.892334, 43.597579 ], [ 3.892158, 43.59764 ], [ 3.892015, 43.597695 ], [ 3.891859, 43.597752 ], [ 3.891738, 43.597807 ], [ 3.891611, 43.597865 ], [ 3.891525, 43.597943 ], [ 3.89139, 43.59797 ], [ 3.8913, 43.598037 ], [ 3.891195, 43.598113 ], [ 3.891085, 43.598198 ], [ 3.890967, 43.598286 ], [ 3.890864, 43.598366 ], [ 3.890777, 43.598431 ], [ 3.890672, 43.59849 ], [ 3.890571, 43.598546 ], [ 3.890667, 43.598474 ], [ 3.890753, 43.598404 ], [ 3.890843, 43.598322 ], [ 3.890942, 43.598248 ], [ 3.890826, 43.59828 ], [ 3.8907, 43.598294 ], [ 3.890636, 43.598384 ], [ 3.890545, 43.59845 ], [ 3.890437, 43.59853 ], [ 3.890323, 43.598601 ], [ 3.890203, 43.598687 ], [ 3.890068, 43.598764 ], [ 3.889943, 43.598837 ], [ 3.889828, 43.598908 ], [ 3.889674, 43.599002 ], [ 3.889493, 43.599106 ], [ 3.889304, 43.599215 ], [ 3.889205, 43.599274 ], [ 3.88911, 43.599336 ], [ 3.889015, 43.599398 ], [ 3.888923, 43.599462 ], [ 3.88883, 43.599525 ], [ 3.888734, 43.599583 ], [ 3.888546, 43.599696 ], [ 3.88836, 43.599802 ], [ 3.888174, 43.599899 ], [ 3.88797, 43.599989 ], [ 3.887755, 43.600073 ], [ 3.887537, 43.600147 ], [ 3.887352, 43.600219 ], [ 3.887161, 43.600311 ], [ 3.887056, 43.600365 ], [ 3.886961, 43.600425 ], [ 3.886861, 43.600493 ], [ 3.886749, 43.600561 ], [ 3.886627, 43.600634 ], [ 3.886508, 43.600699 ], [ 3.886389, 43.600762 ], [ 3.886274, 43.600822 ], [ 3.886165, 43.600879 ], [ 3.886064, 43.600932 ], [ 3.885871, 43.601026 ], [ 3.885676, 43.601052 ], [ 3.885497, 43.60106 ], [ 3.88531, 43.601056 ], [ 3.885149, 43.601058 ], [ 3.88501, 43.601061 ], [ 3.884881, 43.601087 ], [ 3.884852, 43.601174 ], [ 3.884832, 43.601307 ], [ 3.884821, 43.601402 ], [ 3.884815, 43.601506 ], [ 3.884794, 43.601622 ], [ 3.88479, 43.601799 ], [ 3.88492, 43.601864 ], [ 3.885041, 43.601891 ], [ 3.88518, 43.601953 ], [ 3.885319, 43.602028 ], [ 3.885463, 43.602074 ], [ 3.885643, 43.602172 ], [ 3.8858, 43.602279 ], [ 3.885966, 43.602388 ], [ 3.886145, 43.602476 ], [ 3.886338, 43.602534 ], [ 3.886496, 43.602562 ], [ 3.886629, 43.602605 ], [ 3.886739, 43.602652 ], [ 3.88687, 43.602714 ], [ 3.886998, 43.602781 ], [ 3.887122, 43.602775 ], [ 3.887212, 43.602705 ], [ 3.887315, 43.602632 ], [ 3.887398, 43.602548 ], [ 3.887492, 43.602485 ], [ 3.887372, 43.602564 ], [ 3.887271, 43.602651 ], [ 3.887189, 43.602719 ], [ 3.887121, 43.602805 ], [ 3.887125, 43.602911 ], [ 3.887234, 43.602958 ], [ 3.887377, 43.603013 ], [ 3.88753, 43.603089 ], [ 3.887654, 43.603157 ], [ 3.887793, 43.603222 ], [ 3.887943, 43.60328 ], [ 3.888135, 43.603357 ], [ 3.88828, 43.603403 ], [ 3.888476, 43.603459 ], [ 3.888697, 43.603514 ], [ 3.888907, 43.603519 ], [ 3.889171, 43.603523 ], [ 3.889485, 43.603543 ], [ 3.889654, 43.603563 ], [ 3.889796, 43.603579 ], [ 3.889941, 43.603586 ], [ 3.890099, 43.60358 ], [ 3.890255, 43.603599 ], [ 3.890378, 43.603579 ], [ 3.890532, 43.603564 ], [ 3.890661, 43.60357 ], [ 3.890804, 43.603585 ], [ 3.890954, 43.603613 ], [ 3.891116, 43.603635 ], [ 3.891274, 43.603636 ], [ 3.891407, 43.603654 ], [ 3.891539, 43.603662 ], [ 3.891696, 43.603665 ], [ 3.891862, 43.603678 ], [ 3.892032, 43.603692 ], [ 3.892164, 43.603705 ], [ 3.892379, 43.603707 ], [ 3.892544, 43.60375 ], [ 3.892518, 43.603857 ], [ 3.892352, 43.603915 ], [ 3.892119, 43.60388 ], [ 3.891912, 43.603849 ], [ 3.891707, 43.603825 ], [ 3.891498, 43.603798 ], [ 3.891291, 43.603775 ], [ 3.89109, 43.603758 ], [ 3.890902, 43.603746 ], [ 3.890753, 43.603737 ], [ 3.890622, 43.603729 ], [ 3.890497, 43.603725 ], [ 3.890487, 43.603577 ], [ 3.890625, 43.60344 ], [ 3.890701, 43.603361 ], [ 3.890773, 43.603279 ], [ 3.890844, 43.603192 ], [ 3.890918, 43.603105 ], [ 3.890996, 43.603015 ], [ 3.891088, 43.602915 ], [ 3.891179, 43.602814 ], [ 3.891271, 43.602714 ], [ 3.891358, 43.602614 ], [ 3.891443, 43.60251 ], [ 3.891523, 43.602403 ], [ 3.891603, 43.602298 ], [ 3.891675, 43.602192 ], [ 3.891708, 43.602074 ], [ 3.891737, 43.601954 ], [ 3.891749, 43.601836 ], [ 3.891759, 43.601722 ], [ 3.891757, 43.601605 ], [ 3.89175, 43.601487 ], [ 3.891742, 43.601368 ], [ 3.891733, 43.60125 ], [ 3.891726, 43.601134 ], [ 3.891716, 43.601013 ], [ 3.891698, 43.600883 ], [ 3.891668, 43.60075 ], [ 3.891629, 43.60062 ], [ 3.891582, 43.600492 ], [ 3.891527, 43.600365 ], [ 3.89147, 43.600242 ], [ 3.891406, 43.600128 ], [ 3.891344, 43.600018 ], [ 3.891284, 43.599913 ], [ 3.891174, 43.599758 ], [ 3.89112, 43.599671 ], [ 3.891087, 43.599567 ], [ 3.891127, 43.599468 ], [ 3.891238, 43.599418 ], [ 3.891407, 43.599421 ], [ 3.891613, 43.599432 ], [ 3.891868, 43.599457 ], [ 3.892122, 43.59947 ], [ 3.892261, 43.599469 ], [ 3.892402, 43.599466 ], [ 3.892547, 43.599467 ], [ 3.892677, 43.599463 ], [ 3.892815, 43.599455 ], [ 3.892946, 43.599444 ], [ 3.893169, 43.599404 ], [ 3.893362, 43.599328 ], [ 3.893514, 43.599278 ], [ 3.893635, 43.599245 ], [ 3.893781, 43.599171 ], [ 3.893805, 43.599047 ], [ 3.893749, 43.598941 ], [ 3.893657, 43.598801 ], [ 3.893597, 43.598712 ], [ 3.893532, 43.598613 ], [ 3.893455, 43.598502 ], [ 3.893385, 43.598384 ], [ 3.893318, 43.598266 ], [ 3.893249, 43.598145 ], [ 3.893177, 43.59802 ], [ 3.893112, 43.597905 ], [ 3.893056, 43.597801 ], [ 3.893, 43.597704 ], [ 3.89295, 43.597616 ], [ 3.892895, 43.597515 ], [ 3.892816, 43.597416 ], [ 3.892637, 43.597459 ], [ 3.892471, 43.597509 ], [ 3.892346, 43.59754 ], [ 3.892206, 43.597551 ], [ 3.892329, 43.597532 ], [ 3.892633, 43.597447 ], [ 3.892515, 43.597529 ], [ 3.892356, 43.597555 ], [ 3.892279, 43.597626 ], [ 3.892193, 43.597708 ], [ 3.892056, 43.59774 ], [ 3.892189, 43.597808 ], [ 3.892248, 43.597895 ], [ 3.892263, 43.598016 ], [ 3.892402, 43.598026 ], [ 3.892282, 43.597984 ], [ 3.892225, 43.597899 ], [ 3.892183, 43.597809 ], [ 3.89212, 43.597722 ], [ 3.891994, 43.597713 ], [ 3.891834, 43.597764 ], [ 3.891732, 43.597821 ], [ 3.891631, 43.597878 ], [ 3.891527, 43.597936 ], [ 3.891438, 43.598002 ], [ 3.891291, 43.598026 ], [ 3.89117, 43.598058 ], [ 3.891295, 43.598022 ], [ 3.891378, 43.597943 ], [ 3.891502, 43.597954 ], [ 3.891561, 43.598051 ], [ 3.891613, 43.598133 ], [ 3.891685, 43.598215 ], [ 3.891731, 43.598302 ], [ 3.891824, 43.598375 ], [ 3.89191, 43.598451 ], [ 3.891964, 43.598538 ], [ 3.892006, 43.598633 ], [ 3.892057, 43.598719 ], [ 3.891983, 43.598638 ], [ 3.891943, 43.598542 ], [ 3.89189, 43.598455 ], [ 3.891811, 43.598385 ], [ 3.89175, 43.598302 ], [ 3.891715, 43.598193 ], [ 3.891664, 43.598108 ], [ 3.891586, 43.59803 ], [ 3.891457, 43.598026 ], [ 3.891361, 43.598088 ], [ 3.891287, 43.598164 ], [ 3.891372, 43.59823 ], [ 3.89144, 43.598312 ], [ 3.891513, 43.598393 ], [ 3.891557, 43.598484 ], [ 3.89159, 43.598579 ], [ 3.891524, 43.598658 ], [ 3.891452, 43.598581 ], [ 3.891436, 43.598483 ], [ 3.891418, 43.598394 ], [ 3.891367, 43.598297 ], [ 3.891329, 43.598207 ], [ 3.891411, 43.598283 ], [ 3.891474, 43.598361 ], [ 3.891543, 43.598442 ], [ 3.891608, 43.598528 ], [ 3.891657, 43.59862 ], [ 3.891678, 43.59871 ], [ 3.891742, 43.59879 ], [ 3.891782, 43.598877 ], [ 3.891916, 43.598857 ], [ 3.891984, 43.598942 ], [ 3.892019, 43.59904 ], [ 3.892029, 43.599134 ], [ 3.891947, 43.599042 ], [ 3.891882, 43.598954 ], [ 3.891825, 43.598861 ], [ 3.891726, 43.598795 ], [ 3.891672, 43.598712 ], [ 3.891606, 43.59863 ], [ 3.891539, 43.598551 ], [ 3.891487, 43.598456 ], [ 3.891428, 43.598366 ], [ 3.891365, 43.598276 ], [ 3.891298, 43.598191 ], [ 3.891166, 43.598207 ], [ 3.891059, 43.59826 ], [ 3.89093, 43.598296 ], [ 3.890819, 43.598356 ], [ 3.890724, 43.598438 ], [ 3.890632, 43.598501 ], [ 3.890552, 43.598586 ], [ 3.890461, 43.59865 ], [ 3.890371, 43.598712 ], [ 3.890258, 43.598751 ], [ 3.890163, 43.59882 ], [ 3.890054, 43.598868 ], [ 3.88993, 43.59886 ], [ 3.889796, 43.598928 ], [ 3.889698, 43.598992 ], [ 3.889582, 43.599063 ], [ 3.889449, 43.599139 ], [ 3.889318, 43.599213 ], [ 3.889192, 43.599288 ], [ 3.889077, 43.599359 ], [ 3.888935, 43.599331 ], [ 3.888835, 43.599265 ], [ 3.888721, 43.599202 ], [ 3.888602, 43.599112 ], [ 3.888492, 43.599025 ], [ 3.888411, 43.598948 ], [ 3.888322, 43.598875 ], [ 3.888222, 43.598795 ], [ 3.88813, 43.598708 ], [ 3.888033, 43.598605 ], [ 3.887957, 43.59853 ], [ 3.887861, 43.598457 ], [ 3.887719, 43.598398 ], [ 3.887597, 43.59838 ], [ 3.887455, 43.598424 ], [ 3.887363, 43.59849 ], [ 3.887248, 43.598556 ], [ 3.887143, 43.59861 ], [ 3.887026, 43.598678 ], [ 3.886909, 43.59873 ], [ 3.886805, 43.598781 ], [ 3.886694, 43.598826 ], [ 3.886557, 43.59885 ], [ 3.886639, 43.598767 ], [ 3.8868, 43.598711 ], [ 3.88692, 43.598687 ], [ 3.887044, 43.598653 ], [ 3.88716, 43.598583 ], [ 3.887284, 43.598521 ], [ 3.887423, 43.598464 ], [ 3.887535, 43.598404 ], [ 3.887655, 43.598381 ], [ 3.887782, 43.598432 ], [ 3.887909, 43.598494 ], [ 3.888004, 43.598574 ], [ 3.88812, 43.598666 ], [ 3.888219, 43.598723 ], [ 3.888126, 43.598661 ], [ 3.888243, 43.598607 ], [ 3.888309, 43.598522 ], [ 3.8883, 43.598429 ], [ 3.888217, 43.598354 ], [ 3.888277, 43.598443 ], [ 3.888357, 43.598521 ], [ 3.888247, 43.598608 ], [ 3.88821, 43.5987 ], [ 3.88816, 43.598783 ], [ 3.888306, 43.598827 ], [ 3.88841, 43.598921 ], [ 3.888499, 43.599014 ], [ 3.888589, 43.599085 ], [ 3.888688, 43.599146 ], [ 3.888793, 43.599229 ], [ 3.888883, 43.599306 ], [ 3.88893, 43.59939 ], [ 3.888831, 43.59948 ], [ 3.888712, 43.599548 ], [ 3.88861, 43.599612 ], [ 3.888482, 43.599679 ], [ 3.888362, 43.599741 ], [ 3.888421, 43.599824 ], [ 3.888542, 43.599886 ], [ 3.888666, 43.599861 ], [ 3.888804, 43.5998 ], [ 3.888935, 43.599729 ], [ 3.88908, 43.599646 ], [ 3.889228, 43.599572 ], [ 3.889342, 43.599517 ], [ 3.889453, 43.599591 ], [ 3.889533, 43.599677 ], [ 3.889585, 43.599762 ], [ 3.889655, 43.599844 ], [ 3.889723, 43.599924 ], [ 3.889786, 43.600019 ], [ 3.889848, 43.600108 ], [ 3.889897, 43.600191 ], [ 3.889785, 43.600274 ], [ 3.889655, 43.600339 ], [ 3.88953, 43.600346 ], [ 3.889435, 43.600255 ], [ 3.889345, 43.600154 ], [ 3.889271, 43.600064 ], [ 3.889187, 43.59997 ], [ 3.889116, 43.59989 ], [ 3.889028, 43.599813 ], [ 3.88889, 43.59984 ], [ 3.888749, 43.599878 ], [ 3.8886, 43.599914 ], [ 3.888643, 43.600019 ], [ 3.888745, 43.600093 ], [ 3.888685, 43.600193 ], [ 3.888572, 43.600241 ], [ 3.888452, 43.600188 ], [ 3.888346, 43.600119 ], [ 3.888238, 43.600041 ], [ 3.888133, 43.599971 ], [ 3.88802, 43.59991 ], [ 3.887883, 43.599972 ], [ 3.887735, 43.600017 ], [ 3.887584, 43.60007 ], [ 3.88744, 43.600117 ], [ 3.887315, 43.600178 ], [ 3.887427, 43.600137 ], [ 3.887329, 43.600197 ], [ 3.88723, 43.600267 ], [ 3.887118, 43.600336 ], [ 3.887229, 43.600385 ], [ 3.887362, 43.600394 ], [ 3.887398, 43.600487 ], [ 3.887484, 43.600421 ], [ 3.887566, 43.600494 ], [ 3.887637, 43.600572 ], [ 3.887754, 43.60061 ], [ 3.887882, 43.600595 ], [ 3.887947, 43.600509 ], [ 3.887958, 43.600415 ], [ 3.887855, 43.600356 ], [ 3.887784, 43.600433 ], [ 3.887804, 43.600319 ], [ 3.887843, 43.600424 ], [ 3.887767, 43.600334 ], [ 3.887621, 43.60034 ], [ 3.887586, 43.600445 ], [ 3.887598, 43.60035 ], [ 3.887484, 43.600313 ], [ 3.887386, 43.600249 ], [ 3.887273, 43.600208 ], [ 3.887397, 43.600217 ], [ 3.886614, 43.600765 ], [ 3.887058, 43.600368 ], [ 3.886902, 43.600266 ], [ 3.88688, 43.600083 ], [ 3.886855, 43.599974 ], [ 3.886719, 43.599983 ], [ 3.886825, 43.59993 ], [ 3.886865, 43.599792 ], [ 3.886814, 43.599708 ], [ 3.886742, 43.599594 ], [ 3.886642, 43.599515 ], [ 3.886563, 43.59959 ], [ 3.886596, 43.599679 ], [ 3.886532, 43.599763 ], [ 3.886447, 43.599839 ], [ 3.886442, 43.599947 ], [ 3.886446, 43.600038 ], [ 3.886838, 43.599916 ], [ 3.886737, 43.600051 ], [ 3.886407, 43.600265 ], [ 3.886235, 43.600296 ], [ 3.886151, 43.600396 ], [ 3.886061, 43.600475 ], [ 3.886042, 43.600569 ], [ 3.886267, 43.600069 ], [ 3.88636, 43.600131 ], [ 3.88653, 43.600103 ], [ 3.886634, 43.600054 ], [ 3.886548, 43.599987 ], [ 3.886609, 43.599904 ], [ 3.886737, 43.599927 ], [ 3.886854, 43.599966 ], [ 3.886941, 43.600034 ], [ 3.887024, 43.600103 ], [ 3.887116, 43.600191 ], [ 3.887163, 43.600285 ], [ 3.887052, 43.600376 ], [ 3.886904, 43.600427 ], [ 3.88676, 43.600476 ], [ 3.88664, 43.600501 ], [ 3.88652, 43.600526 ], [ 3.886358, 43.600583 ], [ 3.886208, 43.600649 ], [ 3.886127, 43.600732 ], [ 3.886045, 43.600799 ], [ 3.885978, 43.600887 ], [ 3.885912, 43.601 ], [ 3.885814, 43.601057 ], [ 3.885921, 43.601103 ], [ 3.885988, 43.601203 ], [ 3.886073, 43.60127 ], [ 3.886155, 43.601342 ], [ 3.886186, 43.601431 ], [ 3.886303, 43.601484 ], [ 3.886407, 43.601553 ], [ 3.88651, 43.601643 ], [ 3.886618, 43.601689 ], [ 3.886748, 43.601616 ], [ 3.886763, 43.601518 ], [ 3.886789, 43.601429 ], [ 3.88688, 43.601499 ], [ 3.886964, 43.601406 ], [ 3.887108, 43.601425 ], [ 3.887024, 43.601521 ], [ 3.887064, 43.601729 ], [ 3.887085, 43.601636 ], [ 3.887138, 43.601547 ], [ 3.887241, 43.601497 ], [ 3.887347, 43.601431 ], [ 3.887491, 43.601405 ], [ 3.887618, 43.601422 ], [ 3.887713, 43.601496 ], [ 3.887787, 43.601572 ], [ 3.887792, 43.601664 ], [ 3.887696, 43.601752 ], [ 3.887611, 43.601818 ], [ 3.887507, 43.601892 ], [ 3.887379, 43.601876 ], [ 3.887317, 43.60179 ], [ 3.887346, 43.601698 ], [ 3.886714, 43.601469 ], [ 3.886657, 43.601367 ], [ 3.886523, 43.60132 ], [ 3.886409, 43.601264 ], [ 3.886331, 43.60119 ], [ 3.886175, 43.601043 ], [ 3.885727, 43.600966 ], [ 3.885685, 43.601061 ], [ 3.885626, 43.601208 ], [ 3.885508, 43.601235 ], [ 3.885419, 43.601304 ], [ 3.885309, 43.601352 ], [ 3.88522, 43.601434 ], [ 3.885142, 43.601543 ], [ 3.885118, 43.601632 ], [ 3.885142, 43.601725 ], [ 3.885146, 43.601827 ], [ 3.885276, 43.601829 ], [ 3.885375, 43.601885 ], [ 3.88547, 43.601955 ], [ 3.885562, 43.602019 ], [ 3.885681, 43.60206 ], [ 3.885803, 43.602024 ], [ 3.885907, 43.601974 ], [ 3.886031, 43.601989 ], [ 3.88611, 43.601908 ], [ 3.886209, 43.601846 ], [ 3.88616, 43.601758 ], [ 3.886083, 43.601673 ], [ 3.885992, 43.601592 ], [ 3.886479, 43.60123 ], [ 3.886331, 43.601246 ], [ 3.886151, 43.601283 ], [ 3.886005, 43.60131 ], [ 3.885883, 43.601272 ], [ 3.88578, 43.601323 ], [ 3.885797, 43.601424 ], [ 3.885764, 43.601517 ], [ 3.885753, 43.601618 ], [ 3.885724, 43.601528 ], [ 3.885575, 43.601555 ], [ 3.885463, 43.601512 ], [ 3.88533, 43.60149 ], [ 3.885303, 43.6014 ], [ 3.885248, 43.601493 ], [ 3.885187, 43.601575 ], [ 3.885191, 43.601676 ], [ 3.885327, 43.601627 ], [ 3.885413, 43.601693 ], [ 3.885526, 43.601762 ], [ 3.885628, 43.601818 ], [ 3.885738, 43.601864 ], [ 3.885822, 43.601931 ], [ 3.885954, 43.601982 ], [ 3.886014, 43.602113 ], [ 3.886136, 43.602195 ], [ 3.886321, 43.602211 ], [ 3.886513, 43.602232 ], [ 3.886659, 43.602289 ], [ 3.886794, 43.602368 ], [ 3.886998, 43.602468 ], [ 3.887103, 43.602523 ], [ 3.887282, 43.602632 ], [ 3.887454, 43.602723 ], [ 3.887641, 43.602807 ], [ 3.887822, 43.602893 ], [ 3.887991, 43.602989 ], [ 3.888129, 43.603083 ], [ 3.888162, 43.603226 ], [ 3.888224, 43.603343 ], [ 3.888364, 43.603429 ], [ 3.888516, 43.603502 ], [ 3.888671, 43.603567 ], [ 3.888821, 43.603618 ], [ 3.888976, 43.603657 ], [ 3.889136, 43.60368 ], [ 3.889308, 43.60368 ], [ 3.889473, 43.603673 ], [ 3.889652, 43.603641 ], [ 3.889774, 43.603596 ], [ 3.889934, 43.603566 ], [ 3.890094, 43.603543 ], [ 3.890186, 43.603655 ], [ 3.890136, 43.603756 ], [ 3.88998, 43.603812 ], [ 3.88979, 43.603756 ], [ 3.889573, 43.603707 ], [ 3.889343, 43.603687 ], [ 3.889219, 43.603673 ], [ 3.888998, 43.603651 ], [ 3.888795, 43.603631 ], [ 3.888619, 43.603602 ], [ 3.888474, 43.60357 ], [ 3.888255, 43.603521 ], [ 3.888115, 43.603501 ], [ 3.887917, 43.60348 ], [ 3.887685, 43.60346 ], [ 3.887441, 43.603444 ], [ 3.887309, 43.603437 ], [ 3.887172, 43.603429 ], [ 3.887038, 43.60342 ], [ 3.886903, 43.60341 ], [ 3.886758, 43.603399 ], [ 3.886611, 43.603389 ], [ 3.886464, 43.603378 ], [ 3.886316, 43.603368 ], [ 3.886169, 43.603363 ], [ 3.886027, 43.603358 ], [ 3.885885, 43.603353 ], [ 3.885754, 43.603343 ], [ 3.885626, 43.603332 ], [ 3.885493, 43.603323 ], [ 3.885256, 43.603309 ], [ 3.885041, 43.603297 ], [ 3.884907, 43.603296 ], [ 3.884782, 43.603302 ], [ 3.884625, 43.60329 ], [ 3.884443, 43.603284 ], [ 3.884296, 43.603283 ], [ 3.884147, 43.603273 ], [ 3.883967, 43.603252 ], [ 3.883777, 43.60323 ], [ 3.883586, 43.603204 ], [ 3.883434, 43.60319 ], [ 3.883301, 43.603184 ], [ 3.883163, 43.603177 ], [ 3.882997, 43.603161 ], [ 3.882846, 43.603176 ], [ 3.882716, 43.603158 ], [ 3.882587, 43.603062 ], [ 3.882527, 43.602974 ], [ 3.882457, 43.602867 ], [ 3.88239, 43.602763 ], [ 3.882362, 43.602621 ], [ 3.882353, 43.6025 ], [ 3.882364, 43.602368 ], [ 3.882381, 43.602243 ], [ 3.882383, 43.602134 ], [ 3.882601, 43.601951 ], [ 3.882757, 43.601776 ], [ 3.882894, 43.601697 ], [ 3.883033, 43.601657 ], [ 3.883187, 43.601612 ], [ 3.883445, 43.601557 ], [ 3.883668, 43.601543 ], [ 3.883891, 43.601509 ], [ 3.884095, 43.601442 ], [ 3.88427, 43.601379 ], [ 3.884422, 43.601289 ], [ 3.884536, 43.601171 ], [ 3.884612, 43.601058 ], [ 3.884673, 43.600927 ], [ 3.884671, 43.600794 ], [ 3.884667, 43.600653 ], [ 3.884666, 43.600544 ], [ 3.884656, 43.600428 ], [ 3.884659, 43.600295 ], [ 3.88468, 43.600149 ], [ 3.884713, 43.600016 ], [ 3.88477, 43.599898 ], [ 3.884836, 43.599768 ], [ 3.884915, 43.599611 ], [ 3.884961, 43.599527 ], [ 3.885039, 43.599377 ], [ 3.885117, 43.599242 ], [ 3.885203, 43.599117 ], [ 3.885255, 43.599029 ], [ 3.885222, 43.599219 ], [ 3.885164, 43.599339 ], [ 3.885098, 43.599477 ], [ 3.885036, 43.599619 ], [ 3.884958, 43.599773 ], [ 3.884888, 43.599924 ], [ 3.884834, 43.600086 ], [ 3.884816, 43.60025 ], [ 3.884808, 43.600349 ], [ 3.884803, 43.600444 ], [ 3.884791, 43.600605 ], [ 3.884789, 43.600734 ], [ 3.884785, 43.600825 ], [ 3.884797, 43.600926 ], [ 3.884987, 43.601081 ], [ 3.88512, 43.601061 ], [ 3.88529, 43.601071 ], [ 3.885008, 43.601054 ], [ 3.884686, 43.601024 ], [ 3.885017, 43.601113 ], [ 3.885177, 43.601148 ], [ 3.885254, 43.601065 ], [ 3.885366, 43.601105 ], [ 3.885463, 43.601043 ], [ 3.885316, 43.60104 ], [ 3.885313, 43.601137 ], [ 3.885479, 43.601121 ], [ 3.885336, 43.601095 ], [ 3.885464, 43.601036 ], [ 3.885598, 43.601038 ], [ 3.885745, 43.60104 ], [ 3.885887, 43.601023 ], [ 3.886001, 43.600973 ], [ 3.886116, 43.600907 ], [ 3.886217, 43.60085 ], [ 3.886323, 43.600784 ], [ 3.886413, 43.600712 ], [ 3.886514, 43.600658 ], [ 3.886601, 43.600586 ], [ 3.886721, 43.600524 ], [ 3.886852, 43.600453 ], [ 3.886994, 43.600383 ], [ 3.887138, 43.600304 ], [ 3.887293, 43.600227 ], [ 3.887392, 43.600172 ], [ 3.887499, 43.600118 ], [ 3.887649, 43.600061 ], [ 3.88782, 43.599992 ], [ 3.887994, 43.599921 ], [ 3.888182, 43.599851 ], [ 3.888369, 43.599761 ], [ 3.888549, 43.599656 ], [ 3.888715, 43.599563 ], [ 3.888877, 43.59948 ], [ 3.889031, 43.599393 ], [ 3.889163, 43.599304 ], [ 3.889263, 43.599242 ], [ 3.889359, 43.599174 ], [ 3.889566, 43.599087 ], [ 3.889699, 43.599026 ], [ 3.889863, 43.598975 ], [ 3.890011, 43.598903 ], [ 3.890116, 43.598839 ], [ 3.890213, 43.598765 ], [ 3.890374, 43.598683 ], [ 3.890472, 43.598622 ], [ 3.890587, 43.59855 ], [ 3.890707, 43.598474 ], [ 3.890815, 43.598391 ], [ 3.890924, 43.598306 ], [ 3.891026, 43.598216 ], [ 3.891133, 43.598132 ], [ 3.89123, 43.598065 ], [ 3.891313, 43.59798 ], [ 3.891347, 43.597893 ], [ 3.891616, 43.597612 ], [ 3.891504, 43.59765 ], [ 3.891478, 43.597742 ], [ 3.891414, 43.597823 ], [ 3.89139, 43.597912 ], [ 3.89146, 43.597994 ], [ 3.891629, 43.598013 ], [ 3.891923, 43.598043 ], [ 3.892041, 43.598003 ], [ 3.892133, 43.597938 ], [ 3.892873, 43.596919 ], [ 3.892898, 43.596785 ], [ 3.892893, 43.59666 ], [ 3.892857, 43.596542 ], [ 3.892814, 43.596313 ], [ 3.892751, 43.596151 ], [ 3.892699, 43.596059 ], [ 3.892636, 43.595966 ], [ 3.892611, 43.595867 ], [ 3.892215, 43.595668 ], [ 3.892098, 43.595537 ], [ 3.892009, 43.595447 ], [ 3.891937, 43.595302 ], [ 3.891885, 43.595171 ], [ 3.891795, 43.595051 ], [ 3.89171, 43.594922 ], [ 3.891619, 43.594799 ], [ 3.891511, 43.594672 ], [ 3.891398, 43.594528 ], [ 3.891287, 43.59439 ], [ 3.889694, 43.59313 ], [ 3.889842, 43.592655 ], [ 3.890194, 43.59286 ], [ 3.890055, 43.592816 ], [ 3.890014, 43.592614 ], [ 3.889946, 43.592516 ], [ 3.889963, 43.592389 ], [ 3.890025, 43.592182 ], [ 3.890032, 43.59189 ], [ 3.889785, 43.591771 ], [ 3.889909, 43.591719 ], [ 3.890015, 43.591629 ], [ 3.890114, 43.591508 ], [ 3.890221, 43.591453 ], [ 3.890357, 43.591456 ], [ 3.890487, 43.59143 ], [ 3.890365, 43.591377 ], [ 3.890472, 43.591299 ], [ 3.890535, 43.59122 ], [ 3.890648, 43.591131 ], [ 3.890765, 43.591084 ], [ 3.890355, 43.591147 ], [ 3.889731, 43.590968 ], [ 3.889618, 43.590924 ], [ 3.889656, 43.590838 ], [ 3.889713, 43.590934 ], [ 3.889744, 43.59104 ], [ 3.889737, 43.591162 ], [ 3.889689, 43.591283 ], [ 3.889678, 43.59139 ], [ 3.889655, 43.591495 ], [ 3.889808, 43.591441 ], [ 3.889978, 43.59136 ], [ 3.890117, 43.591197 ], [ 3.890202, 43.591079 ], [ 3.890259, 43.590995 ], [ 3.890304, 43.590884 ], [ 3.890304, 43.590778 ], [ 3.890322, 43.590668 ], [ 3.890361, 43.59057 ], [ 3.890383, 43.590461 ], [ 3.890378, 43.590358 ], [ 3.890421, 43.590156 ], [ 3.890505, 43.589896 ], [ 3.890459, 43.589805 ], [ 3.890233, 43.589809 ], [ 3.890096, 43.58982 ], [ 3.889758, 43.589795 ], [ 3.889593, 43.589759 ], [ 3.889215, 43.589681 ], [ 3.889026, 43.589647 ], [ 3.888662, 43.589607 ], [ 3.888357, 43.58958 ], [ 3.88823, 43.589561 ], [ 3.888102, 43.589533 ], [ 3.887975, 43.589511 ], [ 3.887846, 43.589489 ], [ 3.887716, 43.589471 ], [ 3.887591, 43.589459 ], [ 3.885656, 43.590213 ], [ 3.885609, 43.59011 ], [ 3.885533, 43.590003 ], [ 3.88546, 43.589915 ], [ 3.885391, 43.589833 ], [ 3.885322, 43.589756 ], [ 3.885258, 43.589677 ], [ 3.885192, 43.589599 ], [ 3.885129, 43.589518 ], [ 3.885056, 43.589428 ], [ 3.884995, 43.589338 ], [ 3.884936, 43.589246 ], [ 3.884871, 43.589155 ], [ 3.884814, 43.589053 ], [ 3.884744, 43.588942 ], [ 3.884661, 43.588844 ], [ 3.884577, 43.588746 ], [ 3.884504, 43.588653 ], [ 3.88444, 43.588565 ], [ 3.884387, 43.588482 ], [ 3.884285, 43.588323 ], [ 3.884237, 43.588235 ], [ 3.884187, 43.588149 ], [ 3.884087, 43.587995 ], [ 3.883991, 43.587854 ], [ 3.883884, 43.587683 ], [ 3.883834, 43.587591 ], [ 3.883781, 43.587507 ], [ 3.883719, 43.587427 ], [ 3.883648, 43.587343 ], [ 3.883581, 43.587262 ], [ 3.883516, 43.58718 ], [ 3.883442, 43.587095 ], [ 3.883369, 43.58701 ], [ 3.883299, 43.586925 ], [ 3.883228, 43.586833 ], [ 3.883157, 43.586743 ], [ 3.883089, 43.586659 ], [ 3.883024, 43.586571 ], [ 3.88296, 43.586485 ], [ 3.8829, 43.586396 ], [ 3.882845, 43.586301 ], [ 3.882794, 43.586205 ], [ 3.882743, 43.586109 ], [ 3.882683, 43.586017 ], [ 3.882631, 43.585923 ], [ 3.882535, 43.585772 ], [ 3.882455, 43.58565 ], [ 3.882321, 43.585536 ], [ 3.882199, 43.585395 ], [ 3.882128, 43.585293 ], [ 3.882051, 43.585171 ], [ 3.881993, 43.585091 ], [ 3.881885, 43.584938 ], [ 3.881827, 43.584853 ], [ 3.881744, 43.584747 ], [ 3.881775, 43.584645 ], [ 3.881891, 43.584569 ], [ 3.882012, 43.584549 ], [ 3.882124, 43.584479 ], [ 3.882248, 43.584343 ], [ 3.882254, 43.584461 ], [ 3.882146, 43.584537 ] ] ] } }
]
}
