{
"type": "FeatureCollection",
"name": "26 févr 2020 09:43:15",
"crs": { "type": "name", "properties": { "name": "urn:ogc:def:crs:OGC:1.3:CRS84" } },
"features": [
{ "type": "Feature", "properties": { "Name": "26 févr 2020 09:43:15", "description": "", "begin": "2020\/02\/26 08:43:16.061+00", "end": "2020\/02\/26 15:07:37.870+00" }, "geometry": { "type": "MultiLineString", "coordinates": [ [ [ 3.881746, 43.627857 ], [ 3.881666, 43.627945 ], [ 3.881643, 43.628058 ], [ 3.881652, 43.628153 ], [ 3.881591, 43.628268 ], [ 3.881543, 43.628357 ], [ 3.881412, 43.628445 ], [ 3.881324, 43.628543 ], [ 3.881234, 43.628625 ], [ 3.881112, 43.628742 ], [ 3.881013, 43.628805 ], [ 3.880908, 43.628876 ], [ 3.880795, 43.628951 ], [ 3.880826, 43.629066 ], [ 3.880906, 43.629159 ], [ 3.881013, 43.62926 ], [ 3.881114, 43.629355 ], [ 3.881209, 43.629452 ], [ 3.881282, 43.629553 ], [ 3.881277, 43.629652 ], [ 3.881228, 43.629552 ], [ 3.881131, 43.629446 ], [ 3.881017, 43.62936 ], [ 3.880916, 43.629277 ], [ 3.880849, 43.629179 ], [ 3.880768, 43.6291 ], [ 3.880626, 43.629081 ], [ 3.880512, 43.629146 ], [ 3.880405, 43.629207 ], [ 3.880271, 43.629284 ], [ 3.880231, 43.629372 ], [ 3.880327, 43.629452 ], [ 3.880395, 43.629547 ], [ 3.880517, 43.629623 ], [ 3.880592, 43.6297 ], [ 3.880706, 43.62977 ], [ 3.880776, 43.629857 ], [ 3.880706, 43.629943 ], [ 3.880573, 43.629973 ], [ 3.880463, 43.630025 ], [ 3.880353, 43.630067 ], [ 3.880234, 43.630007 ], [ 3.880103, 43.629957 ], [ 3.879993, 43.629912 ], [ 3.879859, 43.629875 ], [ 3.879992, 43.629877 ], [ 3.880111, 43.629924 ], [ 3.880247, 43.629879 ], [ 3.880338, 43.629801 ], [ 3.880435, 43.629737 ], [ 3.880449, 43.629641 ], [ 3.880314, 43.629533 ], [ 3.880222, 43.629462 ], [ 3.880106, 43.629423 ], [ 3.880011, 43.629522 ], [ 3.879913, 43.629601 ], [ 3.879821, 43.629685 ], [ 3.879726, 43.62975 ], [ 3.879598, 43.629845 ], [ 3.879507, 43.629922 ], [ 3.879484, 43.630019 ], [ 3.879502, 43.630113 ], [ 3.879545, 43.630201 ], [ 3.879591, 43.630295 ], [ 3.879634, 43.630414 ], [ 3.879726, 43.630497 ], [ 3.879877, 43.630473 ], [ 3.88002, 43.63047 ], [ 3.880146, 43.630468 ], [ 3.879996, 43.630498 ], [ 3.879768, 43.630571 ], [ 3.879638, 43.630494 ], [ 3.879593, 43.630403 ], [ 3.879532, 43.630299 ], [ 3.879475, 43.630213 ], [ 3.879381, 43.630149 ], [ 3.879244, 43.630241 ], [ 3.879161, 43.630322 ], [ 3.87907, 43.630426 ], [ 3.878991, 43.630509 ], [ 3.878927, 43.630599 ], [ 3.878846, 43.63067 ], [ 3.878734, 43.630829 ], [ 3.878687, 43.630935 ], [ 3.878679, 43.631026 ], [ 3.8788, 43.631107 ], [ 3.878901, 43.631161 ], [ 3.879011, 43.631214 ], [ 3.879144, 43.631172 ], [ 3.879099, 43.631266 ], [ 3.879205, 43.631342 ], [ 3.879289, 43.631426 ], [ 3.879356, 43.631511 ], [ 3.87945, 43.631573 ], [ 3.879675, 43.631688 ], [ 3.879795, 43.631734 ], [ 3.879886, 43.631798 ], [ 3.879999, 43.63187 ], [ 3.880128, 43.631965 ], [ 3.880276, 43.631962 ], [ 3.88037, 43.631902 ], [ 3.880447, 43.631811 ], [ 3.880506, 43.631707 ], [ 3.880567, 43.63156 ], [ 3.880619, 43.63142 ], [ 3.880744, 43.63128 ], [ 3.88085, 43.631188 ], [ 3.880871, 43.631096 ], [ 3.880956, 43.631019 ], [ 3.881069, 43.63093 ], [ 3.881129, 43.630811 ], [ 3.881249, 43.630724 ], [ 3.881335, 43.630649 ], [ 3.881413, 43.630541 ], [ 3.881534, 43.630464 ], [ 3.881619, 43.630374 ], [ 3.881767, 43.630287 ], [ 3.881878, 43.630216 ], [ 3.881922, 43.630117 ], [ 3.881985, 43.630032 ], [ 3.882065, 43.629933 ], [ 3.882179, 43.629814 ], [ 3.882273, 43.629679 ], [ 3.882405, 43.629537 ], [ 3.882487, 43.629456 ], [ 3.882562, 43.629381 ], [ 3.882667, 43.629299 ], [ 3.882771, 43.629204 ], [ 3.882868, 43.629121 ], [ 3.882942, 43.629039 ], [ 3.883043, 43.628916 ], [ 3.883112, 43.628833 ], [ 3.88321, 43.628778 ], [ 3.883265, 43.628864 ], [ 3.883174, 43.628936 ], [ 3.8831, 43.629021 ], [ 3.88301, 43.629101 ], [ 3.882896, 43.629189 ], [ 3.882798, 43.629269 ], [ 3.882711, 43.629336 ], [ 3.882599, 43.6294 ], [ 3.88252, 43.629471 ], [ 3.882414, 43.629548 ], [ 3.882328, 43.629636 ], [ 3.882255, 43.629732 ], [ 3.882164, 43.629847 ], [ 3.88206, 43.629962 ], [ 3.881984, 43.630085 ], [ 3.881904, 43.63018 ], [ 3.881885, 43.630277 ], [ 3.882006, 43.6303 ], [ 3.882122, 43.630374 ], [ 3.882241, 43.630343 ], [ 3.882308, 43.630247 ], [ 3.882345, 43.630147 ], [ 3.882379, 43.630236 ], [ 3.882313, 43.630324 ], [ 3.882248, 43.630401 ], [ 3.882194, 43.630489 ], [ 3.882309, 43.630538 ], [ 3.882356, 43.63063 ], [ 3.882463, 43.63068 ], [ 3.882598, 43.630693 ], [ 3.882724, 43.630695 ], [ 3.882835, 43.630627 ], [ 3.88291, 43.630524 ], [ 3.882965, 43.630436 ], [ 3.883021, 43.630349 ], [ 3.883073, 43.630259 ], [ 3.883082, 43.630167 ], [ 3.883083, 43.630275 ], [ 3.883004, 43.63042 ], [ 3.882951, 43.630508 ], [ 3.882895, 43.630596 ], [ 3.882923, 43.630686 ], [ 3.883049, 43.630654 ], [ 3.883124, 43.630737 ], [ 3.883245, 43.630778 ], [ 3.883338, 43.630843 ], [ 3.883403, 43.630924 ], [ 3.883475, 43.631006 ], [ 3.883575, 43.631072 ], [ 3.883592, 43.631161 ], [ 3.883484, 43.631087 ], [ 3.883375, 43.631033 ], [ 3.883338, 43.630934 ], [ 3.88326, 43.63086 ], [ 3.88318, 43.630784 ], [ 3.883073, 43.630733 ], [ 3.882918, 43.630681 ], [ 3.882759, 43.630719 ], [ 3.882652, 43.630804 ], [ 3.88267, 43.630917 ], [ 3.882715, 43.631006 ], [ 3.882724, 43.6311 ], [ 3.882597, 43.631106 ], [ 3.882727, 43.631145 ], [ 3.882606, 43.63117 ], [ 3.882622, 43.631266 ], [ 3.882675, 43.631354 ], [ 3.882735, 43.631273 ], [ 3.882719, 43.631176 ], [ 3.882732, 43.631345 ], [ 3.882738, 43.631524 ], [ 3.882777, 43.631624 ], [ 3.882711, 43.631726 ], [ 3.882587, 43.631701 ], [ 3.882483, 43.63164 ], [ 3.8826, 43.631677 ], [ 3.882619, 43.631783 ], [ 3.882529, 43.631865 ], [ 3.882418, 43.63196 ], [ 3.882311, 43.63203 ], [ 3.882181, 43.632049 ], [ 3.882059, 43.63197 ], [ 3.881951, 43.631917 ], [ 3.881825, 43.63182 ], [ 3.881667, 43.631772 ], [ 3.881542, 43.631724 ], [ 3.881415, 43.631667 ], [ 3.881276, 43.631645 ], [ 3.88123, 43.631561 ], [ 3.881203, 43.631451 ], [ 3.881202, 43.631339 ], [ 3.881288, 43.631222 ], [ 3.88131, 43.631123 ], [ 3.881434, 43.631072 ], [ 3.88147, 43.631175 ], [ 3.881314, 43.631188 ], [ 3.881237, 43.631272 ], [ 3.881205, 43.631363 ], [ 3.881226, 43.631456 ], [ 3.881267, 43.631542 ], [ 3.881358, 43.631625 ], [ 3.881478, 43.631658 ], [ 3.881597, 43.631707 ], [ 3.881708, 43.631631 ], [ 3.881796, 43.631556 ], [ 3.881802, 43.631464 ], [ 3.881916, 43.631422 ], [ 3.881895, 43.631516 ], [ 3.881789, 43.631579 ], [ 3.881713, 43.631679 ], [ 3.881785, 43.63178 ], [ 3.88189, 43.631848 ], [ 3.882056, 43.631945 ], [ 3.882157, 43.632012 ], [ 3.882292, 43.632018 ], [ 3.882346, 43.631931 ], [ 3.882466, 43.631907 ], [ 3.882572, 43.63182 ], [ 3.882672, 43.631736 ], [ 3.882764, 43.631664 ], [ 3.882762, 43.631571 ], [ 3.882725, 43.631441 ], [ 3.882715, 43.631331 ], [ 3.882694, 43.631196 ], [ 3.882667, 43.63109 ], [ 3.882649, 43.630982 ], [ 3.88261, 43.630878 ], [ 3.882515, 43.630813 ], [ 3.882397, 43.630719 ], [ 3.882266, 43.63069 ], [ 3.882195, 43.630612 ], [ 3.882099, 43.630547 ], [ 3.882031, 43.63046 ], [ 3.881932, 43.630385 ], [ 3.881863, 43.630297 ], [ 3.881724, 43.630277 ], [ 3.881611, 43.630366 ], [ 3.881536, 43.630461 ], [ 3.881459, 43.630542 ], [ 3.881388, 43.63062 ], [ 3.881298, 43.630701 ], [ 3.881173, 43.630828 ], [ 3.88112, 43.630917 ], [ 3.880999, 43.631032 ], [ 3.880821, 43.631147 ], [ 3.880954, 43.631223 ], [ 3.880821, 43.631192 ], [ 3.880822, 43.631286 ], [ 3.880722, 43.631385 ], [ 3.88068, 43.631499 ], [ 3.880637, 43.631592 ], [ 3.880554, 43.631681 ], [ 3.880495, 43.631768 ], [ 3.880431, 43.63187 ], [ 3.880346, 43.63198 ], [ 3.880389, 43.632074 ], [ 3.880478, 43.632156 ], [ 3.880545, 43.632239 ], [ 3.880546, 43.632337 ], [ 3.880584, 43.63245 ], [ 3.880616, 43.63254 ], [ 3.880776, 43.632562 ], [ 3.880901, 43.632507 ], [ 3.881031, 43.632413 ], [ 3.881129, 43.632308 ], [ 3.881195, 43.632232 ], [ 3.881232, 43.632343 ], [ 3.881085, 43.632413 ], [ 3.880982, 43.632467 ], [ 3.880887, 43.632531 ], [ 3.88078, 43.632601 ], [ 3.880646, 43.632654 ], [ 3.880584, 43.632751 ], [ 3.880589, 43.632888 ], [ 3.880615, 43.633015 ], [ 3.880683, 43.633127 ], [ 3.880789, 43.633202 ], [ 3.880934, 43.633248 ], [ 3.880788, 43.633208 ], [ 3.880671, 43.633136 ], [ 3.880605, 43.633039 ], [ 3.880573, 43.632915 ], [ 3.880577, 43.632772 ], [ 3.880579, 43.632639 ], [ 3.880573, 43.632525 ], [ 3.880558, 43.632432 ], [ 3.880504, 43.632337 ], [ 3.880439, 43.632239 ], [ 3.880402, 43.632149 ], [ 3.880254, 43.632075 ], [ 3.880132, 43.632014 ], [ 3.88001, 43.631995 ], [ 3.879903, 43.631898 ], [ 3.879783, 43.631837 ], [ 3.879684, 43.631763 ], [ 3.879567, 43.631697 ], [ 3.879455, 43.63163 ], [ 3.879352, 43.631571 ], [ 3.879318, 43.631452 ], [ 3.879221, 43.631377 ], [ 3.879119, 43.631313 ], [ 3.878889, 43.631199 ], [ 3.878772, 43.631143 ], [ 3.878592, 43.631179 ], [ 3.878496, 43.631275 ], [ 3.878455, 43.631379 ], [ 3.878406, 43.631485 ], [ 3.878385, 43.631587 ], [ 3.878356, 43.631692 ], [ 3.878312, 43.631833 ], [ 3.878289, 43.631928 ], [ 3.878324, 43.632028 ], [ 3.87842, 43.632092 ], [ 3.878362, 43.632206 ], [ 3.878334, 43.632308 ], [ 3.878315, 43.632405 ], [ 3.878285, 43.632523 ], [ 3.878243, 43.63262 ], [ 3.878138, 43.632753 ], [ 3.878082, 43.632876 ], [ 3.878021, 43.633026 ], [ 3.877985, 43.633113 ], [ 3.877963, 43.633201 ], [ 3.877879, 43.633326 ], [ 3.877802, 43.633425 ], [ 3.877737, 43.633507 ], [ 3.877705, 43.633612 ], [ 3.877588, 43.633689 ], [ 3.877606, 43.633778 ], [ 3.877544, 43.633859 ], [ 3.877466, 43.633944 ], [ 3.877378, 43.634033 ], [ 3.877252, 43.634117 ], [ 3.877152, 43.634187 ], [ 3.877112, 43.634288 ], [ 3.877019, 43.634213 ], [ 3.87701, 43.63411 ], [ 3.877107, 43.634036 ], [ 3.8772, 43.633973 ], [ 3.877297, 43.633892 ], [ 3.877419, 43.633868 ], [ 3.877515, 43.633763 ], [ 3.877559, 43.633665 ], [ 3.877633, 43.633573 ], [ 3.877712, 43.633467 ], [ 3.877801, 43.633354 ], [ 3.877891, 43.633217 ], [ 3.877968, 43.633089 ], [ 3.87804, 43.632966 ], [ 3.878095, 43.632824 ], [ 3.87815, 43.632682 ], [ 3.878179, 43.632589 ], [ 3.878119, 43.632508 ], [ 3.877991, 43.632441 ], [ 3.877861, 43.632414 ], [ 3.877776, 43.63234 ], [ 3.877696, 43.632265 ], [ 3.877658, 43.632178 ], [ 3.877528, 43.632177 ], [ 3.877462, 43.63209 ], [ 3.877324, 43.632028 ], [ 3.877254, 43.631952 ], [ 3.877141, 43.631869 ], [ 3.87701, 43.631882 ], [ 3.877131, 43.631836 ], [ 3.87728, 43.631808 ], [ 3.877335, 43.631889 ], [ 3.877405, 43.631991 ], [ 3.877524, 43.632062 ], [ 3.877612, 43.63213 ], [ 3.877714, 43.632208 ], [ 3.877826, 43.632303 ], [ 3.877944, 43.632393 ], [ 3.878062, 43.632468 ], [ 3.878166, 43.632376 ], [ 3.878195, 43.632263 ], [ 3.878199, 43.63215 ], [ 3.878194, 43.632008 ], [ 3.878212, 43.631845 ], [ 3.878231, 43.631748 ], [ 3.87825, 43.631647 ], [ 3.878281, 43.631538 ], [ 3.878307, 43.631423 ], [ 3.878341, 43.63132 ], [ 3.878399, 43.631167 ], [ 3.878475, 43.631018 ], [ 3.878564, 43.630864 ], [ 3.87865, 43.630734 ], [ 3.878688, 43.63064 ], [ 3.878638, 43.63053 ], [ 3.878574, 43.630432 ], [ 3.878465, 43.630375 ], [ 3.878364, 43.630321 ], [ 3.878296, 43.630235 ], [ 3.878212, 43.630163 ], [ 3.878185, 43.630069 ], [ 3.878115, 43.629954 ], [ 3.878088, 43.629845 ], [ 3.878055, 43.629743 ], [ 3.877956, 43.629647 ], [ 3.877812, 43.629655 ], [ 3.877717, 43.629755 ], [ 3.877576, 43.629834 ], [ 3.877421, 43.629898 ], [ 3.877248, 43.629951 ], [ 3.877081, 43.630011 ], [ 3.876871, 43.630088 ], [ 3.876703, 43.630152 ], [ 3.876541, 43.630203 ], [ 3.876389, 43.630219 ], [ 3.876252, 43.630275 ], [ 3.876081, 43.630312 ], [ 3.875892, 43.630349 ], [ 3.875715, 43.630404 ], [ 3.875585, 43.630466 ], [ 3.875456, 43.630476 ], [ 3.875332, 43.630471 ], [ 3.875224, 43.630411 ], [ 3.875128, 43.63035 ], [ 3.875018, 43.630258 ], [ 3.874967, 43.630156 ], [ 3.875063, 43.630057 ], [ 3.875165, 43.629977 ], [ 3.875273, 43.629918 ], [ 3.875354, 43.629834 ], [ 3.875463, 43.629787 ], [ 3.875583, 43.629741 ], [ 3.875673, 43.629678 ], [ 3.875784, 43.629592 ], [ 3.875835, 43.629498 ], [ 3.875781, 43.629404 ], [ 3.875808, 43.629309 ], [ 3.875897, 43.629245 ], [ 3.876022, 43.629235 ], [ 3.876132, 43.629149 ], [ 3.876281, 43.629122 ], [ 3.876419, 43.629069 ], [ 3.876551, 43.629029 ], [ 3.876687, 43.628993 ], [ 3.876638, 43.628908 ], [ 3.876449, 43.628673 ], [ 3.876756, 43.628642 ], [ 3.876579, 43.628777 ], [ 3.876644, 43.62886 ], [ 3.876658, 43.628952 ], [ 3.87679, 43.628949 ], [ 3.876914, 43.628924 ], [ 3.877036, 43.628887 ], [ 3.877175, 43.628872 ], [ 3.877302, 43.62883 ], [ 3.877408, 43.628759 ], [ 3.877516, 43.628714 ], [ 3.877636, 43.628667 ], [ 3.877934, 43.628618 ], [ 3.877869, 43.628813 ], [ 3.877949, 43.628735 ], [ 3.87782, 43.628741 ], [ 3.877701, 43.628777 ], [ 3.877576, 43.628767 ], [ 3.877657, 43.628682 ], [ 3.877815, 43.628622 ], [ 3.877962, 43.628561 ], [ 3.878078, 43.628517 ], [ 3.878166, 43.628429 ], [ 3.878178, 43.628324 ], [ 3.878158, 43.628219 ], [ 3.878122, 43.628094 ], [ 3.878108, 43.627987 ], [ 3.878093, 43.627888 ], [ 3.878095, 43.627754 ], [ 3.878092, 43.62759 ], [ 3.878082, 43.627461 ], [ 3.87811, 43.627359 ], [ 3.877945, 43.627387 ], [ 3.877773, 43.627429 ], [ 3.877628, 43.627465 ], [ 3.877535, 43.627539 ], [ 3.877542, 43.627632 ], [ 3.877591, 43.627731 ], [ 3.87753, 43.627818 ], [ 3.877395, 43.627853 ], [ 3.877232, 43.627931 ], [ 3.877107, 43.627973 ], [ 3.877256, 43.627957 ], [ 3.877374, 43.62789 ], [ 3.877537, 43.627829 ], [ 3.877531, 43.627696 ], [ 3.877473, 43.627612 ], [ 3.877484, 43.627508 ], [ 3.877638, 43.627413 ], [ 3.877858, 43.627359 ], [ 3.877988, 43.627336 ], [ 3.878051, 43.627228 ], [ 3.877949, 43.627153 ], [ 3.877854, 43.627095 ], [ 3.877754, 43.627039 ], [ 3.877709, 43.626938 ], [ 3.87772, 43.62684 ], [ 3.877672, 43.626736 ], [ 3.877551, 43.626682 ], [ 3.877477, 43.626593 ], [ 3.877452, 43.626499 ], [ 3.877427, 43.626408 ], [ 3.877559, 43.626466 ], [ 3.877606, 43.62656 ], [ 3.877731, 43.626544 ], [ 3.877854, 43.626516 ], [ 3.877981, 43.626509 ], [ 3.878132, 43.626469 ], [ 3.877982, 43.626465 ], [ 3.877805, 43.626482 ], [ 3.877687, 43.626517 ], [ 3.87764, 43.626608 ], [ 3.877672, 43.626701 ], [ 3.877788, 43.626794 ], [ 3.877915, 43.62691 ], [ 3.87802, 43.626978 ], [ 3.878103, 43.627057 ], [ 3.87814, 43.627187 ], [ 3.878171, 43.627294 ], [ 3.878154, 43.627388 ], [ 3.878223, 43.627481 ], [ 3.878216, 43.62758 ], [ 3.878202, 43.627677 ], [ 3.878203, 43.62781 ], [ 3.878208, 43.627913 ], [ 3.878204, 43.628031 ], [ 3.878222, 43.628156 ], [ 3.878349, 43.628211 ], [ 3.878514, 43.628218 ], [ 3.878681, 43.628197 ], [ 3.878808, 43.628159 ], [ 3.878902, 43.628054 ], [ 3.878896, 43.627941 ], [ 3.878877, 43.627849 ], [ 3.878863, 43.627944 ], [ 3.878888, 43.628039 ], [ 3.879035, 43.628039 ], [ 3.879145, 43.62798 ], [ 3.879278, 43.627933 ], [ 3.879403, 43.627894 ], [ 3.879543, 43.627833 ], [ 3.879685, 43.627778 ], [ 3.87981, 43.627725 ], [ 3.879939, 43.627669 ], [ 3.879981, 43.627555 ], [ 3.879867, 43.627466 ], [ 3.879774, 43.627349 ], [ 3.879694, 43.627271 ], [ 3.879622, 43.627155 ], [ 3.879574, 43.626995 ], [ 3.87951, 43.626832 ], [ 3.87947, 43.626688 ], [ 3.87943, 43.626563 ], [ 3.879416, 43.626455 ], [ 3.879316, 43.626327 ], [ 3.879284, 43.626196 ], [ 3.879264, 43.626061 ], [ 3.879221, 43.625952 ], [ 3.879224, 43.625847 ], [ 3.879351, 43.625845 ], [ 3.879241, 43.625929 ], [ 3.879214, 43.626022 ], [ 3.879284, 43.626155 ], [ 3.879349, 43.62633 ], [ 3.879383, 43.626424 ], [ 3.879447, 43.626526 ], [ 3.879469, 43.626618 ], [ 3.879599, 43.62666 ], [ 3.879789, 43.626628 ], [ 3.879938, 43.626604 ], [ 3.880084, 43.626561 ], [ 3.880149, 43.626643 ], [ 3.880301, 43.626613 ], [ 3.880426, 43.626595 ], [ 3.880531, 43.626655 ], [ 3.880649, 43.626685 ], [ 3.880739, 43.626622 ], [ 3.880634, 43.62667 ], [ 3.880599, 43.626758 ], [ 3.880608, 43.62686 ], [ 3.880596, 43.626954 ], [ 3.88057, 43.627075 ], [ 3.880497, 43.627153 ], [ 3.880515, 43.627255 ], [ 3.880523, 43.627347 ], [ 3.880633, 43.627389 ], [ 3.880806, 43.627418 ], [ 3.880934, 43.627408 ], [ 3.881003, 43.627316 ], [ 3.881076, 43.62723 ], [ 3.881048, 43.627326 ], [ 3.880963, 43.627413 ], [ 3.880818, 43.627434 ], [ 3.880677, 43.627455 ], [ 3.880555, 43.627425 ], [ 3.880551, 43.627333 ], [ 3.880522, 43.627204 ], [ 3.880464, 43.627117 ], [ 3.880314, 43.627065 ], [ 3.880243, 43.626972 ], [ 3.88019, 43.626876 ], [ 3.880195, 43.626781 ], [ 3.880104, 43.626712 ], [ 3.879964, 43.626661 ], [ 3.879803, 43.626696 ], [ 3.879659, 43.626725 ], [ 3.879532, 43.626779 ], [ 3.879514, 43.626898 ], [ 3.879569, 43.627015 ], [ 3.879609, 43.627108 ], [ 3.879652, 43.627198 ], [ 3.879719, 43.627279 ], [ 3.87982, 43.627383 ], [ 3.879891, 43.627459 ], [ 3.880019, 43.627452 ], [ 3.880105, 43.627532 ], [ 3.880046, 43.627612 ], [ 3.880054, 43.627707 ], [ 3.879915, 43.627766 ], [ 3.879849, 43.627842 ], [ 3.879943, 43.62794 ], [ 3.880036, 43.628017 ], [ 3.880105, 43.628094 ], [ 3.880202, 43.628158 ], [ 3.880291, 43.628231 ], [ 3.880376, 43.628305 ], [ 3.880442, 43.628385 ], [ 3.880522, 43.62846 ], [ 3.880554, 43.628566 ], [ 3.880658, 43.628665 ], [ 3.880732, 43.628738 ], [ 3.880763, 43.628827 ], [ 3.880623, 43.628775 ], [ 3.880579, 43.628687 ], [ 3.880461, 43.628653 ], [ 3.880337, 43.628717 ], [ 3.880217, 43.628768 ], [ 3.880116, 43.628843 ], [ 3.879991, 43.628861 ], [ 3.879847, 43.628886 ], [ 3.87973, 43.628828 ], [ 3.879563, 43.628796 ], [ 3.879437, 43.628829 ], [ 3.879289, 43.6289 ], [ 3.879152, 43.628964 ], [ 3.879039, 43.629007 ], [ 3.878984, 43.628923 ], [ 3.87895, 43.628807 ], [ 3.878922, 43.628705 ], [ 3.878896, 43.628593 ], [ 3.878876, 43.628482 ], [ 3.87888, 43.628377 ], [ 3.878841, 43.628275 ], [ 3.878953, 43.628335 ], [ 3.878988, 43.628444 ], [ 3.879011, 43.628551 ], [ 3.87903, 43.628649 ], [ 3.879052, 43.628755 ], [ 3.879073, 43.62885 ], [ 3.879158, 43.628929 ], [ 3.879282, 43.628911 ], [ 3.879386, 43.628859 ], [ 3.879546, 43.62877 ], [ 3.879576, 43.628681 ], [ 3.879548, 43.628578 ], [ 3.879537, 43.628477 ], [ 3.879596, 43.628376 ], [ 3.879698, 43.628314 ], [ 3.879807, 43.628263 ], [ 3.879938, 43.62821 ], [ 3.88005, 43.628159 ], [ 3.880012, 43.628069 ], [ 3.879938, 43.62799 ], [ 3.879857, 43.627901 ], [ 3.879772, 43.627817 ], [ 3.879652, 43.627841 ], [ 3.879507, 43.62788 ], [ 3.879374, 43.627941 ], [ 3.879249, 43.628011 ], [ 3.879107, 43.628063 ], [ 3.878987, 43.628123 ], [ 3.878833, 43.628209 ], [ 3.878678, 43.628238 ], [ 3.878506, 43.628238 ], [ 3.878375, 43.628235 ], [ 3.878265, 43.628296 ], [ 3.878273, 43.628401 ], [ 3.878286, 43.628506 ], [ 3.878339, 43.628591 ], [ 3.87846, 43.62866 ], [ 3.87849, 43.628748 ], [ 3.878356, 43.628584 ], [ 3.878267, 43.628511 ], [ 3.878251, 43.628611 ], [ 3.878323, 43.628721 ], [ 3.878453, 43.628893 ], [ 3.878559, 43.629006 ], [ 3.878631, 43.629097 ], [ 3.878689, 43.629183 ], [ 3.878721, 43.629081 ], [ 3.878606, 43.629041 ], [ 3.878483, 43.629056 ], [ 3.878431, 43.628969 ], [ 3.878374, 43.628887 ], [ 3.878317, 43.6288 ], [ 3.878415, 43.628864 ], [ 3.878461, 43.628958 ], [ 3.87847, 43.629056 ], [ 3.878594, 43.629124 ], [ 3.87855, 43.629233 ], [ 3.878379, 43.629257 ], [ 3.878252, 43.629288 ], [ 3.878181, 43.629391 ], [ 3.878122, 43.629478 ], [ 3.878202, 43.629393 ], [ 3.87835, 43.629312 ], [ 3.87852, 43.629229 ], [ 3.878617, 43.629159 ], [ 3.878591, 43.629284 ], [ 3.878477, 43.629326 ], [ 3.87835, 43.629397 ], [ 3.878259, 43.629466 ], [ 3.878133, 43.629485 ], [ 3.878006, 43.629478 ], [ 3.877897, 43.629294 ], [ 3.877806, 43.62916 ], [ 3.877704, 43.629034 ], [ 3.877633, 43.628948 ], [ 3.87755, 43.62887 ], [ 3.8774, 43.628881 ], [ 3.877244, 43.62892 ], [ 3.877065, 43.628968 ], [ 3.876874, 43.629041 ], [ 3.876709, 43.629102 ], [ 3.87663, 43.629173 ], [ 3.876667, 43.629265 ], [ 3.876727, 43.629355 ], [ 3.87676, 43.62945 ], [ 3.876845, 43.62953 ], [ 3.87688, 43.629629 ], [ 3.876798, 43.629537 ], [ 3.87676, 43.629445 ], [ 3.87669, 43.629358 ], [ 3.876626, 43.629219 ], [ 3.876552, 43.629118 ], [ 3.876423, 43.629153 ], [ 3.876235, 43.629225 ], [ 3.876076, 43.629297 ], [ 3.875929, 43.629383 ], [ 3.875909, 43.629486 ], [ 3.875897, 43.629577 ], [ 3.875824, 43.629673 ], [ 3.875705, 43.629756 ], [ 3.875562, 43.629852 ], [ 3.875398, 43.629927 ], [ 3.87525, 43.630014 ], [ 3.875133, 43.630102 ], [ 3.875061, 43.630194 ], [ 3.875145, 43.630324 ], [ 3.87529, 43.63039 ], [ 3.875346, 43.630308 ], [ 3.875491, 43.63029 ], [ 3.875616, 43.630281 ], [ 3.87578, 43.630248 ], [ 3.875891, 43.630178 ], [ 3.876012, 43.630126 ], [ 3.876148, 43.630124 ], [ 3.87628, 43.630089 ], [ 3.876385, 43.630032 ], [ 3.876501, 43.629964 ], [ 3.876636, 43.629921 ], [ 3.876766, 43.629882 ], [ 3.876896, 43.629857 ], [ 3.877067, 43.6298 ], [ 3.877207, 43.629762 ], [ 3.877306, 43.629707 ], [ 3.877209, 43.629777 ], [ 3.877288, 43.629674 ], [ 3.87725, 43.629555 ], [ 3.877164, 43.629457 ], [ 3.877081, 43.629354 ], [ 3.87717, 43.629279 ], [ 3.877402, 43.629292 ], [ 3.877186, 43.629228 ], [ 3.877276, 43.629297 ], [ 3.877253, 43.629205 ], [ 3.877187, 43.62929 ], [ 3.877187, 43.629439 ], [ 3.877237, 43.629546 ], [ 3.877281, 43.629639 ], [ 3.877179, 43.629716 ], [ 3.877032, 43.629765 ], [ 3.876921, 43.629823 ], [ 3.876888, 43.629913 ], [ 3.876775, 43.629969 ], [ 3.876651, 43.629957 ], [ 3.87655, 43.630012 ], [ 3.876665, 43.629977 ], [ 3.876786, 43.629923 ], [ 3.876907, 43.629887 ], [ 3.876707, 43.629928 ], [ 3.876528, 43.629988 ], [ 3.876318, 43.630063 ], [ 3.87615, 43.630104 ], [ 3.875972, 43.630168 ], [ 3.875815, 43.630229 ], [ 3.875698, 43.630275 ], [ 3.875574, 43.630249 ], [ 3.875446, 43.630297 ], [ 3.875309, 43.630413 ], [ 3.87541, 43.630491 ], [ 3.875542, 43.630463 ], [ 3.875729, 43.630436 ], [ 3.875893, 43.630414 ], [ 3.87603, 43.630317 ], [ 3.876192, 43.63027 ], [ 3.876342, 43.630206 ], [ 3.876496, 43.630169 ], [ 3.876679, 43.630115 ], [ 3.876869, 43.630047 ], [ 3.876991, 43.629995 ], [ 3.877132, 43.629948 ], [ 3.877266, 43.629907 ], [ 3.877384, 43.629859 ], [ 3.877546, 43.629808 ], [ 3.877687, 43.629782 ], [ 3.877817, 43.629708 ], [ 3.877946, 43.629657 ], [ 3.877993, 43.629566 ], [ 3.878114, 43.629633 ], [ 3.878152, 43.629728 ], [ 3.878229, 43.629858 ], [ 3.878251, 43.629986 ], [ 3.878318, 43.630081 ], [ 3.878397, 43.630177 ], [ 3.878426, 43.630272 ], [ 3.878496, 43.630371 ], [ 3.878601, 43.630436 ], [ 3.878777, 43.630437 ], [ 3.878832, 43.630352 ], [ 3.87872, 43.630264 ], [ 3.878655, 43.630187 ], [ 3.878784, 43.630179 ], [ 3.878787, 43.630087 ], [ 3.878864, 43.629999 ], [ 3.878965, 43.629944 ], [ 3.878995, 43.629855 ], [ 3.878901, 43.629918 ], [ 3.878814, 43.629996 ], [ 3.87875, 43.630077 ], [ 3.878619, 43.630068 ], [ 3.878721, 43.630122 ], [ 3.878844, 43.630141 ], [ 3.878888, 43.630239 ], [ 3.879023, 43.63027 ], [ 3.879185, 43.630214 ], [ 3.879283, 43.630099 ], [ 3.879328, 43.630014 ], [ 3.879412, 43.629944 ], [ 3.879361, 43.629857 ], [ 3.879475, 43.629893 ], [ 3.879589, 43.629816 ], [ 3.879632, 43.629729 ], [ 3.879646, 43.629638 ], [ 3.879544, 43.629583 ], [ 3.879393, 43.629638 ], [ 3.879206, 43.629722 ], [ 3.879097, 43.62977 ], [ 3.878968, 43.629773 ], [ 3.878933, 43.629678 ], [ 3.87903, 43.629614 ], [ 3.879007, 43.629521 ], [ 3.879147, 43.629492 ], [ 3.879261, 43.629442 ], [ 3.879411, 43.629463 ], [ 3.879535, 43.629557 ], [ 3.879649, 43.629624 ], [ 3.879761, 43.629579 ], [ 3.879828, 43.629491 ], [ 3.879752, 43.629411 ], [ 3.879637, 43.62937 ], [ 3.879579, 43.629285 ], [ 3.879648, 43.629363 ], [ 3.879761, 43.629436 ], [ 3.879855, 43.629502 ], [ 3.879982, 43.629427 ], [ 3.880085, 43.629365 ], [ 3.880182, 43.629292 ], [ 3.880273, 43.629226 ], [ 3.880364, 43.629153 ], [ 3.880473, 43.629099 ], [ 3.880576, 43.629012 ], [ 3.880661, 43.628943 ], [ 3.880796, 43.628888 ], [ 3.880911, 43.628841 ], [ 3.881043, 43.628746 ], [ 3.881124, 43.628652 ], [ 3.881248, 43.62857 ], [ 3.881323, 43.62849 ], [ 3.881401, 43.628373 ], [ 3.881362, 43.628287 ], [ 3.881241, 43.628254 ], [ 3.881122, 43.62832 ], [ 3.881257, 43.628312 ], [ 3.881117, 43.628273 ], [ 3.880995, 43.628242 ], [ 3.88086, 43.628249 ], [ 3.880802, 43.628332 ], [ 3.880698, 43.628277 ], [ 3.88064, 43.628196 ], [ 3.880752, 43.628157 ], [ 3.8807, 43.628066 ], [ 3.880606, 43.627983 ], [ 3.88054, 43.627889 ], [ 3.880681, 43.62787 ], [ 3.880808, 43.627877 ], [ 3.880925, 43.627921 ], [ 3.881053, 43.627986 ], [ 3.881174, 43.627923 ], [ 3.88122, 43.627838 ], [ 3.881246, 43.627735 ], [ 3.881139, 43.627675 ], [ 3.881034, 43.627611 ], [ 3.880941, 43.627548 ], [ 3.881074, 43.627554 ], [ 3.881178, 43.627607 ], [ 3.88127, 43.627531 ], [ 3.881397, 43.627555 ], [ 3.881534, 43.627539 ], [ 3.881439, 43.627479 ], [ 3.881392, 43.627571 ], [ 3.881321, 43.627672 ], [ 3.881302, 43.627767 ], [ 3.881261, 43.628012 ], [ 3.881379, 43.628084 ], [ 3.88151, 43.62804 ], [ 3.881543, 43.627939 ], [ 3.881609, 43.627804 ], [ 3.881614, 43.627677 ], [ 3.881645, 43.627559 ], [ 3.88168, 43.627456 ], [ 3.881667, 43.627361 ], [ 3.881606, 43.627279 ], [ 3.881592, 43.627163 ], [ 3.881448, 43.627229 ], [ 3.8814, 43.627322 ], [ 3.881527, 43.62734 ], [ 3.881537, 43.627436 ], [ 3.881455, 43.627344 ], [ 3.881445, 43.627229 ], [ 3.881304, 43.627203 ], [ 3.881422, 43.62716 ], [ 3.881526, 43.627083 ], [ 3.881662, 43.627115 ], [ 3.881505, 43.627155 ], [ 3.881354, 43.627127 ], [ 3.881482, 43.627108 ], [ 3.881552, 43.627031 ], [ 3.88156, 43.627127 ], [ 3.881647, 43.627053 ], [ 3.881772, 43.627087 ], [ 3.881832, 43.626983 ], [ 3.881895, 43.626885 ], [ 3.881743, 43.626868 ], [ 3.881568, 43.62686 ], [ 3.881491, 43.626774 ], [ 3.881495, 43.626653 ], [ 3.881486, 43.626542 ], [ 3.881489, 43.626408 ], [ 3.881509, 43.626306 ], [ 3.881606, 43.626242 ], [ 3.881737, 43.626236 ], [ 3.881858, 43.626208 ], [ 3.881768, 43.626141 ], [ 3.881864, 43.626225 ], [ 3.881882, 43.626328 ], [ 3.881872, 43.626434 ], [ 3.881879, 43.626536 ], [ 3.881806, 43.62663 ], [ 3.881796, 43.626744 ], [ 3.88179, 43.626839 ], [ 3.881922, 43.626888 ], [ 3.882003, 43.626794 ], [ 3.882079, 43.626561 ], [ 3.882072, 43.626437 ], [ 3.882063, 43.626345 ], [ 3.881962, 43.62628 ], [ 3.881967, 43.62619 ], [ 3.881974, 43.626287 ], [ 3.88203, 43.626384 ], [ 3.882107, 43.626459 ], [ 3.882117, 43.626553 ], [ 3.882183, 43.626434 ], [ 3.882242, 43.626321 ], [ 3.882278, 43.626229 ], [ 3.882262, 43.626132 ], [ 3.882143, 43.626088 ], [ 3.881995, 43.626058 ], [ 3.881801, 43.626029 ], [ 3.881623, 43.626011 ], [ 3.8815, 43.625992 ], [ 3.881379, 43.625972 ], [ 3.881247, 43.625957 ], [ 3.881055, 43.62593 ], [ 3.880921, 43.625909 ], [ 3.880788, 43.625907 ], [ 3.880667, 43.625862 ], [ 3.880515, 43.625867 ], [ 3.88036, 43.625849 ], [ 3.880194, 43.625851 ], [ 3.880036, 43.625829 ], [ 3.879891, 43.625811 ], [ 3.879722, 43.625793 ], [ 3.879578, 43.625754 ], [ 3.879433, 43.625768 ], [ 3.879303, 43.62575 ], [ 3.879165, 43.625749 ], [ 3.879021, 43.625743 ], [ 3.878896, 43.6258 ], [ 3.87875, 43.625846 ], [ 3.878587, 43.625843 ], [ 3.878386, 43.625869 ], [ 3.878178, 43.625906 ], [ 3.878059, 43.625945 ], [ 3.877935, 43.625973 ], [ 3.877807, 43.626009 ], [ 3.877683, 43.626043 ], [ 3.877566, 43.626073 ], [ 3.877428, 43.626142 ], [ 3.877347, 43.626217 ], [ 3.877221, 43.626236 ], [ 3.877103, 43.62627 ], [ 3.876957, 43.626263 ], [ 3.876808, 43.626305 ], [ 3.876693, 43.626345 ], [ 3.87657, 43.626388 ], [ 3.87642, 43.626431 ], [ 3.876278, 43.626467 ], [ 3.87615, 43.626489 ], [ 3.876013, 43.626515 ], [ 3.876017, 43.626615 ], [ 3.876154, 43.626694 ], [ 3.876266, 43.626734 ], [ 3.876458, 43.626739 ], [ 3.876635, 43.626759 ], [ 3.876756, 43.626808 ], [ 3.876754, 43.626914 ], [ 3.876672, 43.627034 ], [ 3.876638, 43.627146 ], [ 3.876685, 43.627261 ], [ 3.876761, 43.627349 ], [ 3.876896, 43.627328 ], [ 3.877087, 43.627305 ], [ 3.876958, 43.627354 ], [ 3.876809, 43.627389 ], [ 3.876682, 43.627354 ], [ 3.876645, 43.627226 ], [ 3.876606, 43.627127 ], [ 3.87663, 43.627024 ], [ 3.876666, 43.626903 ], [ 3.876623, 43.62679 ], [ 3.876448, 43.626739 ], [ 3.876324, 43.626756 ], [ 3.876202, 43.6267 ], [ 3.876084, 43.626633 ], [ 3.875982, 43.626578 ], [ 3.875862, 43.626545 ], [ 3.875738, 43.626583 ], [ 3.875684, 43.626665 ], [ 3.875573, 43.626624 ], [ 3.875489, 43.6267 ], [ 3.875458, 43.62679 ], [ 3.87536, 43.62686 ], [ 3.875403, 43.62696 ], [ 3.875502, 43.627018 ], [ 3.875601, 43.62695 ], [ 3.875678, 43.626878 ], [ 3.875714, 43.626791 ], [ 3.875691, 43.626702 ], [ 3.875685, 43.62661 ], [ 3.87582, 43.62663 ], [ 3.875779, 43.626723 ] ], [ [ 3.875649, 43.626577 ], [ 3.875504, 43.626657 ], [ 3.875371, 43.626704 ], [ 3.875273, 43.626768 ], [ 3.875322, 43.626898 ], [ 3.875362, 43.626984 ], [ 3.875452, 43.627065 ], [ 3.875591, 43.627016 ], [ 3.875461, 43.627051 ], [ 3.875424, 43.627152 ], [ 3.875519, 43.627225 ], [ 3.875651, 43.627178 ], [ 3.875782, 43.627155 ], [ 3.875857, 43.627233 ], [ 3.87594, 43.627301 ], [ 3.876008, 43.627387 ], [ 3.876067, 43.627466 ], [ 3.876114, 43.627553 ], [ 3.876136, 43.627646 ], [ 3.87618, 43.627731 ], [ 3.876198, 43.627631 ], [ 3.8762, 43.627534 ], [ 3.876127, 43.627449 ], [ 3.87606, 43.627362 ], [ 3.875992, 43.627273 ], [ 3.875887, 43.627223 ], [ 3.875744, 43.627219 ], [ 3.875619, 43.627245 ], [ 3.875581, 43.627337 ], [ 3.875634, 43.627427 ], [ 3.87579, 43.627462 ], [ 3.875744, 43.627726 ], [ 3.875726, 43.627625 ], [ 3.875739, 43.627528 ], [ 3.875691, 43.627439 ], [ 3.875677, 43.627538 ], [ 3.875721, 43.627642 ], [ 3.875734, 43.627762 ], [ 3.87561, 43.62784 ], [ 3.875477, 43.627917 ], [ 3.875416, 43.628011 ], [ 3.875574, 43.628013 ], [ 3.875671, 43.62794 ], [ 3.875788, 43.627973 ], [ 3.875648, 43.628002 ], [ 3.875524, 43.628045 ], [ 3.875432, 43.628136 ], [ 3.875446, 43.628043 ], [ 3.875281, 43.628032 ], [ 3.875129, 43.628015 ], [ 3.874934, 43.627926 ], [ 3.874761, 43.627853 ], [ 3.874571, 43.627844 ], [ 3.874389, 43.62788 ], [ 3.874245, 43.627933 ], [ 3.874085, 43.627988 ], [ 3.873902, 43.62799 ], [ 3.873744, 43.628048 ], [ 3.873639, 43.628107 ], [ 3.873771, 43.628115 ], [ 3.873888, 43.62807 ], [ 3.874044, 43.627996 ], [ 3.874175, 43.628007 ], [ 3.874211, 43.62792 ], [ 3.874228, 43.627817 ], [ 3.874329, 43.627725 ], [ 3.874433, 43.627675 ], [ 3.874572, 43.627642 ], [ 3.874696, 43.627594 ], [ 3.874838, 43.627544 ], [ 3.875003, 43.627611 ], [ 3.87463, 43.627779 ], [ 3.874781, 43.627667 ], [ 3.874791, 43.627512 ], [ 3.874799, 43.627644 ], [ 3.874848, 43.627726 ], [ 3.874907, 43.627811 ], [ 3.875004, 43.627888 ], [ 3.875139, 43.627946 ], [ 3.875275, 43.62793 ], [ 3.875417, 43.627883 ], [ 3.875551, 43.627834 ], [ 3.875654, 43.627754 ], [ 3.875631, 43.627658 ], [ 3.875557, 43.627543 ], [ 3.875492, 43.627462 ], [ 3.875497, 43.627339 ], [ 3.875393, 43.627288 ], [ 3.875308, 43.627356 ], [ 3.875422, 43.627303 ], [ 3.87547, 43.62721 ], [ 3.875361, 43.627137 ], [ 3.875242, 43.627163 ], [ 3.875129, 43.627101 ], [ 3.875047, 43.627032 ], [ 3.875146, 43.626978 ], [ 3.875206, 43.627072 ], [ 3.875117, 43.627008 ], [ 3.875232, 43.626963 ], [ 3.875349, 43.62693 ], [ 3.875318, 43.626791 ], [ 3.875213, 43.626694 ], [ 3.875086, 43.626725 ], [ 3.874911, 43.626793 ], [ 3.874729, 43.626842 ], [ 3.874533, 43.626877 ], [ 3.874363, 43.626914 ], [ 3.874161, 43.626949 ], [ 3.87393, 43.626993 ], [ 3.873695, 43.627026 ], [ 3.873523, 43.627048 ], [ 3.873364, 43.62706 ], [ 3.873231, 43.627057 ], [ 3.873131, 43.627119 ], [ 3.873144, 43.627223 ], [ 3.873297, 43.627182 ], [ 3.873471, 43.627147 ], [ 3.87368, 43.627129 ], [ 3.873865, 43.627137 ], [ 3.873979, 43.627083 ], [ 3.873856, 43.62714 ], [ 3.873659, 43.627134 ], [ 3.873528, 43.627128 ], [ 3.873565, 43.627241 ], [ 3.873643, 43.627314 ], [ 3.873729, 43.627403 ], [ 3.87385, 43.627377 ], [ 3.873758, 43.627448 ], [ 3.873803, 43.627548 ], [ 3.873964, 43.627525 ], [ 3.87408, 43.627481 ], [ 3.873941, 43.627535 ], [ 3.873792, 43.627541 ], [ 3.873746, 43.627452 ], [ 3.87373, 43.627363 ], [ 3.873692, 43.627255 ], [ 3.87374, 43.627167 ], [ 3.873562, 43.627097 ], [ 3.873407, 43.627102 ], [ 3.873228, 43.627189 ], [ 3.873259, 43.627282 ], [ 3.873172, 43.627354 ], [ 3.873251, 43.627427 ], [ 3.873332, 43.627618 ], [ 3.873376, 43.627705 ], [ 3.873274, 43.627584 ], [ 3.873221, 43.627482 ], [ 3.873229, 43.627598 ], [ 3.873292, 43.627713 ], [ 3.873365, 43.627835 ], [ 3.873428, 43.627918 ], [ 3.873566, 43.627906 ], [ 3.873699, 43.627882 ], [ 3.873576, 43.627893 ], [ 3.873488, 43.627961 ], [ 3.873541, 43.628093 ], [ 3.873602, 43.628206 ], [ 3.873646, 43.628333 ], [ 3.873702, 43.628426 ], [ 3.873742, 43.628549 ], [ 3.873837, 43.628609 ], [ 3.873945, 43.628546 ], [ 3.874049, 43.628489 ], [ 3.874299, 43.628393 ], [ 3.874168, 43.628475 ], [ 3.874036, 43.628535 ], [ 3.873929, 43.628582 ], [ 3.874117, 43.628533 ], [ 3.874244, 43.628463 ], [ 3.874346, 43.628412 ], [ 3.874494, 43.628425 ], [ 3.874617, 43.628356 ], [ 3.874808, 43.628308 ], [ 3.874939, 43.628237 ], [ 3.87504, 43.628355 ], [ 3.875134, 43.628425 ], [ 3.875248, 43.62848 ], [ 3.875322, 43.628613 ], [ 3.875416, 43.62868 ], [ 3.875598, 43.62871 ], [ 3.875719, 43.628682 ], [ 3.875852, 43.628667 ], [ 3.875985, 43.628625 ], [ 3.876015, 43.628534 ], [ 3.876069, 43.628445 ], [ 3.876069, 43.628538 ], [ 3.876145, 43.628624 ], [ 3.876031, 43.628665 ], [ 3.875948, 43.628592 ], [ 3.875959, 43.628683 ], [ 3.875793, 43.628747 ], [ 3.875642, 43.628757 ], [ 3.875485, 43.628776 ], [ 3.875346, 43.628683 ], [ 3.875247, 43.628547 ], [ 3.875155, 43.628485 ], [ 3.875014, 43.628505 ], [ 3.874816, 43.628542 ], [ 3.874584, 43.628587 ], [ 3.87446, 43.628598 ], [ 3.874235, 43.628638 ], [ 3.874069, 43.628673 ], [ 3.873922, 43.62868 ], [ 3.873826, 43.628754 ], [ 3.873874, 43.628864 ], [ 3.87395, 43.628949 ], [ 3.874076, 43.628953 ], [ 3.874204, 43.628922 ], [ 3.874325, 43.628956 ], [ 3.874396, 43.62888 ], [ 3.874405, 43.628979 ], [ 3.874463, 43.629072 ], [ 3.874539, 43.628991 ], [ 3.874665, 43.628971 ], [ 3.87479, 43.628973 ], [ 3.874938, 43.628983 ], [ 3.875107, 43.628951 ], [ 3.87494, 43.629004 ], [ 3.874778, 43.628977 ], [ 3.87461, 43.628979 ], [ 3.874475, 43.628971 ], [ 3.874338, 43.629026 ], [ 3.874207, 43.629004 ], [ 3.874082, 43.629035 ], [ 3.873964, 43.629087 ], [ 3.873869, 43.629157 ], [ 3.873732, 43.629189 ], [ 3.873517, 43.629191 ], [ 3.873285, 43.629197 ], [ 3.873084, 43.629191 ], [ 3.87291, 43.629217 ], [ 3.872723, 43.629218 ], [ 3.872593, 43.629231 ], [ 3.872609, 43.62914 ], [ 3.872452, 43.629178 ], [ 3.872287, 43.629202 ], [ 3.872159, 43.629248 ], [ 3.871998, 43.629281 ], [ 3.871855, 43.629319 ], [ 3.871715, 43.629369 ], [ 3.871736, 43.629478 ], [ 3.871849, 43.629578 ], [ 3.871916, 43.62966 ], [ 3.87187, 43.62978 ], [ 3.871779, 43.629873 ], [ 3.871685, 43.629955 ], [ 3.871584, 43.630047 ], [ 3.871443, 43.630027 ], [ 3.871332, 43.629975 ], [ 3.871401, 43.629898 ], [ 3.871484, 43.629829 ], [ 3.87137, 43.62979 ], [ 3.871292, 43.629861 ], [ 3.871194, 43.62994 ], [ 3.871131, 43.630019 ], [ 3.871263, 43.629973 ], [ 3.871281, 43.629872 ], [ 3.871407, 43.629868 ], [ 3.871537, 43.629868 ], [ 3.871652, 43.629937 ], [ 3.871771, 43.629872 ], [ 3.871862, 43.629808 ], [ 3.871934, 43.629671 ], [ 3.871913, 43.629572 ], [ 3.871832, 43.629473 ], [ 3.871682, 43.629457 ], [ 3.871592, 43.629395 ], [ 3.871538, 43.629479 ], [ 3.871686, 43.629462 ], [ 3.871591, 43.629398 ], [ 3.871417, 43.62942 ], [ 3.871237, 43.629444 ], [ 3.871112, 43.629461 ], [ 3.87098, 43.629459 ], [ 3.870787, 43.629328 ], [ 3.870919, 43.629353 ], [ 3.871015, 43.629415 ], [ 3.871145, 43.629395 ], [ 3.871165, 43.62949 ], [ 3.871308, 43.629465 ], [ 3.871334, 43.629353 ], [ 3.871271, 43.629263 ], [ 3.871333, 43.629345 ], [ 3.872265, 43.626683 ], [ 3.872397, 43.626798 ], [ 3.872511, 43.626874 ], [ 3.872524, 43.626778 ] ] ] } }
]
}
